# WaveFront *.obj file (generated by CINEMA 4D)
mtllib Material.mtl

Griff
usemtl DRed
v -0.001442 1.479098 -0.420329
v -0.001442 1.479098 3.579671
v 0.516196 1.479098 -0.35218
v 0.498558 1.613073 -0.35218
v 0.446846 1.737917 -0.35218
v 0.364584 1.845124 -0.35218
v 0.257377 1.927386 -0.35218
v 0.132533 1.979098 -0.35218
v -0.001442 1.996736 -0.35218
v -0.135416 1.979098 -0.35218
v -0.260261 1.927386 -0.35218
v -0.367467 1.845124 -0.35218
v -0.44973 1.737917 -0.35218
v -0.501442 1.613073 -0.35218
v -0.51908 1.479098 -0.35218
v -0.501442 1.345124 -0.35218
v -0.44973 1.220279 -0.35218
v -0.367467 1.113073 -0.35218
v -0.260261 1.03081 -0.35218
v -0.135416 0.979098 -0.35218
v -0.001442 0.96146 -0.35218
v 0.132533 0.979098 -0.35218
v 0.257377 1.03081 -0.35218
v 0.364584 1.113073 -0.35218
v 0.446846 1.220279 -0.35218
v 0.498558 1.345124 -0.35218
v 0.998558 1.479098 -0.152379
v 0.964484 1.737917 -0.152379
v 0.864584 1.979098 -0.152379
v 0.705665 2.186205 -0.152379
v 0.498558 2.345124 -0.152379
v 0.257377 2.445024 -0.152379
v -0.001442 2.479098 -0.152379
v -0.260261 2.445024 -0.152379
v -0.501442 2.345124 -0.152379
v -0.708549 2.186205 -0.152379
v -0.867467 1.979098 -0.152379
v -0.967368 1.737917 -0.152379
v -1.001442 1.479098 -0.152379
v -0.967368 1.220279 -0.152379
v -0.867467 0.979098 -0.152379
v -0.708549 0.771991 -0.152379
v -0.501442 0.613073 -0.152379
v -0.260261 0.513172 -0.152379
v -0.001442 0.479098 -0.152379
v 0.257377 0.513172 -0.152379
v 0.498558 0.613073 -0.152379
v 0.705665 0.771991 -0.152379
v 0.864584 0.979098 -0.152379
v 0.964484 1.220279 -0.152379
v 1.412772 1.479098 0.165458
v 1.364584 1.845124 0.165458
v 1.223303 2.186205 0.165458
v 0.998558 2.479098 0.165458
v 0.705665 2.703843 0.165458
v 0.364584 2.845124 0.165458
v -0.001442 2.893312 0.165458
v -0.367467 2.845124 0.165458
v -0.708549 2.703843 0.165458
v -1.001442 2.479098 0.165458
v -1.226187 2.186205 0.165458
v -1.367467 1.845124 0.165458
v -1.415655 1.479098 0.165458
v -1.367467 1.113073 0.165458
v -1.226187 0.771991 0.165458
v -1.001442 0.479098 0.165458
v -0.708549 0.254353 0.165458
v -0.367467 0.113073 0.165458
v -0.001442 0.064885 0.165458
v 0.364584 0.113073 0.165458
v 0.705665 0.254353 0.165458
v 0.998558 0.479098 0.165458
v 1.223303 0.771991 0.165458
v 1.364584 1.113073 0.165458
v 1.730609 1.479098 0.579671
v 1.671591 1.927386 0.579671
v 1.498558 2.345124 0.579671
v 1.223303 2.703843 0.579671
v 0.864584 2.979098 0.579671
v 0.446846 3.152131 0.579671
v -0.001442 3.211149 0.579671
v -0.44973 3.152131 0.579671
v -0.867467 2.979098 0.579671
v -1.226187 2.703843 0.579671
v -1.501442 2.345124 0.579671
v -1.674474 1.927386 0.579671
v -1.733493 1.479098 0.579671
v -1.674474 1.03081 0.579671
v -1.501442 0.613073 0.579671
v -1.226187 0.254353 0.579671
v -0.867467 -0.020902 0.579671
v -0.44973 -0.193934 0.579671
v -0.001442 -0.252953 0.579671
v 0.446846 -0.193934 0.579671
v 0.864584 -0.020902 0.579671
v 1.223303 0.254353 0.579671
v 1.498558 0.613073 0.579671
v 1.671591 1.03081 0.579671
v 1.93041 1.479098 1.062033
v 1.864584 1.979098 1.062033
v 1.671591 2.445024 1.062033
v 1.364584 2.845124 1.062033
v 0.964484 3.152131 1.062033
v 0.498558 3.345124 1.062033
v -0.001442 3.41095 1.062033
v -0.501442 3.345124 1.062033
v -0.967368 3.152131 1.062033
v -1.367467 2.845124 1.062033
v -1.674474 2.445024 1.062033
v -1.867467 1.979098 1.062033
v -1.933294 1.479098 1.062033
v -1.867467 0.979098 1.062033
v -1.674474 0.513172 1.062033
v -1.367467 0.113073 1.062033
v -0.967368 -0.193934 1.062033
v -0.501442 -0.386927 1.062033
v -0.001442 -0.452754 1.062033
v 0.498558 -0.386927 1.062033
v 0.964484 -0.193934 1.062033
v 1.364584 0.113073 1.062033
v 1.671591 0.513172 1.062033
v 1.864584 0.979098 1.062033
v 1.998558 1.479098 1.579671
v 1.93041 1.996736 1.579671
v 1.730609 2.479098 1.579671
v 1.412772 2.893312 1.579671
v 0.998558 3.211149 1.579671
v 0.516196 3.41095 1.579671
v -0.001442 3.479098 1.579671
v -0.51908 3.41095 1.579671
v -1.001442 3.211149 1.579671
v -1.415655 2.893312 1.579671
v -1.733493 2.479098 1.579671
v -1.933294 1.996736 1.579671
v -2.001442 1.479098 1.579671
v -1.933294 0.96146 1.579671
v -1.733493 0.479098 1.579671
v -1.415655 0.064885 1.579671
v -1.001442 -0.252953 1.579671
v -0.51908 -0.452754 1.579671
v -0.001442 -0.520902 1.579671
v 0.516196 -0.452754 1.579671
v 0.998558 -0.252953 1.579671
v 1.412772 0.064885 1.579671
v 1.730609 0.479098 1.579671
v 1.93041 0.96146 1.579671
v 1.93041 1.479098 2.09731
v 1.864584 1.979098 2.09731
v 1.671591 2.445024 2.09731
v 1.364584 2.845124 2.09731
v 0.964484 3.152131 2.09731
v 0.498558 3.345124 2.09731
v -0.001442 3.41095 2.09731
v -0.501442 3.345124 2.09731
v -0.967368 3.152131 2.09731
v -1.367467 2.845124 2.09731
v -1.674474 2.445024 2.09731
v -1.867467 1.979098 2.09731
v -1.933294 1.479098 2.09731
v -1.867467 0.979098 2.09731
v -1.674474 0.513172 2.09731
v -1.367467 0.113073 2.09731
v -0.967368 -0.193934 2.09731
v -0.501442 -0.386927 2.09731
v -0.001442 -0.452754 2.09731
v 0.498558 -0.386927 2.09731
v 0.964484 -0.193934 2.09731
v 1.364584 0.113073 2.09731
v 1.671591 0.513172 2.09731
v 1.864584 0.979098 2.09731
v 1.730609 1.479098 2.579671
v 1.671591 1.927386 2.579671
v 1.498558 2.345124 2.579671
v 1.223303 2.703843 2.579671
v 0.864584 2.979098 2.579671
v 0.446846 3.152131 2.579671
v -0.001442 3.211149 2.579671
v -0.44973 3.152131 2.579671
v -0.867467 2.979098 2.579671
v -1.226187 2.703843 2.579671
v -1.501442 2.345124 2.579671
v -1.674474 1.927386 2.579671
v -1.733493 1.479098 2.579671
v -1.674474 1.03081 2.579671
v -1.501442 0.613073 2.579671
v -1.226187 0.254353 2.579671
v -0.867467 -0.020902 2.579671
v -0.44973 -0.193934 2.579671
v -0.001442 -0.252953 2.579671
v 0.446846 -0.193934 2.579671
v 0.864584 -0.020902 2.579671
v 1.223303 0.254353 2.579671
v 1.498558 0.613073 2.579671
v 1.671591 1.03081 2.579671
v 1.412772 1.479098 2.993885
v 1.364584 1.845124 2.993885
v 1.223303 2.186205 2.993885
v 0.998558 2.479098 2.993885
v 0.705665 2.703843 2.993885
v 0.364584 2.845124 2.993885
v -0.001442 2.893312 2.993885
v -0.367467 2.845124 2.993885
v -0.708549 2.703843 2.993885
v -1.001442 2.479098 2.993885
v -1.226187 2.186205 2.993885
v -1.367467 1.845124 2.993885
v -1.415655 1.479098 2.993885
v -1.367467 1.113073 2.993885
v -1.226187 0.771991 2.993885
v -1.001442 0.479098 2.993885
v -0.708549 0.254353 2.993885
v -0.367467 0.113073 2.993885
v -0.001442 0.064885 2.993885
v 0.364584 0.113073 2.993885
v 0.705665 0.254353 2.993885
v 0.998558 0.479098 2.993885
v 1.223303 0.771991 2.993885
v 1.364584 1.113073 2.993885
v 0.998558 1.479098 3.311722
v 0.964484 1.737917 3.311722
v 0.864584 1.979098 3.311722
v 0.705665 2.186205 3.311722
v 0.498558 2.345124 3.311722
v 0.257377 2.445024 3.311722
v -0.001442 2.479098 3.311722
v -0.260261 2.445024 3.311722
v -0.501442 2.345124 3.311722
v -0.708549 2.186205 3.311722
v -0.867467 1.979098 3.311722
v -0.967368 1.737917 3.311722
v -1.001442 1.479098 3.311722
v -0.967368 1.220279 3.311722
v -0.867467 0.979098 3.311722
v -0.708549 0.771991 3.311722
v -0.501442 0.613073 3.311722
v -0.260261 0.513172 3.311722
v -0.001442 0.479098 3.311722
v 0.257377 0.513172 3.311722
v 0.498558 0.613073 3.311722
v 0.705665 0.771991 3.311722
v 0.864584 0.979098 3.311722
v 0.964484 1.220279 3.311722
v 0.516196 1.479098 3.511523
v 0.498558 1.613073 3.511523
v 0.446846 1.737917 3.511523
v 0.364584 1.845124 3.511523
v 0.257377 1.927386 3.511523
v 0.132533 1.979098 3.511523
v -0.001442 1.996736 3.511523
v -0.135416 1.979098 3.511523
v -0.260261 1.927386 3.511523
v -0.367467 1.845124 3.511523
v -0.44973 1.737917 3.511523
v -0.501442 1.613073 3.511523
v -0.51908 1.479098 3.511523
v -0.501442 1.345124 3.511523
v -0.44973 1.220279 3.511523
v -0.367467 1.113073 3.511523
v -0.260261 1.03081 3.511523
v -0.135416 0.979098 3.511523
v -0.001442 0.96146 3.511523
v 0.132533 0.979098 3.511523
v 0.257377 1.03081 3.511523
v 0.364584 1.113073 3.511523
v 0.446846 1.220279 3.511523
v 0.498558 1.345124 3.511523

vt 0.958333 0 0
vt 0.916667 0 0
vt 0.875 0 0
vt 0.833333 0 0
vt 0.791667 0 0
vt 0.75 0 0
vt 0.708333 0 0
vt 0.666667 0 0
vt 0.625 0 0
vt 0.583333 0 0
vt 0.541667 0 0
vt 0.5 0 0
vt 0.458333 0 0
vt 0.416667 0 0
vt 0.375 0 0
vt 0.333333 0 0
vt 0.291667 0 0
vt 0.25 0 0
vt 0.208333 0 0
vt 0.166667 0 0
vt 0.125 0 0
vt 0.083333 0 0
vt 0.041667 0 0
vt 0 0 0
vt 0.958333 1 0
vt 0.916667 1 0
vt 0.875 1 0
vt 0.833333 1 0
vt 0.791667 1 0
vt 0.75 1 0
vt 0.708333 1 0
vt 0.666667 1 0
vt 0.625 1 0
vt 0.583333 1 0
vt 0.541667 1 0
vt 0.5 1 0
vt 0.458333 1 0
vt 0.416667 1 0
vt 0.375 1 0
vt 0.333333 1 0
vt 0.291667 1 0
vt 0.25 1 0
vt 0.208333 1 0
vt 0.166667 1 0
vt 0.125 1 0
vt 0.083333 1 0
vt 0.041667 1 0
vt 0 1 0
vt 1 0.083333 0
vt 0 0.083333 0
vt 0.041667 0.083333 0
vt 0.083333 0.083333 0
vt 0.125 0.083333 0
vt 0.166667 0.083333 0
vt 0.208333 0.083333 0
vt 0.25 0.083333 0
vt 0.291667 0.083333 0
vt 0.333333 0.083333 0
vt 0.375 0.083333 0
vt 0.416667 0.083333 0
vt 0.458333 0.083333 0
vt 0.5 0.083333 0
vt 0.541667 0.083333 0
vt 0.583333 0.083333 0
vt 0.625 0.083333 0
vt 0.666667 0.083333 0
vt 0.708333 0.083333 0
vt 0.75 0.083333 0
vt 0.791667 0.083333 0
vt 0.833333 0.083333 0
vt 0.875 0.083333 0
vt 0.916667 0.083333 0
vt 0.958333 0.083333 0
vt 1 0.166667 0
vt 0 0.166667 0
vt 0.041667 0.166667 0
vt 0.083333 0.166667 0
vt 0.125 0.166667 0
vt 0.166667 0.166667 0
vt 0.208333 0.166667 0
vt 0.25 0.166667 0
vt 0.291667 0.166667 0
vt 0.333333 0.166667 0
vt 0.375 0.166667 0
vt 0.416667 0.166667 0
vt 0.458333 0.166667 0
vt 0.5 0.166667 0
vt 0.541667 0.166667 0
vt 0.583333 0.166667 0
vt 0.625 0.166667 0
vt 0.666667 0.166667 0
vt 0.708333 0.166667 0
vt 0.75 0.166667 0
vt 0.791667 0.166667 0
vt 0.833333 0.166667 0
vt 0.875 0.166667 0
vt 0.916667 0.166667 0
vt 0.958333 0.166667 0
vt 1 0.25 0
vt 0 0.25 0
vt 0.041667 0.25 0
vt 0.083333 0.25 0
vt 0.125 0.25 0
vt 0.166667 0.25 0
vt 0.208333 0.25 0
vt 0.25 0.25 0
vt 0.291667 0.25 0
vt 0.333333 0.25 0
vt 0.375 0.25 0
vt 0.416667 0.25 0
vt 0.458333 0.25 0
vt 0.5 0.25 0
vt 0.541667 0.25 0
vt 0.583333 0.25 0
vt 0.625 0.25 0
vt 0.666667 0.25 0
vt 0.708333 0.25 0
vt 0.75 0.25 0
vt 0.791667 0.25 0
vt 0.833333 0.25 0
vt 0.875 0.25 0
vt 0.916667 0.25 0
vt 0.958333 0.25 0
vt 1 0.333333 0
vt 0 0.333333 0
vt 0.041667 0.333333 0
vt 0.083333 0.333333 0
vt 0.125 0.333333 0
vt 0.166667 0.333333 0
vt 0.208333 0.333333 0
vt 0.25 0.333333 0
vt 0.291667 0.333333 0
vt 0.333333 0.333333 0
vt 0.375 0.333333 0
vt 0.416667 0.333333 0
vt 0.458333 0.333333 0
vt 0.5 0.333333 0
vt 0.541667 0.333333 0
vt 0.583333 0.333333 0
vt 0.625 0.333333 0
vt 0.666667 0.333333 0
vt 0.708333 0.333333 0
vt 0.75 0.333333 0
vt 0.791667 0.333333 0
vt 0.833333 0.333333 0
vt 0.875 0.333333 0
vt 0.916667 0.333333 0
vt 0.958333 0.333333 0
vt 1 0.416667 0
vt 0 0.416667 0
vt 0.041667 0.416667 0
vt 0.083333 0.416667 0
vt 0.125 0.416667 0
vt 0.166667 0.416667 0
vt 0.208333 0.416667 0
vt 0.25 0.416667 0
vt 0.291667 0.416667 0
vt 0.333333 0.416667 0
vt 0.375 0.416667 0
vt 0.416667 0.416667 0
vt 0.458333 0.416667 0
vt 0.5 0.416667 0
vt 0.541667 0.416667 0
vt 0.583333 0.416667 0
vt 0.625 0.416667 0
vt 0.666667 0.416667 0
vt 0.708333 0.416667 0
vt 0.75 0.416667 0
vt 0.791667 0.416667 0
vt 0.833333 0.416667 0
vt 0.875 0.416667 0
vt 0.916667 0.416667 0
vt 0.958333 0.416667 0
vt 1 0.5 0
vt 0 0.5 0
vt 0.041667 0.5 0
vt 0.083333 0.5 0
vt 0.125 0.5 0
vt 0.166667 0.5 0
vt 0.208333 0.5 0
vt 0.25 0.5 0
vt 0.291667 0.5 0
vt 0.333333 0.5 0
vt 0.375 0.5 0
vt 0.416667 0.5 0
vt 0.458333 0.5 0
vt 0.5 0.5 0
vt 0.541667 0.5 0
vt 0.583333 0.5 0
vt 0.625 0.5 0
vt 0.666667 0.5 0
vt 0.708333 0.5 0
vt 0.75 0.5 0
vt 0.791667 0.5 0
vt 0.833333 0.5 0
vt 0.875 0.5 0
vt 0.916667 0.5 0
vt 0.958333 0.5 0
vt 1 0.583333 0
vt 0 0.583333 0
vt 0.041667 0.583333 0
vt 0.083333 0.583333 0
vt 0.125 0.583333 0
vt 0.166667 0.583333 0
vt 0.208333 0.583333 0
vt 0.25 0.583333 0
vt 0.291667 0.583333 0
vt 0.333333 0.583333 0
vt 0.375 0.583333 0
vt 0.416667 0.583333 0
vt 0.458333 0.583333 0
vt 0.5 0.583333 0
vt 0.541667 0.583333 0
vt 0.583333 0.583333 0
vt 0.625 0.583333 0
vt 0.666667 0.583333 0
vt 0.708333 0.583333 0
vt 0.75 0.583333 0
vt 0.791667 0.583333 0
vt 0.833333 0.583333 0
vt 0.875 0.583333 0
vt 0.916667 0.583333 0
vt 0.958333 0.583333 0
vt 1 0.666667 0
vt 0 0.666667 0
vt 0.041667 0.666667 0
vt 0.083333 0.666667 0
vt 0.125 0.666667 0
vt 0.166667 0.666667 0
vt 0.208333 0.666667 0
vt 0.25 0.666667 0
vt 0.291667 0.666667 0
vt 0.333333 0.666667 0
vt 0.375 0.666667 0
vt 0.416667 0.666667 0
vt 0.458333 0.666667 0
vt 0.5 0.666667 0
vt 0.541667 0.666667 0
vt 0.583333 0.666667 0
vt 0.625 0.666667 0
vt 0.666667 0.666667 0
vt 0.708333 0.666667 0
vt 0.75 0.666667 0
vt 0.791667 0.666667 0
vt 0.833333 0.666667 0
vt 0.875 0.666667 0
vt 0.916667 0.666667 0
vt 0.958333 0.666667 0
vt 1 0.75 0
vt 0 0.75 0
vt 0.041667 0.75 0
vt 0.083333 0.75 0
vt 0.125 0.75 0
vt 0.166667 0.75 0
vt 0.208333 0.75 0
vt 0.25 0.75 0
vt 0.291667 0.75 0
vt 0.333333 0.75 0
vt 0.375 0.75 0
vt 0.416667 0.75 0
vt 0.458333 0.75 0
vt 0.5 0.75 0
vt 0.541667 0.75 0
vt 0.583333 0.75 0
vt 0.625 0.75 0
vt 0.666667 0.75 0
vt 0.708333 0.75 0
vt 0.75 0.75 0
vt 0.791667 0.75 0
vt 0.833333 0.75 0
vt 0.875 0.75 0
vt 0.916667 0.75 0
vt 0.958333 0.75 0
vt 1 0.833333 0
vt 0 0.833333 0
vt 0.041667 0.833333 0
vt 0.083333 0.833333 0
vt 0.125 0.833333 0
vt 0.166667 0.833333 0
vt 0.208333 0.833333 0
vt 0.25 0.833333 0
vt 0.291667 0.833333 0
vt 0.333333 0.833333 0
vt 0.375 0.833333 0
vt 0.416667 0.833333 0
vt 0.458333 0.833333 0
vt 0.5 0.833333 0
vt 0.541667 0.833333 0
vt 0.583333 0.833333 0
vt 0.625 0.833333 0
vt 0.666667 0.833333 0
vt 0.708333 0.833333 0
vt 0.75 0.833333 0
vt 0.791667 0.833333 0
vt 0.833333 0.833333 0
vt 0.875 0.833333 0
vt 0.916667 0.833333 0
vt 0.958333 0.833333 0
vt 1 0.916667 0
vt 0 0.916667 0
vt 0.041667 0.916667 0
vt 0.083333 0.916667 0
vt 0.125 0.916667 0
vt 0.166667 0.916667 0
vt 0.208333 0.916667 0
vt 0.25 0.916667 0
vt 0.291667 0.916667 0
vt 0.333333 0.916667 0
vt 0.375 0.916667 0
vt 0.416667 0.916667 0
vt 0.458333 0.916667 0
vt 0.5 0.916667 0
vt 0.541667 0.916667 0
vt 0.583333 0.916667 0
vt 0.625 0.916667 0
vt 0.666667 0.916667 0
vt 0.708333 0.916667 0
vt 0.75 0.916667 0
vt 0.791667 0.916667 0
vt 0.833333 0.916667 0
vt 0.875 0.916667 0
vt 0.916667 0.916667 0
vt 0.958333 0.916667 0

f 4/51 28/76 27/75 3/50 
f 5/52 29/77 28/76 4/51 
f 6/53 30/78 29/77 5/52 
f 7/54 31/79 30/78 6/53 
f 8/55 32/80 31/79 7/54 
f 9/56 33/81 32/80 8/55 
f 10/57 34/82 33/81 9/56 
f 11/58 35/83 34/82 10/57 
f 12/59 36/84 35/83 11/58 
f 13/60 37/85 36/84 12/59 
f 14/61 38/86 37/85 13/60 
f 15/62 39/87 38/86 14/61 
f 16/63 40/88 39/87 15/62 
f 17/64 41/89 40/88 16/63 
f 18/65 42/90 41/89 17/64 
f 19/66 43/91 42/90 18/65 
f 20/67 44/92 43/91 19/66 
f 21/68 45/93 44/92 20/67 
f 22/69 46/94 45/93 21/68 
f 23/70 47/95 46/94 22/69 
f 24/71 48/96 47/95 23/70 
f 25/72 49/97 48/96 24/71 
f 26/73 50/98 49/97 25/72 
f 3/49 27/74 50/98 26/73 
f 28/76 52/101 51/100 27/75 
f 29/77 53/102 52/101 28/76 
f 30/78 54/103 53/102 29/77 
f 31/79 55/104 54/103 30/78 
f 32/80 56/105 55/104 31/79 
f 33/81 57/106 56/105 32/80 
f 34/82 58/107 57/106 33/81 
f 35/83 59/108 58/107 34/82 
f 36/84 60/109 59/108 35/83 
f 37/85 61/110 60/109 36/84 
f 38/86 62/111 61/110 37/85 
f 39/87 63/112 62/111 38/86 
f 40/88 64/113 63/112 39/87 
f 41/89 65/114 64/113 40/88 
f 42/90 66/115 65/114 41/89 
f 43/91 67/116 66/115 42/90 
f 44/92 68/117 67/116 43/91 
f 45/93 69/118 68/117 44/92 
f 46/94 70/119 69/118 45/93 
f 47/95 71/120 70/119 46/94 
f 48/96 72/121 71/120 47/95 
f 49/97 73/122 72/121 48/96 
f 50/98 74/123 73/122 49/97 
f 27/74 51/99 74/123 50/98 
f 52/101 76/126 75/125 51/100 
f 53/102 77/127 76/126 52/101 
f 54/103 78/128 77/127 53/102 
f 55/104 79/129 78/128 54/103 
f 56/105 80/130 79/129 55/104 
f 57/106 81/131 80/130 56/105 
f 58/107 82/132 81/131 57/106 
f 59/108 83/133 82/132 58/107 
f 60/109 84/134 83/133 59/108 
f 61/110 85/135 84/134 60/109 
f 62/111 86/136 85/135 61/110 
f 63/112 87/137 86/136 62/111 
f 64/113 88/138 87/137 63/112 
f 65/114 89/139 88/138 64/113 
f 66/115 90/140 89/139 65/114 
f 67/116 91/141 90/140 66/115 
f 68/117 92/142 91/141 67/116 
f 69/118 93/143 92/142 68/117 
f 70/119 94/144 93/143 69/118 
f 71/120 95/145 94/144 70/119 
f 72/121 96/146 95/145 71/120 
f 73/122 97/147 96/146 72/121 
f 74/123 98/148 97/147 73/122 
f 51/99 75/124 98/148 74/123 
f 76/126 100/151 99/150 75/125 
f 77/127 101/152 100/151 76/126 
f 78/128 102/153 101/152 77/127 
f 79/129 103/154 102/153 78/128 
f 80/130 104/155 103/154 79/129 
f 81/131 105/156 104/155 80/130 
f 82/132 106/157 105/156 81/131 
f 83/133 107/158 106/157 82/132 
f 84/134 108/159 107/158 83/133 
f 85/135 109/160 108/159 84/134 
f 86/136 110/161 109/160 85/135 
f 87/137 111/162 110/161 86/136 
f 88/138 112/163 111/162 87/137 
f 89/139 113/164 112/163 88/138 
f 90/140 114/165 113/164 89/139 
f 91/141 115/166 114/165 90/140 
f 92/142 116/167 115/166 91/141 
f 93/143 117/168 116/167 92/142 
f 94/144 118/169 117/168 93/143 
f 95/145 119/170 118/169 94/144 
f 96/146 120/171 119/170 95/145 
f 97/147 121/172 120/171 96/146 
f 98/148 122/173 121/172 97/147 
f 75/124 99/149 122/173 98/148 
f 100/151 124/176 123/175 99/150 
f 101/152 125/177 124/176 100/151 
f 102/153 126/178 125/177 101/152 
f 103/154 127/179 126/178 102/153 
f 104/155 128/180 127/179 103/154 
f 105/156 129/181 128/180 104/155 
f 106/157 130/182 129/181 105/156 
f 107/158 131/183 130/182 106/157 
f 108/159 132/184 131/183 107/158 
f 109/160 133/185 132/184 108/159 
f 110/161 134/186 133/185 109/160 
f 111/162 135/187 134/186 110/161 
f 112/163 136/188 135/187 111/162 
f 113/164 137/189 136/188 112/163 
f 114/165 138/190 137/189 113/164 
f 115/166 139/191 138/190 114/165 
f 116/167 140/192 139/191 115/166 
f 117/168 141/193 140/192 116/167 
f 118/169 142/194 141/193 117/168 
f 119/170 143/195 142/194 118/169 
f 120/171 144/196 143/195 119/170 
f 121/172 145/197 144/196 120/171 
f 122/173 146/198 145/197 121/172 
f 99/149 123/174 146/198 122/173 
f 124/176 148/201 147/200 123/175 
f 125/177 149/202 148/201 124/176 
f 126/178 150/203 149/202 125/177 
f 127/179 151/204 150/203 126/178 
f 128/180 152/205 151/204 127/179 
f 129/181 153/206 152/205 128/180 
f 130/182 154/207 153/206 129/181 
f 131/183 155/208 154/207 130/182 
f 132/184 156/209 155/208 131/183 
f 133/185 157/210 156/209 132/184 
f 134/186 158/211 157/210 133/185 
f 135/187 159/212 158/211 134/186 
f 136/188 160/213 159/212 135/187 
f 137/189 161/214 160/213 136/188 
f 138/190 162/215 161/214 137/189 
f 139/191 163/216 162/215 138/190 
f 140/192 164/217 163/216 139/191 
f 141/193 165/218 164/217 140/192 
f 142/194 166/219 165/218 141/193 
f 143/195 167/220 166/219 142/194 
f 144/196 168/221 167/220 143/195 
f 145/197 169/222 168/221 144/196 
f 146/198 170/223 169/222 145/197 
f 123/174 147/199 170/223 146/198 
f 148/201 172/226 171/225 147/200 
f 149/202 173/227 172/226 148/201 
f 150/203 174/228 173/227 149/202 
f 151/204 175/229 174/228 150/203 
f 152/205 176/230 175/229 151/204 
f 153/206 177/231 176/230 152/205 
f 154/207 178/232 177/231 153/206 
f 155/208 179/233 178/232 154/207 
f 156/209 180/234 179/233 155/208 
f 157/210 181/235 180/234 156/209 
f 158/211 182/236 181/235 157/210 
f 159/212 183/237 182/236 158/211 
f 160/213 184/238 183/237 159/212 
f 161/214 185/239 184/238 160/213 
f 162/215 186/240 185/239 161/214 
f 163/216 187/241 186/240 162/215 
f 164/217 188/242 187/241 163/216 
f 165/218 189/243 188/242 164/217 
f 166/219 190/244 189/243 165/218 
f 167/220 191/245 190/244 166/219 
f 168/221 192/246 191/245 167/220 
f 169/222 193/247 192/246 168/221 
f 170/223 194/248 193/247 169/222 
f 147/199 171/224 194/248 170/223 
f 172/226 196/251 195/250 171/225 
f 173/227 197/252 196/251 172/226 
f 174/228 198/253 197/252 173/227 
f 175/229 199/254 198/253 174/228 
f 176/230 200/255 199/254 175/229 
f 177/231 201/256 200/255 176/230 
f 178/232 202/257 201/256 177/231 
f 179/233 203/258 202/257 178/232 
f 180/234 204/259 203/258 179/233 
f 181/235 205/260 204/259 180/234 
f 182/236 206/261 205/260 181/235 
f 183/237 207/262 206/261 182/236 
f 184/238 208/263 207/262 183/237 
f 185/239 209/264 208/263 184/238 
f 186/240 210/265 209/264 185/239 
f 187/241 211/266 210/265 186/240 
f 188/242 212/267 211/266 187/241 
f 189/243 213/268 212/267 188/242 
f 190/244 214/269 213/268 189/243 
f 191/245 215/270 214/269 190/244 
f 192/246 216/271 215/270 191/245 
f 193/247 217/272 216/271 192/246 
f 194/248 218/273 217/272 193/247 
f 171/224 195/249 218/273 194/248 
f 196/251 220/276 219/275 195/250 
f 197/252 221/277 220/276 196/251 
f 198/253 222/278 221/277 197/252 
f 199/254 223/279 222/278 198/253 
f 200/255 224/280 223/279 199/254 
f 201/256 225/281 224/280 200/255 
f 202/257 226/282 225/281 201/256 
f 203/258 227/283 226/282 202/257 
f 204/259 228/284 227/283 203/258 
f 205/260 229/285 228/284 204/259 
f 206/261 230/286 229/285 205/260 
f 207/262 231/287 230/286 206/261 
f 208/263 232/288 231/287 207/262 
f 209/264 233/289 232/288 208/263 
f 210/265 234/290 233/289 209/264 
f 211/266 235/291 234/290 210/265 
f 212/267 236/292 235/291 211/266 
f 213/268 237/293 236/292 212/267 
f 214/269 238/294 237/293 213/268 
f 215/270 239/295 238/294 214/269 
f 216/271 240/296 239/295 215/270 
f 217/272 241/297 240/296 216/271 
f 218/273 242/298 241/297 217/272 
f 195/249 219/274 242/298 218/273 
f 220/276 244/301 243/300 219/275 
f 221/277 245/302 244/301 220/276 
f 222/278 246/303 245/302 221/277 
f 223/279 247/304 246/303 222/278 
f 224/280 248/305 247/304 223/279 
f 225/281 249/306 248/305 224/280 
f 226/282 250/307 249/306 225/281 
f 227/283 251/308 250/307 226/282 
f 228/284 252/309 251/308 227/283 
f 229/285 253/310 252/309 228/284 
f 230/286 254/311 253/310 229/285 
f 231/287 255/312 254/311 230/286 
f 232/288 256/313 255/312 231/287 
f 233/289 257/314 256/313 232/288 
f 234/290 258/315 257/314 233/289 
f 235/291 259/316 258/315 234/290 
f 236/292 260/317 259/316 235/291 
f 237/293 261/318 260/317 236/292 
f 238/294 262/319 261/318 237/293 
f 239/295 263/320 262/319 238/294 
f 240/296 264/321 263/320 239/295 
f 241/297 265/322 264/321 240/296 
f 242/298 266/323 265/322 241/297 
f 219/274 243/299 266/323 242/298 
f 4/51 3/50 1/24 
f 2/48 243/300 244/301 
f 5/52 4/51 1/23 
f 2/47 244/301 245/302 
f 6/53 5/52 1/22 
f 2/46 245/302 246/303 
f 7/54 6/53 1/21 
f 2/45 246/303 247/304 
f 8/55 7/54 1/20 
f 2/44 247/304 248/305 
f 9/56 8/55 1/19 
f 2/43 248/305 249/306 
f 10/57 9/56 1/18 
f 2/42 249/306 250/307 
f 11/58 10/57 1/17 
f 2/41 250/307 251/308 
f 12/59 11/58 1/16 
f 2/40 251/308 252/309 
f 13/60 12/59 1/15 
f 2/39 252/309 253/310 
f 14/61 13/60 1/14 
f 2/38 253/310 254/311 
f 15/62 14/61 1/13 
f 2/37 254/311 255/312 
f 16/63 15/62 1/12 
f 2/36 255/312 256/313 
f 17/64 16/63 1/11 
f 2/35 256/313 257/314 
f 18/65 17/64 1/10 
f 2/34 257/314 258/315 
f 19/66 18/65 1/9 
f 2/33 258/315 259/316 
f 20/67 19/66 1/8 
f 2/32 259/316 260/317 
f 21/68 20/67 1/7 
f 2/31 260/317 261/318 
f 22/69 21/68 1/6 
f 2/30 261/318 262/319 
f 23/70 22/69 1/5 
f 2/29 262/319 263/320 
f 24/71 23/70 1/4 
f 2/28 263/320 264/321 
f 25/72 24/71 1/3 
f 2/27 264/321 265/322 
f 26/73 25/72 1/2 
f 2/26 265/322 266/323 
f 3/49 26/73 1/1 
f 2/25 266/323 243/299 

Stab
usemtl WoodBrown
v -0.022722 16.537961 1.528277
v -0.022722 1.537961 1.528277
v 1.477278 16.537961 1.528277
v 1.477278 16.537961 1.528277
v 1.477278 1.537961 1.528277
v 1.477278 1.537961 1.528277
v 1.45449 16.537961 1.788749
v 1.45449 16.537961 1.788749
v 1.45449 1.537961 1.788749
v 1.45449 1.537961 1.788749
v 1.386817 16.537961 2.041307
v 1.386817 16.537961 2.041307
v 1.386817 1.537961 2.041307
v 1.386817 1.537961 2.041307
v 1.276317 16.537961 2.278277
v 1.276317 16.537961 2.278277
v 1.276317 1.537961 2.278277
v 1.276317 1.537961 2.278277
v 1.126345 16.537961 2.492458
v 1.126345 16.537961 2.492458
v 1.126345 1.537961 2.492458
v 1.126345 1.537961 2.492458
v 0.94146 16.537961 2.677343
v 0.94146 16.537961 2.677343
v 0.94146 1.537961 2.677343
v 0.94146 1.537961 2.677343
v 0.727278 16.537961 2.827315
v 0.727278 16.537961 2.827315
v 0.727278 1.537961 2.827315
v 0.727278 1.537961 2.827315
v 0.490309 16.537961 2.937816
v 0.490309 16.537961 2.937816
v 0.490309 1.537961 2.937816
v 0.490309 1.537961 2.937816
v 0.237751 16.537961 3.005488
v 0.237751 16.537961 3.005488
v 0.237751 1.537961 3.005488
v 0.237751 1.537961 3.005488
v -0.022722 16.537961 3.028277
v -0.022722 16.537961 3.028277
v -0.022722 1.537961 3.028277
v -0.022722 1.537961 3.028277
v -0.283194 16.537961 3.005488
v -0.283194 16.537961 3.005488
v -0.283194 1.537961 3.005488
v -0.283194 1.537961 3.005488
v -0.535752 16.537961 2.937816
v -0.535752 16.537961 2.937816
v -0.535752 1.537961 2.937816
v -0.535752 1.537961 2.937816
v -0.772722 16.537961 2.827315
v -0.772722 16.537961 2.827315
v -0.772722 1.537961 2.827315
v -0.772722 1.537961 2.827315
v -0.986903 16.537961 2.677343
v -0.986903 16.537961 2.677343
v -0.986903 1.537961 2.677343
v -0.986903 1.537961 2.677343
v -1.171788 16.537961 2.492458
v -1.171788 16.537961 2.492458
v -1.171788 1.537961 2.492458
v -1.171788 1.537961 2.492458
v -1.32176 16.537961 2.278277
v -1.32176 16.537961 2.278277
v -1.32176 1.537961 2.278277
v -1.32176 1.537961 2.278277
v -1.43226 16.537961 2.041307
v -1.43226 16.537961 2.041307
v -1.43226 1.537961 2.041307
v -1.43226 1.537961 2.041307
v -1.499933 16.537961 1.788749
v -1.499933 16.537961 1.788749
v -1.499933 1.537961 1.788749
v -1.499933 1.537961 1.788749
v -1.522722 16.537961 1.528277
v -1.522722 16.537961 1.528277
v -1.522722 1.537961 1.528277
v -1.522722 1.537961 1.528277
v -1.499933 16.537961 1.267804
v -1.499933 16.537961 1.267804
v -1.499933 1.537961 1.267804
v -1.499933 1.537961 1.267804
v -1.43226 16.537961 1.015246
v -1.43226 16.537961 1.015246
v -1.43226 1.537961 1.015246
v -1.43226 1.537961 1.015246
v -1.32176 16.537961 0.778277
v -1.32176 16.537961 0.778277
v -1.32176 1.537961 0.778277
v -1.32176 1.537961 0.778277
v -1.171788 16.537961 0.564095
v -1.171788 16.537961 0.564095
v -1.171788 1.537961 0.564095
v -1.171788 1.537961 0.564095
v -0.986903 16.537961 0.37921
v -0.986903 16.537961 0.37921
v -0.986903 1.537961 0.37921
v -0.986903 1.537961 0.37921
v -0.772722 16.537961 0.229239
v -0.772722 16.537961 0.229239
v -0.772722 1.537961 0.229239
v -0.772722 1.537961 0.229239
v -0.535752 16.537961 0.118738
v -0.535752 16.537961 0.118738
v -0.535752 1.537961 0.118738
v -0.535752 1.537961 0.118738
v -0.283194 16.537961 0.051065
v -0.283194 16.537961 0.051065
v -0.283194 1.537961 0.051065
v -0.283194 1.537961 0.051065
v -0.022722 16.537961 0.028277
v -0.022722 16.537961 0.028277
v -0.022722 1.537961 0.028277
v -0.022722 1.537961 0.028277
v 0.237751 16.537961 0.051065
v 0.237751 16.537961 0.051065
v 0.237751 1.537961 0.051065
v 0.237751 1.537961 0.051065
v 0.490309 16.537961 0.118738
v 0.490309 16.537961 0.118738
v 0.490309 1.537961 0.118738
v 0.490309 1.537961 0.118738
v 0.727278 16.537961 0.229239
v 0.727278 16.537961 0.229239
v 0.727278 1.537961 0.229239
v 0.727278 1.537961 0.229239
v 0.94146 16.537961 0.37921
v 0.94146 16.537961 0.37921
v 0.94146 1.537961 0.37921
v 0.94146 1.537961 0.37921
v 1.126345 16.537961 0.564095
v 1.126345 16.537961 0.564095
v 1.126345 1.537961 0.564095
v 1.126345 1.537961 0.564095
v 1.276317 16.537961 0.778277
v 1.276317 16.537961 0.778277
v 1.276317 1.537961 0.778277
v 1.276317 1.537961 0.778277
v 1.386817 16.537961 1.015246
v 1.386817 16.537961 1.015246
v 1.386817 1.537961 1.015246
v 1.386817 1.537961 1.015246
v 1.45449 16.537961 1.267804
v 1.45449 16.537961 1.267804
v 1.45449 1.537961 1.267804
v 1.45449 1.537961 1.267804

vt 0.5 0.5 0
vt 0.5 0.5 0
vt 0 0.5 0
vt 1 0 0
vt 0 0 0
vt 1 1 0
vt 0 1 0
vt 1 0.5 0
vt 0.007596 0.586824 0
vt 0.027778 0 0
vt 0.027778 1 0
vt 0.992404 0.586824 0
vt 0.030154 0.67101 0
vt 0.055556 0 0
vt 0.055556 1 0
vt 0.969846 0.67101 0
vt 0.066987 0.75 0
vt 0.083333 0 0
vt 0.083333 1 0
vt 0.933013 0.75 0
vt 0.116978 0.821394 0
vt 0.111111 0 0
vt 0.111111 1 0
vt 0.883022 0.821394 0
vt 0.178606 0.883022 0
vt 0.138889 0 0
vt 0.138889 1 0
vt 0.821394 0.883022 0
vt 0.25 0.933013 0
vt 0.166667 0 0
vt 0.166667 1 0
vt 0.75 0.933013 0
vt 0.32899 0.969846 0
vt 0.194444 0 0
vt 0.194444 1 0
vt 0.67101 0.969846 0
vt 0.413176 0.992404 0
vt 0.222222 0 0
vt 0.222222 1 0
vt 0.586824 0.992404 0
vt 0.5 1 0
vt 0.25 0 0
vt 0.25 1 0
vt 0.5 1 0
vt 0.586824 0.992404 0
vt 0.277778 0 0
vt 0.277778 1 0
vt 0.413176 0.992404 0
vt 0.67101 0.969846 0
vt 0.305556 0 0
vt 0.305556 1 0
vt 0.32899 0.969846 0
vt 0.75 0.933013 0
vt 0.333333 0 0
vt 0.333333 1 0
vt 0.25 0.933013 0
vt 0.821394 0.883022 0
vt 0.361111 0 0
vt 0.361111 1 0
vt 0.178606 0.883022 0
vt 0.883022 0.821394 0
vt 0.388889 0 0
vt 0.388889 1 0
vt 0.116978 0.821394 0
vt 0.933013 0.75 0
vt 0.416667 0 0
vt 0.416667 1 0
vt 0.066987 0.75 0
vt 0.969846 0.67101 0
vt 0.444444 0 0
vt 0.444444 1 0
vt 0.030154 0.67101 0
vt 0.992404 0.586824 0
vt 0.472222 0 0
vt 0.472222 1 0
vt 0.007596 0.586824 0
vt 1 0.5 0
vt 0.5 0 0
vt 0.5 1 0
vt 0 0.5 0
vt 0.992404 0.413176 0
vt 0.527778 0 0
vt 0.527778 1 0
vt 0.007596 0.413176 0
vt 0.969846 0.32899 0
vt 0.555556 0 0
vt 0.555556 1 0
vt 0.030154 0.32899 0
vt 0.933013 0.25 0
vt 0.583333 0 0
vt 0.583333 1 0
vt 0.066987 0.25 0
vt 0.883022 0.178606 0
vt 0.611111 0 0
vt 0.611111 1 0
vt 0.116978 0.178606 0
vt 0.821394 0.116978 0
vt 0.638889 0 0
vt 0.638889 1 0
vt 0.178606 0.116978 0
vt 0.75 0.066987 0
vt 0.666667 0 0
vt 0.666667 1 0
vt 0.25 0.066987 0
vt 0.67101 0.030154 0
vt 0.694444 0 0
vt 0.694444 1 0
vt 0.32899 0.030154 0
vt 0.586824 0.007596 0
vt 0.722222 0 0
vt 0.722222 1 0
vt 0.413176 0.007596 0
vt 0.5 0 0
vt 0.75 0 0
vt 0.75 1 0
vt 0.5 0 0
vt 0.413176 0.007596 0
vt 0.777778 0 0
vt 0.777778 1 0
vt 0.586824 0.007596 0
vt 0.32899 0.030154 0
vt 0.805556 0 0
vt 0.805556 1 0
vt 0.67101 0.030154 0
vt 0.25 0.066987 0
vt 0.833333 0 0
vt 0.833333 1 0
vt 0.75 0.066987 0
vt 0.178606 0.116978 0
vt 0.861111 0 0
vt 0.861111 1 0
vt 0.821394 0.116978 0
vt 0.116978 0.178606 0
vt 0.888889 0 0
vt 0.888889 1 0
vt 0.883022 0.178606 0
vt 0.066987 0.25 0
vt 0.916667 0 0
vt 0.916667 1 0
vt 0.933013 0.25 0
vt 0.030154 0.32899 0
vt 0.944444 0 0
vt 0.944444 1 0
vt 0.969846 0.32899 0
vt 0.007596 0.413176 0
vt 0.972222 0 0
vt 0.972222 1 0
vt 0.992404 0.413176 0

f 273/332 269/326 267/324 
f 274/333 275/334 271/330 270/328 
f 276/335 268/325 272/331 
f 277/336 273/332 267/324 
f 278/337 279/338 275/334 274/333 
f 280/339 268/325 276/335 
f 281/340 277/336 267/324 
f 282/341 283/342 279/338 278/337 
f 284/343 268/325 280/339 
f 285/344 281/340 267/324 
f 286/345 287/346 283/342 282/341 
f 288/347 268/325 284/343 
f 289/348 285/344 267/324 
f 290/349 291/350 287/346 286/345 
f 292/351 268/325 288/347 
f 293/352 289/348 267/324 
f 294/353 295/354 291/350 290/349 
f 296/355 268/325 292/351 
f 297/356 293/352 267/324 
f 298/357 299/358 295/354 294/353 
f 300/359 268/325 296/355 
f 301/360 297/356 267/324 
f 302/361 303/362 299/358 298/357 
f 304/363 268/325 300/359 
f 305/364 301/360 267/324 
f 306/365 307/366 303/362 302/361 
f 308/367 268/325 304/363 
f 309/368 305/364 267/324 
f 310/369 311/370 307/366 306/365 
f 312/371 268/325 308/367 
f 313/372 309/368 267/324 
f 314/373 315/374 311/370 310/369 
f 316/375 268/325 312/371 
f 317/376 313/372 267/324 
f 318/377 319/378 315/374 314/373 
f 320/379 268/325 316/375 
f 321/380 317/376 267/324 
f 322/381 323/382 319/378 318/377 
f 324/383 268/325 320/379 
f 325/384 321/380 267/324 
f 326/385 327/386 323/382 322/381 
f 328/387 268/325 324/383 
f 329/388 325/384 267/324 
f 330/389 331/390 327/386 326/385 
f 332/391 268/325 328/387 
f 333/392 329/388 267/324 
f 334/393 335/394 331/390 330/389 
f 336/395 268/325 332/391 
f 337/396 333/392 267/324 
f 338/397 339/398 335/394 334/393 
f 340/399 268/325 336/395 
f 341/400 337/396 267/324 
f 342/401 343/402 339/398 338/397 
f 344/403 268/325 340/399 
f 345/404 341/400 267/324 
f 346/405 347/406 343/402 342/401 
f 348/407 268/325 344/403 
f 349/408 345/404 267/324 
f 350/409 351/410 347/406 346/405 
f 352/411 268/325 348/407 
f 353/412 349/408 267/324 
f 354/413 355/414 351/410 350/409 
f 356/415 268/325 352/411 
f 357/416 353/412 267/324 
f 358/417 359/418 355/414 354/413 
f 360/419 268/325 356/415 
f 361/420 357/416 267/324 
f 362/421 363/422 359/418 358/417 
f 364/423 268/325 360/419 
f 365/424 361/420 267/324 
f 366/425 367/426 363/422 362/421 
f 368/427 268/325 364/423 
f 369/428 365/424 267/324 
f 370/429 371/430 367/426 366/425 
f 372/431 268/325 368/427 
f 373/432 369/428 267/324 
f 374/433 375/434 371/430 370/429 
f 376/435 268/325 372/431 
f 377/436 373/432 267/324 
f 378/437 379/438 375/434 374/433 
f 380/439 268/325 376/435 
f 381/440 377/436 267/324 
f 382/441 383/442 379/438 378/437 
f 384/443 268/325 380/439 
f 385/444 381/440 267/324 
f 386/445 387/446 383/442 382/441 
f 388/447 268/325 384/443 
f 389/448 385/444 267/324 
f 390/449 391/450 387/446 386/445 
f 392/451 268/325 388/447 
f 393/452 389/448 267/324 
f 394/453 395/454 391/450 390/449 
f 396/455 268/325 392/451 
f 397/456 393/452 267/324 
f 398/457 399/458 395/454 394/453 
f 400/459 268/325 396/455 
f 401/460 397/456 267/324 
f 402/461 403/462 399/458 398/457 
f 404/463 268/325 400/459 
f 405/464 401/460 267/324 
f 406/465 407/466 403/462 402/461 
f 408/467 268/325 404/463 
f 409/468 405/464 267/324 
f 410/469 411/470 407/466 406/465 
f 412/471 268/325 408/467 
f 269/326 409/468 267/324 
f 270/327 271/329 411/470 410/469 
f 272/331 268/325 412/471 

