# WaveFront *.obj file (generated by CINEMA 4D)
mtllib Material.mtl

Arm_Rechts
usemtl White
v 7.653728 -1.999989 -2.653713
v -7.653728 -0.847752 -1.024167
v -7.653728 -0.847752 1.225536
v 7.653728 -1.999989 2.653715
v 7.653728 -1.95857 -2.915224
v -7.653728 -0.830195 -1.135016
v -7.73454 -0.818287 -1.110881
v -7.807441 -0.80749 -1.078604
v -7.865296 -0.798886 -1.04165
v -7.902441 -0.793345 -1.003683
v -7.915241 -0.791432 -0.968188
v -7.915241 -0.791432 1.176474
v -7.902441 -0.793345 1.211628
v -7.865296 -0.798886 1.248606
v -7.807441 -0.80749 1.284024
v -7.73454 -0.818287 1.314375
v -7.653728 -0.830195 1.336384
v 7.653728 -1.95857 2.915226
v 7.73454 -1.958581 2.902441
v 7.807441 -1.958581 2.865296
v 7.865296 -1.958581 2.807441
v 7.902441 -1.958581 2.73454
v 7.915241 -1.958581 2.653728
v 7.915241 -1.958581 -2.653728
v 7.902441 -1.958581 -2.73454
v 7.865296 -1.958581 -2.807441
v 7.807441 -1.958581 -2.865296
v 7.73454 -1.958581 -2.902441
v 7.653728 -1.838366 -3.151136
v -7.653728 -0.779243 -1.235014
v -7.807441 -0.757932 -1.186421
v -7.946108 -0.738525 -1.123183
v -8.056154 -0.723 -1.05262
v -8.126809 -0.712975 -0.981822
v -8.151154 -0.70951 -0.916877
v -8.151154 -0.70951 1.131504
v -8.126809 -0.712975 1.19579
v -8.056154 -0.723 1.264682
v -7.946108 -0.738525 1.332294
v -7.807441 -0.757932 1.391841
v -7.653728 -0.779243 1.436383
v 7.653728 -1.838366 3.151138
v 7.807441 -1.838376 3.126809
v 7.946108 -1.838376 3.056154
v 8.056154 -1.838376 2.946108
v 8.126809 -1.838376 2.807441
v 8.151154 -1.838376 2.653728
v 8.151154 -1.838376 -2.653728
v 8.126809 -1.838376 -2.807441
v 8.056154 -1.838376 -2.946108
v 7.946108 -1.838376 -3.056154
v 7.807441 -1.838376 -3.126809
v 7.653728 -1.651145 -3.338357
v -7.653728 -0.699884 -1.314373
v -7.865296 -0.67349 -1.244545
v -8.056154 -0.649369 -1.155468
v -8.20762 -0.630017 -1.058032
v -8.304867 -0.617495 -0.962153
v -8.338376 -0.613163 -0.875609
v -8.338376 -0.613163 1.095336
v -8.304867 -0.617495 1.180962
v -8.20762 -0.630017 1.274191
v -8.056154 -0.649369 1.36753
v -7.865296 -0.67349 1.451501
v -7.653728 -0.699884 1.515742
v 7.653728 -1.651145 3.338359
v 7.865296 -1.651154 3.304867
v 8.056154 -1.651154 3.20762
v 8.20762 -1.651154 3.056154
v 8.304867 -1.651154 2.865296
v 8.338376 -1.651154 2.653728
v 8.338376 -1.651154 -2.653728
v 8.304867 -1.651154 -2.865296
v 8.20762 -1.651154 -3.056154
v 8.056154 -1.651154 -3.20762
v 7.865296 -1.651154 -3.304867
v 7.653728 -1.415233 -3.45856
v -7.653728 -0.599886 -1.365324
v -7.902441 -0.573259 -1.281008
v -8.126809 -0.548871 -1.174738
v -8.304867 -0.529269 -1.059953
v -8.419188 -0.516568 -0.948428
v -8.458581 -0.51217 -0.848858
v -8.458581 -0.51217 1.07189
v -8.419188 -0.516568 1.170374
v -8.304867 -0.529269 1.278762
v -8.126809 -0.548871 1.388706
v -7.902441 -0.573259 1.488953
v -7.653728 -0.599886 1.566693
v 7.653728 -1.415233 3.458562
v 7.902441 -1.415241 3.419188
v 8.126809 -1.415241 3.304867
v 8.304867 -1.415241 3.126809
v 8.419188 -1.415241 2.902441
v 8.458581 -1.415241 2.653728
v 8.458581 -1.415241 -2.653728
v 8.419188 -1.415241 -2.902441
v 8.304867 -1.415241 -3.126809
v 8.126809 -1.415241 -3.304867
v 7.902441 -1.415241 -3.419188
v 7.653728 -1.153722 -3.49998
v -7.653728 -0.489038 -1.382881
v -7.915241 -0.466204 -1.293416
v -8.151154 -0.445275 -1.181113
v -8.338376 -0.428442 -1.06033
v -8.458581 -0.41753 -0.943499
v -8.5 -0.413751 -0.839594
v -8.5 -0.413751 1.063771
v -8.458581 -0.41753 1.166531
v -8.338376 -0.428442 1.280057
v -8.151154 -0.445275 1.39574
v -7.915241 -0.466204 1.501702
v -7.653728 -0.489038 1.58425
v 7.653728 -1.153722 3.499982
v 7.915241 -1.153728 3.458581
v 8.151154 -1.153728 3.338376
v 8.338376 -1.153728 3.151154
v 8.458581 -1.153728 2.915241
v 8.5 -1.153728 2.653728
v 8.5 -1.153728 -2.653728
v 8.458581 -1.153728 -2.915241
v 8.338376 -1.153728 -3.151154
v 8.151154 -1.153728 -3.338376
v 7.915241 -1.153728 -3.458581
v 7.653728 1.153722 -3.49998
v -7.653728 0.489038 -1.382881
v -7.915241 0.466204 -1.293416
v -8.151154 0.445275 -1.181113
v -8.338376 0.428442 -1.06033
v -8.458581 0.41753 -0.943499
v -8.5 0.413751 -0.839594
v -8.5 0.413751 1.063771
v -8.458581 0.41753 1.166531
v -8.338376 0.428442 1.280057
v -8.151154 0.445275 1.39574
v -7.915241 0.466204 1.501702
v -7.653728 0.489038 1.58425
v 7.653728 1.153722 3.499982
v 7.915241 1.153728 3.458581
v 8.151154 1.153728 3.338376
v 8.338376 1.153728 3.151154
v 8.458581 1.153728 2.915241
v 8.5 1.153728 2.653728
v 8.5 1.153728 -2.653728
v 8.458581 1.153728 -2.915241
v 8.338376 1.153728 -3.151154
v 8.151154 1.153728 -3.338376
v 7.915241 1.153728 -3.458581
v 7.653728 1.415233 -3.45856
v -7.653728 0.599886 -1.365324
v -7.902441 0.573259 -1.281008
v -8.126809 0.548871 -1.174738
v -8.304867 0.529269 -1.059953
v -8.419188 0.516568 -0.948428
v -8.458581 0.51217 -0.848858
v -8.458581 0.51217 1.07189
v -8.419188 0.516568 1.170374
v -8.304867 0.529269 1.278762
v -8.126809 0.548871 1.388706
v -7.902441 0.573259 1.488953
v -7.653728 0.599886 1.566693
v 7.653728 1.415233 3.458562
v 7.902441 1.415241 3.419188
v 8.126809 1.415241 3.304867
v 8.304867 1.415241 3.126809
v 8.419188 1.415241 2.902441
v 8.458581 1.415241 2.653728
v 8.458581 1.415241 -2.653728
v 8.419188 1.415241 -2.902441
v 8.304867 1.415241 -3.126809
v 8.126809 1.415241 -3.304867
v 7.902441 1.415241 -3.419188
v 7.653728 1.651145 -3.338357
v -7.653728 0.699884 -1.314373
v -7.865296 0.67349 -1.244545
v -8.056154 0.649369 -1.155468
v -8.20762 0.630017 -1.058032
v -8.304867 0.617495 -0.962153
v -8.338376 0.613163 -0.875609
v -8.338376 0.613163 1.095336
v -8.304867 0.617495 1.180962
v -8.20762 0.630017 1.274191
v -8.056154 0.649369 1.36753
v -7.865296 0.67349 1.451501
v -7.653728 0.699884 1.515742
v 7.653728 1.651145 3.338359
v 7.865296 1.651154 3.304867
v 8.056154 1.651154 3.20762
v 8.20762 1.651154 3.056154
v 8.304867 1.651154 2.865296
v 8.338376 1.651154 2.653728
v 8.338376 1.651154 -2.653728
v 8.304867 1.651154 -2.865296
v 8.20762 1.651154 -3.056154
v 8.056154 1.651154 -3.20762
v 7.865296 1.651154 -3.304867
v 7.653728 1.838366 -3.151136
v -7.653728 0.779243 -1.235014
v -7.807441 0.757932 -1.186421
v -7.946108 0.738525 -1.123183
v -8.056154 0.723 -1.05262
v -8.126809 0.712975 -0.981822
v -8.151154 0.70951 -0.916877
v -8.151154 0.70951 1.131504
v -8.126809 0.712975 1.19579
v -8.056154 0.723 1.264682
v -7.946108 0.738525 1.332294
v -7.807441 0.757932 1.391841
v -7.653728 0.779243 1.436383
v 7.653728 1.838366 3.151138
v 7.807441 1.838376 3.126809
v 7.946108 1.838376 3.056154
v 8.056154 1.838376 2.946108
v 8.126809 1.838376 2.807441
v 8.151154 1.838376 2.653728
v 8.151154 1.838376 -2.653728
v 8.126809 1.838376 -2.807441
v 8.056154 1.838376 -2.946108
v 7.946108 1.838376 -3.056154
v 7.807441 1.838376 -3.126809
v 7.653728 1.95857 -2.915224
v -7.653728 0.830195 -1.135016
v -7.73454 0.818287 -1.110881
v -7.807441 0.80749 -1.078604
v -7.865296 0.798886 -1.04165
v -7.902441 0.793345 -1.003683
v -7.915241 0.791432 -0.968188
v -7.915241 0.791432 1.176474
v -7.902441 0.793345 1.211628
v -7.865296 0.798886 1.248606
v -7.807441 0.80749 1.284024
v -7.73454 0.818287 1.314375
v -7.653728 0.830195 1.336384
v 7.653728 1.95857 2.915226
v 7.73454 1.958581 2.902441
v 7.807441 1.958581 2.865296
v 7.865296 1.958581 2.807441
v 7.902441 1.958581 2.73454
v 7.915241 1.958581 2.653728
v 7.915241 1.958581 -2.653728
v 7.902441 1.958581 -2.73454
v 7.865296 1.958581 -2.807441
v 7.807441 1.958581 -2.865296
v 7.73454 1.958581 -2.902441
v 7.653728 1.999989 -2.653713
v -7.653728 0.847752 -1.024167
v -7.653728 0.847752 1.225536
v 7.653728 1.999989 2.653715

vt 0 1 0
vt 0.97997 0 0
vt 0.939911 0 0
vt 0.899852 0 0
vt 0.859793 0 0
vt 0.819734 0 0
vt 0.799704 0 0
vt 0 0 0
vt 1 1 0
vt 0 0 0
vt 0.99201 0 0
vt 0.976029 0 0
vt 0.960049 0 0
vt 0.944068 0 0
vt 0.928088 0 0
vt 0.920097 0 0
vt 1 0 0
vt 0 0 0
vt 0.97997 0 0
vt 0.939911 0 0
vt 0.899852 0 0
vt 0.859793 0 0
vt 0.819734 0 0
vt 0.799704 0 0
vt 0 0 0
vt 0.99201 0 0
vt 0.976029 0 0
vt 0.960049 0 0
vt 0.944068 0 0
vt 0.928088 0 0
vt 0.920097 0 0
vt 1 0.053536 0
vt 0 0.053536 0
vt 0.920097 0.053536 0
vt 0.936078 0.053536 0
vt 0.952058 0.053536 0
vt 0.968039 0.053536 0
vt 0.98402 0.053536 0
vt 0 0.053536 0
vt 1 0.053536 0
vt 0.799704 0.053536 0
vt 0.839763 0.053536 0
vt 0.879822 0.053536 0
vt 0.919882 0.053536 0
vt 0.959941 0.053536 0
vt 0 0.053536 0
vt 1 0.053536 0
vt 0.920097 0.053536 0
vt 0.936078 0.053536 0
vt 0.952058 0.053536 0
vt 0.968039 0.053536 0
vt 0.98402 0.053536 0
vt 0 0.053536 0
vt 1 0.053536 0
vt 0.799704 0.053536 0
vt 0.839763 0.053536 0
vt 0.879822 0.053536 0
vt 0.919882 0.053536 0
vt 0.959941 0.053536 0
vt 1 0.107072 0
vt 0 0.107072 0
vt 0.920097 0.107072 0
vt 0.936078 0.107072 0
vt 0.952058 0.107072 0
vt 0.968039 0.107072 0
vt 0.98402 0.107072 0
vt 0 0.107072 0
vt 1 0.107072 0
vt 0.799704 0.107072 0
vt 0.839763 0.107072 0
vt 0.879822 0.107072 0
vt 0.919882 0.107072 0
vt 0.959941 0.107072 0
vt 0 0.107072 0
vt 1 0.107072 0
vt 0.920097 0.107072 0
vt 0.936078 0.107072 0
vt 0.952058 0.107072 0
vt 0.968039 0.107072 0
vt 0.98402 0.107072 0
vt 0 0.107072 0
vt 1 0.107072 0
vt 0.799704 0.107072 0
vt 0.839763 0.107072 0
vt 0.879822 0.107072 0
vt 0.919882 0.107072 0
vt 0.959941 0.107072 0
vt 1 0.160607 0
vt 0 0.160607 0
vt 0.920097 0.160607 0
vt 0.936078 0.160607 0
vt 0.952058 0.160607 0
vt 0.968039 0.160607 0
vt 0.98402 0.160607 0
vt 0 0.160607 0
vt 1 0.160607 0
vt 0.799704 0.160607 0
vt 0.839763 0.160607 0
vt 0.879822 0.160607 0
vt 0.919882 0.160607 0
vt 0.959941 0.160607 0
vt 0 0.160607 0
vt 1 0.160607 0
vt 0.920097 0.160607 0
vt 0.936078 0.160607 0
vt 0.952058 0.160607 0
vt 0.968039 0.160607 0
vt 0.98402 0.160607 0
vt 0 0.160607 0
vt 1 0.160607 0
vt 0.799704 0.160607 0
vt 0.839763 0.160607 0
vt 0.879822 0.160607 0
vt 0.919882 0.160607 0
vt 0.959941 0.160607 0
vt 1 0.214143 0
vt 0 0.214143 0
vt 0.920097 0.214143 0
vt 0.936078 0.214143 0
vt 0.952058 0.214143 0
vt 0.968039 0.214143 0
vt 0.98402 0.214143 0
vt 0 0.214143 0
vt 1 0.214143 0
vt 0.799704 0.214143 0
vt 0.839763 0.214143 0
vt 0.879822 0.214143 0
vt 0.919882 0.214143 0
vt 0.959941 0.214143 0
vt 0 0.214143 0
vt 1 0.214143 0
vt 0.920097 0.214143 0
vt 0.936078 0.214143 0
vt 0.952058 0.214143 0
vt 0.968039 0.214143 0
vt 0.98402 0.214143 0
vt 0 0.214143 0
vt 1 0.214143 0
vt 0.799704 0.214143 0
vt 0.839763 0.214143 0
vt 0.879822 0.214143 0
vt 0.919882 0.214143 0
vt 0.959941 0.214143 0
vt 1 0.267679 0
vt 0 0.267679 0
vt 0.920097 0.267679 0
vt 0.936078 0.267679 0
vt 0.952058 0.267679 0
vt 0.968039 0.267679 0
vt 0.98402 0.267679 0
vt 0 0.267679 0
vt 1 0.267679 0
vt 0.799704 0.267679 0
vt 0.839763 0.267679 0
vt 0.879822 0.267679 0
vt 0.919882 0.267679 0
vt 0.959941 0.267679 0
vt 0 0.267679 0
vt 1 0.267679 0
vt 0.920097 0.267679 0
vt 0.936078 0.267679 0
vt 0.952058 0.267679 0
vt 0.968039 0.267679 0
vt 0.98402 0.267679 0
vt 0 0.267679 0
vt 1 0.267679 0
vt 0.799704 0.267679 0
vt 0.839763 0.267679 0
vt 0.879822 0.267679 0
vt 0.919882 0.267679 0
vt 0.959941 0.267679 0
vt 1 0.732321 0
vt 0 0.732321 0
vt 0.920097 0.732321 0
vt 0.936078 0.732321 0
vt 0.952058 0.732321 0
vt 0.968039 0.732321 0
vt 0.98402 0.732321 0
vt 0 0.732321 0
vt 1 0.732321 0
vt 0.799704 0.732321 0
vt 0.839763 0.732321 0
vt 0.879822 0.732321 0
vt 0.919882 0.732321 0
vt 0.959941 0.732321 0
vt 0 0.732321 0
vt 1 0.732321 0
vt 0.920097 0.732321 0
vt 0.936078 0.732321 0
vt 0.952058 0.732321 0
vt 0.968039 0.732321 0
vt 0.98402 0.732321 0
vt 0 0.732321 0
vt 1 0.732321 0
vt 0.799704 0.732321 0
vt 0.839763 0.732321 0
vt 0.879822 0.732321 0
vt 0.919882 0.732321 0
vt 0.959941 0.732321 0
vt 1 0.785857 0
vt 0 0.785857 0
vt 0.920097 0.785857 0
vt 0.936078 0.785857 0
vt 0.952058 0.785857 0
vt 0.968039 0.785857 0
vt 0.98402 0.785857 0
vt 0 0.785857 0
vt 1 0.785857 0
vt 0.799704 0.785857 0
vt 0.839763 0.785857 0
vt 0.879822 0.785857 0
vt 0.919882 0.785857 0
vt 0.959941 0.785857 0
vt 0 0.785857 0
vt 1 0.785857 0
vt 0.920097 0.785857 0
vt 0.936078 0.785857 0
vt 0.952058 0.785857 0
vt 0.968039 0.785857 0
vt 0.98402 0.785857 0
vt 0 0.785857 0
vt 1 0.785857 0
vt 0.799704 0.785857 0
vt 0.839763 0.785857 0
vt 0.879822 0.785857 0
vt 0.919882 0.785857 0
vt 0.959941 0.785857 0
vt 1 0.839393 0
vt 0 0.839393 0
vt 0.920097 0.839393 0
vt 0.936078 0.839393 0
vt 0.952058 0.839393 0
vt 0.968039 0.839393 0
vt 0.98402 0.839393 0
vt 0 0.839393 0
vt 1 0.839393 0
vt 0.799704 0.839393 0
vt 0.839763 0.839393 0
vt 0.879822 0.839393 0
vt 0.919882 0.839393 0
vt 0.959941 0.839393 0
vt 0 0.839393 0
vt 1 0.839393 0
vt 0.920097 0.839393 0
vt 0.936078 0.839393 0
vt 0.952058 0.839393 0
vt 0.968039 0.839393 0
vt 0.98402 0.839393 0
vt 0 0.839393 0
vt 1 0.839393 0
vt 0.799704 0.839393 0
vt 0.839763 0.839393 0
vt 0.879822 0.839393 0
vt 0.919882 0.839393 0
vt 0.959941 0.839393 0
vt 1 0.892928 0
vt 0 0.892928 0
vt 0.920097 0.892928 0
vt 0.936078 0.892928 0
vt 0.952058 0.892928 0
vt 0.968039 0.892928 0
vt 0.98402 0.892928 0
vt 0 0.892928 0
vt 1 0.892928 0
vt 0.799704 0.892928 0
vt 0.839763 0.892928 0
vt 0.879822 0.892928 0
vt 0.919882 0.892928 0
vt 0.959941 0.892928 0
vt 0 0.892928 0
vt 1 0.892928 0
vt 0.920097 0.892928 0
vt 0.936078 0.892928 0
vt 0.952058 0.892928 0
vt 0.968039 0.892928 0
vt 0.98402 0.892928 0
vt 0 0.892928 0
vt 1 0.892928 0
vt 0.799704 0.892928 0
vt 0.839763 0.892928 0
vt 0.879822 0.892928 0
vt 0.919882 0.892928 0
vt 0.959941 0.892928 0
vt 1 0.946464 0
vt 0 0.946464 0
vt 0.920097 0.946464 0
vt 0.936078 0.946464 0
vt 0.952058 0.946464 0
vt 0.968039 0.946464 0
vt 0.98402 0.946464 0
vt 0 0.946464 0
vt 1 0.946464 0
vt 0.799704 0.946464 0
vt 0.839763 0.946464 0
vt 0.879822 0.946464 0
vt 0.919882 0.946464 0
vt 0.959941 0.946464 0
vt 0 0.946464 0
vt 1 0.946464 0
vt 0.920097 0.946464 0
vt 0.936078 0.946464 0
vt 0.952058 0.946464 0
vt 0.968039 0.946464 0
vt 0.98402 0.946464 0
vt 0 0.946464 0
vt 1 0.946464 0
vt 0.799704 0.946464 0
vt 0.839763 0.946464 0
vt 0.879822 0.946464 0
vt 0.919882 0.946464 0
vt 0.959941 0.946464 0
vt 0 0 0
vt 0.97997 1 0
vt 0.939911 1 0
vt 0.899852 1 0
vt 0.859793 1 0
vt 0.819734 1 0
vt 0.799704 1 0
vt 0 1 0
vt 1 0 0
vt 0 1 0
vt 0.99201 1 0
vt 0.976029 1 0
vt 0.960049 1 0
vt 0.944068 1 0
vt 0.928088 1 0
vt 0.920097 1 0
vt 1 1 0
vt 0 1 0
vt 0.97997 1 0
vt 0.939911 1 0
vt 0.899852 1 0
vt 0.859793 1 0
vt 0.819734 1 0
vt 0.799704 1 0
vt 0 1 0
vt 0.99201 1 0
vt 0.976029 1 0
vt 0.960049 1 0
vt 0.944068 1 0
vt 0.928088 1 0
vt 0.920097 1 0

f 2/16 6/34 5/33 1/8 
f 6/34 30/62 29/61 5/33 
f 30/62 54/90 53/89 29/61 
f 54/90 78/118 77/117 53/89 
f 78/118 102/146 101/145 77/117 
f 102/146 126/174 125/173 101/145 
f 126/174 150/202 149/201 125/173 
f 150/202 174/230 173/229 149/201 
f 174/230 198/258 197/257 173/229 
f 198/258 222/286 221/285 197/257 
f 222/286 246/327 245/319 221/285 
f 7/35 6/34 2/15 
f 7/35 31/63 30/62 6/34 
f 31/63 55/91 54/90 30/62 
f 55/91 79/119 78/118 54/90 
f 79/119 103/147 102/146 78/118 
f 103/147 127/175 126/174 102/146 
f 127/175 151/203 150/202 126/174 
f 151/203 175/231 174/230 150/202 
f 175/231 199/259 198/258 174/230 
f 199/259 223/287 222/286 198/258 
f 223/287 246/326 222/286 
f 8/36 7/35 2/14 
f 8/36 32/64 31/63 7/35 
f 32/64 56/92 55/91 31/63 
f 56/92 80/120 79/119 55/91 
f 80/120 104/148 103/147 79/119 
f 104/148 128/176 127/175 103/147 
f 128/176 152/204 151/203 127/175 
f 152/204 176/232 175/231 151/203 
f 176/232 200/260 199/259 175/231 
f 200/260 224/288 223/287 199/259 
f 224/288 246/325 223/287 
f 9/37 8/36 2/13 
f 9/37 33/65 32/64 8/36 
f 33/65 57/93 56/92 32/64 
f 57/93 81/121 80/120 56/92 
f 81/121 105/149 104/148 80/120 
f 105/149 129/177 128/176 104/148 
f 129/177 153/205 152/204 128/176 
f 153/205 177/233 176/232 152/204 
f 177/233 201/261 200/260 176/232 
f 201/261 225/289 224/288 200/260 
f 225/289 246/324 224/288 
f 10/38 9/37 2/12 
f 10/38 34/66 33/65 9/37 
f 34/66 58/94 57/93 33/65 
f 58/94 82/122 81/121 57/93 
f 82/122 106/150 105/149 81/121 
f 106/150 130/178 129/177 105/149 
f 130/178 154/206 153/205 129/177 
f 154/206 178/234 177/233 153/205 
f 178/234 202/262 201/261 177/233 
f 202/262 226/290 225/289 201/261 
f 226/290 246/323 225/289 
f 11/40 10/38 2/11 
f 11/40 35/68 34/66 10/38 
f 35/68 59/96 58/94 34/66 
f 59/96 83/124 82/122 58/94 
f 83/124 107/152 106/150 82/122 
f 107/152 131/180 130/178 106/150 
f 131/180 155/208 154/206 130/178 
f 155/208 179/236 178/234 154/206 
f 179/236 203/264 202/262 178/234 
f 203/264 227/292 226/290 202/262 
f 227/292 246/322 226/290 
f 3/24 12/41 11/39 2/10 
f 12/41 36/69 35/67 11/39 
f 36/69 60/97 59/95 35/67 
f 60/97 84/125 83/123 59/95 
f 84/125 108/153 107/151 83/123 
f 108/153 132/181 131/179 107/151 
f 132/181 156/209 155/207 131/179 
f 156/209 180/237 179/235 155/207 
f 180/237 204/265 203/263 179/235 
f 204/265 228/293 227/291 203/263 
f 228/293 247/335 246/321 227/291 
f 13/42 12/41 3/23 
f 13/42 37/70 36/69 12/41 
f 37/70 61/98 60/97 36/69 
f 61/98 85/126 84/125 60/97 
f 85/126 109/154 108/153 84/125 
f 109/154 133/182 132/181 108/153 
f 133/182 157/210 156/209 132/181 
f 157/210 181/238 180/237 156/209 
f 181/238 205/266 204/265 180/237 
f 205/266 229/294 228/293 204/265 
f 229/294 247/334 228/293 
f 14/43 13/42 3/22 
f 14/43 38/71 37/70 13/42 
f 38/71 62/99 61/98 37/70 
f 62/99 86/127 85/126 61/98 
f 86/127 110/155 109/154 85/126 
f 110/155 134/183 133/182 109/154 
f 134/183 158/211 157/210 133/182 
f 158/211 182/239 181/238 157/210 
f 182/239 206/267 205/266 181/238 
f 206/267 230/295 229/294 205/266 
f 230/295 247/333 229/294 
f 15/44 14/43 3/21 
f 15/44 39/72 38/71 14/43 
f 39/72 63/100 62/99 38/71 
f 63/100 87/128 86/127 62/99 
f 87/128 111/156 110/155 86/127 
f 111/156 135/184 134/183 110/155 
f 135/184 159/212 158/211 134/183 
f 159/212 183/240 182/239 158/211 
f 183/240 207/268 206/267 182/239 
f 207/268 231/296 230/295 206/267 
f 231/296 247/332 230/295 
f 16/45 15/44 3/20 
f 16/45 40/73 39/72 15/44 
f 40/73 64/101 63/100 39/72 
f 64/101 88/129 87/128 63/100 
f 88/129 112/157 111/156 87/128 
f 112/157 136/185 135/184 111/156 
f 136/185 160/213 159/212 135/184 
f 160/213 184/241 183/240 159/212 
f 184/241 208/269 207/268 183/240 
f 208/269 232/297 231/296 207/268 
f 232/297 247/331 231/296 
f 17/47 16/45 3/19 
f 17/47 41/75 40/73 16/45 
f 41/75 65/103 64/101 40/73 
f 65/103 89/131 88/129 64/101 
f 89/131 113/159 112/157 88/129 
f 113/159 137/187 136/185 112/157 
f 137/187 161/215 160/213 136/185 
f 161/215 185/243 184/241 160/213 
f 185/243 209/271 208/269 184/241 
f 209/271 233/299 232/297 208/269 
f 233/299 247/330 232/297 
f 4/31 18/48 17/46 3/18 
f 18/48 42/76 41/74 17/46 
f 42/76 66/104 65/102 41/74 
f 66/104 90/132 89/130 65/102 
f 90/132 114/160 113/158 89/130 
f 114/160 138/188 137/186 113/158 
f 138/188 162/216 161/214 137/186 
f 162/216 186/244 185/242 161/214 
f 186/244 210/272 209/270 185/242 
f 210/272 234/300 233/298 209/270 
f 234/300 248/342 247/329 233/298 
f 19/49 18/48 4/30 
f 19/49 43/77 42/76 18/48 
f 43/77 67/105 66/104 42/76 
f 67/105 91/133 90/132 66/104 
f 91/133 115/161 114/160 90/132 
f 115/161 139/189 138/188 114/160 
f 139/189 163/217 162/216 138/188 
f 163/217 187/245 186/244 162/216 
f 187/245 211/273 210/272 186/244 
f 211/273 235/301 234/300 210/272 
f 235/301 248/341 234/300 
f 20/50 19/49 4/29 
f 20/50 44/78 43/77 19/49 
f 44/78 68/106 67/105 43/77 
f 68/106 92/134 91/133 67/105 
f 92/134 116/162 115/161 91/133 
f 116/162 140/190 139/189 115/161 
f 140/190 164/218 163/217 139/189 
f 164/218 188/246 187/245 163/217 
f 188/246 212/274 211/273 187/245 
f 212/274 236/302 235/301 211/273 
f 236/302 248/340 235/301 
f 21/51 20/50 4/28 
f 21/51 45/79 44/78 20/50 
f 45/79 69/107 68/106 44/78 
f 69/107 93/135 92/134 68/106 
f 93/135 117/163 116/162 92/134 
f 117/163 141/191 140/190 116/162 
f 141/191 165/219 164/218 140/190 
f 165/219 189/247 188/246 164/218 
f 189/247 213/275 212/274 188/246 
f 213/275 237/303 236/302 212/274 
f 237/303 248/339 236/302 
f 22/52 21/51 4/27 
f 22/52 46/80 45/79 21/51 
f 46/80 70/108 69/107 45/79 
f 70/108 94/136 93/135 69/107 
f 94/136 118/164 117/163 93/135 
f 118/164 142/192 141/191 117/163 
f 142/192 166/220 165/219 141/191 
f 166/220 190/248 189/247 165/219 
f 190/248 214/276 213/275 189/247 
f 214/276 238/304 237/303 213/275 
f 238/304 248/338 237/303 
f 23/54 22/52 4/26 
f 23/54 47/82 46/80 22/52 
f 47/82 71/110 70/108 46/80 
f 71/110 95/138 94/136 70/108 
f 95/138 119/166 118/164 94/136 
f 119/166 143/194 142/192 118/164 
f 143/194 167/222 166/220 142/192 
f 167/222 191/250 190/248 166/220 
f 191/250 215/278 214/276 190/248 
f 215/278 239/306 238/304 214/276 
f 239/306 248/337 238/304 
f 1/7 24/55 23/53 4/25 
f 24/55 48/83 47/81 23/53 
f 48/83 72/111 71/109 47/81 
f 72/111 96/139 95/137 71/109 
f 96/139 120/167 119/165 95/137 
f 120/167 144/195 143/193 119/165 
f 144/195 168/223 167/221 143/193 
f 168/223 192/251 191/249 167/221 
f 192/251 216/279 215/277 191/249 
f 216/279 240/307 239/305 215/277 
f 240/307 245/318 248/336 239/305 
f 25/56 24/55 1/6 
f 25/56 49/84 48/83 24/55 
f 49/84 73/112 72/111 48/83 
f 73/112 97/140 96/139 72/111 
f 97/140 121/168 120/167 96/139 
f 121/168 145/196 144/195 120/167 
f 145/196 169/224 168/223 144/195 
f 169/224 193/252 192/251 168/223 
f 193/252 217/280 216/279 192/251 
f 217/280 241/308 240/307 216/279 
f 241/308 245/317 240/307 
f 26/57 25/56 1/5 
f 26/57 50/85 49/84 25/56 
f 50/85 74/113 73/112 49/84 
f 74/113 98/141 97/140 73/112 
f 98/141 122/169 121/168 97/140 
f 122/169 146/197 145/196 121/168 
f 146/197 170/225 169/224 145/196 
f 170/225 194/253 193/252 169/224 
f 194/253 218/281 217/280 193/252 
f 218/281 242/309 241/308 217/280 
f 242/309 245/316 241/308 
f 27/58 26/57 1/4 
f 27/58 51/86 50/85 26/57 
f 51/86 75/114 74/113 50/85 
f 75/114 99/142 98/141 74/113 
f 99/142 123/170 122/169 98/141 
f 123/170 147/198 146/197 122/169 
f 147/198 171/226 170/225 146/197 
f 171/226 195/254 194/253 170/225 
f 195/254 219/282 218/281 194/253 
f 219/282 243/310 242/309 218/281 
f 243/310 245/315 242/309 
f 28/59 27/58 1/3 
f 28/59 52/87 51/86 27/58 
f 52/87 76/115 75/114 51/86 
f 76/115 100/143 99/142 75/114 
f 100/143 124/171 123/170 99/142 
f 124/171 148/199 147/198 123/170 
f 148/199 172/227 171/226 147/198 
f 172/227 196/255 195/254 171/226 
f 196/255 220/283 219/282 195/254 
f 220/283 244/311 243/310 219/282 
f 244/311 245/314 243/310 
f 5/32 28/59 1/2 
f 5/32 29/60 52/87 28/59 
f 29/60 53/88 76/115 52/87 
f 53/88 77/116 100/143 76/115 
f 77/116 101/144 124/171 100/143 
f 101/144 125/172 148/199 124/171 
f 125/172 149/200 172/227 148/199 
f 149/200 173/228 196/255 172/227 
f 173/228 197/256 220/283 196/255 
f 197/256 221/284 244/311 220/283 
f 221/284 245/313 244/311 
f 246/320 247/328 248/336 245/312 
f 4/25 3/17 2/9 1/1 

