# WaveFront *.obj file (generated by CINEMA 4D)
mtllib Material.mtl

Wand
usemtl GrayBlue
v -18.376894 -26.559405 -5.555556
v -18.376894 -26.559405 5.555556
v 18.376894 -26.559405 -5.555556
v 18.376894 -26.559405 5.555556
v 18.376894 -4.566762 5.555556
v 18.376894 -5.089009 -5.555556
v -18.376894 16.666667 -5.555556
v -18.376894 16.666667 5.555556

vt 0 1 0
vt 1 0 0
vt 0 0 0
vt 1 1 0
vt 0 0 0
vt 0 1 0
vt 1 1 0
vt 0 0 0
vt 1 0 0
vt 0 1 0
vt 1 0 0
vt 1 1 0
vt 1 0.637003 0
vt 0.362997 1 0
vt 1 0.362997 0
vt 1 0.65267 0
vt 0.34733 0 0
vt 0 0 0
vt 0 0 0
vt 0 1 0

f 3/9 4/12 2/6 1/3 
f 8/20 2/5 4/11 5/15 
f 5/14 4/10 3/8 6/17 
f 1/2 2/4 8/20 7/18 
f 7/18 8/19 5/13 6/16 
f 6/16 3/7 1/1 7/18 

