# WaveFront *.obj file (generated by CINEMA 4D)
mtllib Material.mtl

Bumper_Oben
usemtl DRed
v -0.059316 3.634571 -3.91071
v -0.059316 3.634571 11.08929
v 1.118461 3.634571 -3.91071
v 2.278522 3.634571 -3.91071
v 3.403421 3.634571 -3.91071
v 4.476236 3.634571 -3.91071
v 5.480833 3.634571 -3.91071
v 6.402101 3.634571 -3.91071
v 7.226183 3.634571 -3.91071
v 7.940684 3.634571 -3.91071
v 7.940684 3.634571 4.83929
v 7.940684 3.634571 6.08929
v 7.226183 3.634571 7.187356
v 6.402101 3.634571 8.174894
v 5.480833 3.634571 9.037051
v 4.476236 3.634571 9.76086
v 3.403421 3.634571 10.335434
v 2.278522 3.634571 10.752131
v 1.118461 3.634571 11.004682
v 1.100568 3.839089 -3.91071
v 2.243005 4.040532 -3.91071
v 3.350814 4.235868 -3.91071
v 4.407331 4.422161 -3.91071
v 5.396666 4.596607 -3.91071
v 6.303937 4.756584 -3.91071
v 7.1155 4.899684 -3.91071
v 7.819146 5.023756 -3.91071
v 7.819146 5.023756 4.83929
v 7.819146 5.023756 6.08929
v 7.1155 4.899684 7.187356
v 6.303937 4.756584 8.174894
v 5.396666 4.596607 9.037051
v 4.407331 4.422161 9.76086
v 3.350814 4.235868 10.335434
v 2.243005 4.040532 10.752131
v 1.100568 3.839089 11.004682
v 1.047432 4.037394 -3.91071
v 2.137533 4.434158 -3.91071
v 3.194592 4.818896 -3.91071
v 4.202709 5.185821 -3.91071
v 5.146721 5.529413 -3.91071
v 6.01243 5.844505 -3.91071
v 6.786813 6.126358 -3.91071
v 7.458225 6.370732 -3.91071
v 7.458225 6.370732 4.83929
v 7.458225 6.370732 6.08929
v 6.786813 6.126358 7.187356
v 6.01243 5.844505 8.174894
v 5.146721 5.529413 9.037051
v 4.202709 5.185821 9.76086
v 3.194592 4.818896 10.335434
v 2.137533 4.434158 10.752131
v 1.047432 4.037394 11.004682
v 0.960669 4.223459 -3.91071
v 1.965311 4.80349 -3.91071
v 2.939502 5.365939 -3.91071
v 3.868588 5.902347 -3.91071
v 4.738594 6.404645 -3.91071
v 5.536435 6.865279 -3.91071
v 6.250111 7.27732 -3.91071
v 6.868887 7.634571 -3.91071
v 6.868887 7.634571 4.83929
v 6.868887 7.634571 6.08929
v 6.250111 7.27732 7.187356
v 5.536435 6.865279 8.174894
v 4.738594 6.404645 9.037051
v 3.868588 5.902347 9.76086
v 2.939502 5.365939 10.335434
v 1.965311 4.80349 10.752131
v 0.960669 4.223459 11.004682
v 0.842913 4.391631 -3.91071
v 1.731572 5.137304 -3.91071
v 2.593294 5.860375 -3.91071
v 3.415119 6.549967 -3.91071
v 4.184684 7.19571 -3.91071
v 4.890416 7.787889 -3.91071
v 5.5217 8.317599 -3.91071
v 6.06904 8.776871 -3.91071
v 6.06904 8.776871 4.83929
v 6.06904 8.776871 6.08929
v 5.5217 8.317599 7.187356
v 4.890416 7.787889 8.174894
v 4.184684 7.19571 9.037051
v 3.415119 6.549967 9.76086
v 2.593294 5.860375 10.335434
v 1.731572 5.137304 10.752131
v 0.842913 4.391631 11.004682
v 0.697744 4.5368 -3.91071
v 1.443418 5.425459 -3.91071
v 2.166488 6.287181 -3.91071
v 2.856081 7.109005 -3.91071
v 3.501823 7.878571 -3.91071
v 4.094003 8.584303 -3.91071
v 4.623712 9.215586 -3.91071
v 5.082985 9.762926 -3.91071
v 5.082985 9.762926 4.83929
v 5.082985 9.762926 6.08929
v 4.623712 9.215586 7.187356
v 4.094003 8.584303 8.174894
v 3.501823 7.878571 9.037051
v 2.856081 7.109005 9.76086
v 2.166488 6.287181 10.335434
v 1.443418 5.425459 10.752131
v 0.697744 4.5368 11.004682
v 0.529572 4.654555 -3.91071
v 1.109603 5.659198 -3.91071
v 1.672052 6.633388 -3.91071
v 2.20846 7.562474 -3.91071
v 2.710759 8.43248 -3.91071
v 3.171392 9.230322 -3.91071
v 3.583433 9.943997 -3.91071
v 3.940684 10.562774 -3.91071
v 3.940684 10.562774 4.83929
v 3.940684 10.562774 6.08929
v 3.583433 9.943997 7.187356
v 3.171392 9.230322 8.174894
v 2.710759 8.43248 9.037051
v 2.20846 7.562474 9.76086
v 1.672052 6.633388 10.335434
v 1.109603 5.659198 10.752131
v 0.529572 4.654555 11.004682
v 0.343507 4.741318 -3.91071
v 0.740272 5.83142 -3.91071
v 1.12501 6.888479 -3.91071
v 1.491934 7.896596 -3.91071
v 1.835527 8.840608 -3.91071
v 2.150619 9.706316 -3.91071
v 2.432471 10.4807 -3.91071
v 2.676845 11.152112 -3.91071
v 2.676845 11.152112 4.83929
v 2.676845 11.152112 6.08929
v 2.432471 10.4807 7.187356
v 2.150619 9.706316 8.174894
v 1.835527 8.840608 9.037051
v 1.491934 7.896596 9.76086
v 1.12501 6.888479 10.335434
v 0.740272 5.83142 10.752131
v 0.343507 4.741318 11.004682
v 0.145203 4.794454 -3.91071
v 0.346645 5.936892 -3.91071
v 0.541982 7.0447 -3.91071
v 0.728275 8.101218 -3.91071
v 0.902721 9.090552 -3.91071
v 1.062697 9.997824 -3.91071
v 1.205798 10.809386 -3.91071
v 1.32987 11.513033 -3.91071
v 1.32987 11.513033 4.83929
v 1.32987 11.513033 6.08929
v 1.205798 10.809386 7.187356
v 1.062697 9.997824 8.174894
v 0.902721 9.090552 9.037051
v 0.728275 8.101218 9.76086
v 0.541982 7.0447 10.335434
v 0.346645 5.936892 10.752131
v 0.145203 4.794454 11.004682
v -0.059316 4.812347 -3.91071
v -0.059316 5.972409 -3.91071
v -0.059316 7.097307 -3.91071
v -0.059316 8.170123 -3.91071
v -0.059316 9.17472 -3.91071
v -0.059316 10.095987 -3.91071
v -0.059316 10.920069 -3.91071
v -0.059316 11.634571 -3.91071
v -0.059316 11.634571 4.83929
v -0.059316 11.634571 6.08929
v -0.059316 10.920069 7.187356
v -0.059316 10.095987 8.174894
v -0.059316 9.17472 9.037051
v -0.059316 8.170123 9.76086
v -0.059316 7.097307 10.335434
v -0.059316 5.972409 10.752131
v -0.059316 4.812347 11.004682
v -0.263835 4.794454 -3.91071
v -0.465277 5.936892 -3.91071
v -0.660614 7.0447 -3.91071
v -0.846906 8.101218 -3.91071
v -1.021353 9.090552 -3.91071
v -1.181329 9.997824 -3.91071
v -1.324429 10.809386 -3.91071
v -1.448501 11.513033 -3.91071
v -1.448501 11.513033 4.83929
v -1.448501 11.513033 6.08929
v -1.324429 10.809386 7.187356
v -1.181329 9.997824 8.174894
v -1.021353 9.090552 9.037051
v -0.846906 8.101218 9.76086
v -0.660614 7.0447 10.335434
v -0.465277 5.936892 10.752131
v -0.263835 4.794454 11.004682
v -0.462139 4.741318 -3.91071
v -0.858904 5.83142 -3.91071
v -1.243642 6.888479 -3.91071
v -1.610566 7.896596 -3.91071
v -1.954158 8.840608 -3.91071
v -2.269251 9.706316 -3.91071
v -2.551103 10.4807 -3.91071
v -2.795477 11.152112 -3.91071
v -2.795477 11.152112 4.83929
v -2.795477 11.152112 6.08929
v -2.551103 10.4807 7.187356
v -2.269251 9.706316 8.174894
v -1.954158 8.840608 9.037051
v -1.610566 7.896596 9.76086
v -1.243642 6.888479 10.335434
v -0.858904 5.83142 10.752131
v -0.462139 4.741318 11.004682
v -0.648204 4.654555 -3.91071
v -1.228235 5.659198 -3.91071
v -1.790684 6.633388 -3.91071
v -2.327092 7.562474 -3.91071
v -2.82939 8.43248 -3.91071
v -3.290024 9.230322 -3.91071
v -3.702065 9.943997 -3.91071
v -4.059316 10.562774 -3.91071
v -4.059316 10.562774 4.83929
v -4.059316 10.562774 6.08929
v -3.702065 9.943997 7.187356
v -3.290024 9.230322 8.174894
v -2.82939 8.43248 9.037051
v -2.327092 7.562474 9.76086
v -1.790684 6.633388 10.335434
v -1.228235 5.659198 10.752131
v -0.648204 4.654555 11.004682
v -0.816376 4.5368 -3.91071
v -1.562049 5.425459 -3.91071
v -2.28512 6.287181 -3.91071
v -2.974713 7.109005 -3.91071
v -3.620455 7.878571 -3.91071
v -4.212634 8.584303 -3.91071
v -4.742344 9.215586 -3.91071
v -5.201617 9.762926 -3.91071
v -5.201617 9.762926 4.83929
v -5.201617 9.762926 6.08929
v -4.742344 9.215586 7.187356
v -4.212634 8.584303 8.174894
v -3.620455 7.878571 9.037051
v -2.974713 7.109005 9.76086
v -2.28512 6.287181 10.335434
v -1.562049 5.425459 10.752131
v -0.816376 4.5368 11.004682
v -0.961545 4.391631 -3.91071
v -1.850204 5.137304 -3.91071
v -2.711926 5.860375 -3.91071
v -3.53375 6.549967 -3.91071
v -4.303316 7.19571 -3.91071
v -5.009048 7.787889 -3.91071
v -5.640332 8.317599 -3.91071
v -6.187671 8.776871 -3.91071
v -6.187671 8.776871 4.83929
v -6.187671 8.776871 6.08929
v -5.640332 8.317599 7.187356
v -5.009048 7.787889 8.174894
v -4.303316 7.19571 9.037051
v -3.53375 6.549967 9.76086
v -2.711926 5.860375 10.335434
v -1.850204 5.137304 10.752131
v -0.961545 4.391631 11.004682
v -1.0793 4.223459 -3.91071
v -2.083943 4.80349 -3.91071
v -3.058134 5.365939 -3.91071
v -3.987219 5.902347 -3.91071
v -4.857226 6.404645 -3.91071
v -5.655067 6.865279 -3.91071
v -6.368743 7.27732 -3.91071
v -6.987519 7.634571 -3.91071
v -6.987519 7.634571 4.83929
v -6.987519 7.634571 6.08929
v -6.368743 7.27732 7.187356
v -5.655067 6.865279 8.174894
v -4.857226 6.404645 9.037051
v -3.987219 5.902347 9.76086
v -3.058134 5.365939 10.335434
v -2.083943 4.80349 10.752131
v -1.0793 4.223459 11.004682
v -1.166064 4.037394 -3.91071
v -2.256165 4.434158 -3.91071
v -3.313224 4.818896 -3.91071
v -4.321341 5.185821 -3.91071
v -5.265353 5.529413 -3.91071
v -6.131061 5.844505 -3.91071
v -6.905445 6.126358 -3.91071
v -7.576857 6.370732 -3.91071
v -7.576857 6.370732 4.83929
v -7.576857 6.370732 6.08929
v -6.905445 6.126358 7.187356
v -6.131061 5.844505 8.174894
v -5.265353 5.529413 9.037051
v -4.321341 5.185821 9.76086
v -3.313224 4.818896 10.335434
v -2.256165 4.434158 10.752131
v -1.166064 4.037394 11.004682
v -1.219199 3.839089 -3.91071
v -2.361637 4.040532 -3.91071
v -3.469446 4.235868 -3.91071
v -4.525963 4.422161 -3.91071
v -5.515298 4.596607 -3.91071
v -6.422569 4.756584 -3.91071
v -7.234131 4.899684 -3.91071
v -7.937778 5.023756 -3.91071
v -7.937778 5.023756 4.83929
v -7.937778 5.023756 6.08929
v -7.234131 4.899684 7.187356
v -6.422569 4.756584 8.174894
v -5.515298 4.596607 9.037051
v -4.525963 4.422161 9.76086
v -3.469446 4.235868 10.335434
v -2.361637 4.040532 10.752131
v -1.219199 3.839089 11.004682
v -1.237092 3.634571 -3.91071
v -2.397154 3.634571 -3.91071
v -3.522053 3.634571 -3.91071
v -4.594868 3.634571 -3.91071
v -5.599465 3.634571 -3.91071
v -6.520733 3.634571 -3.91071
v -7.344815 3.634571 -3.91071
v -8.059316 3.634571 -3.91071
v -8.059316 3.634571 4.83929
v -8.059316 3.634571 6.08929
v -7.344815 3.634571 7.187356
v -6.520733 3.634571 8.174894
v -5.599465 3.634571 9.037051
v -4.594868 3.634571 9.76086
v -3.522053 3.634571 10.335434
v -2.397154 3.634571 10.752131
v -1.237092 3.634571 11.004682
v -1.219199 3.430052 -3.91071
v -2.361637 3.228609 -3.91071
v -3.469446 3.033273 -3.91071
v -4.525963 2.84698 -3.91071
v -5.515298 2.672534 -3.91071
v -6.422569 2.512557 -3.91071
v -7.234131 2.369457 -3.91071
v -7.937778 2.245385 -3.91071
v -7.937778 2.245385 4.83929
v -7.937778 2.245385 6.08929
v -7.234131 2.369457 7.187356
v -6.422569 2.512557 8.174894
v -5.515298 2.672534 9.037051
v -4.525963 2.84698 9.76086
v -3.469446 3.033273 10.335434
v -2.361637 3.228609 10.752131
v -1.219199 3.430052 11.004682
v -1.166064 3.231747 -3.91071
v -2.256165 2.834983 -3.91071
v -3.313224 2.450245 -3.91071
v -4.321341 2.08332 -3.91071
v -5.265353 1.739728 -3.91071
v -6.131061 1.424636 -3.91071
v -6.905445 1.142783 -3.91071
v -7.576857 0.898409 -3.91071
v -7.576857 0.898409 4.83929
v -7.576857 0.898409 6.08929
v -6.905445 1.142783 7.187356
v -6.131061 1.424636 8.174894
v -5.265353 1.739728 9.037051
v -4.321341 2.08332 9.76086
v -3.313224 2.450245 10.335434
v -2.256165 2.834983 10.752131
v -1.166064 3.231747 11.004682
v -1.0793 3.045682 -3.91071
v -2.083943 2.465651 -3.91071
v -3.058134 1.903202 -3.91071
v -3.987219 1.366794 -3.91071
v -4.857226 0.864496 -3.91071
v -5.655067 0.403862 -3.91071
v -6.368743 -0.008179 -3.91071
v -6.987519 -0.365429 -3.91071
v -6.987519 -0.365429 4.83929
v -6.987519 -0.365429 6.08929
v -6.368743 -0.008179 7.187356
v -5.655067 0.403862 8.174894
v -4.857226 0.864496 9.037051
v -3.987219 1.366794 9.76086
v -3.058134 1.903202 10.335434
v -2.083943 2.465651 10.752131
v -1.0793 3.045682 11.004682
v -0.961545 2.87751 -3.91071
v -1.850204 2.131837 -3.91071
v -2.711926 1.408766 -3.91071
v -3.53375 0.719174 -3.91071
v -4.303316 0.073431 -3.91071
v -5.009048 -0.518748 -3.91071
v -5.640332 -1.048458 -3.91071
v -6.187671 -1.50773 -3.91071
v -6.187671 -1.50773 4.83929
v -6.187671 -1.50773 6.08929
v -5.640332 -1.048458 7.187356
v -5.009048 -0.518748 8.174894
v -4.303316 0.073431 9.037051
v -3.53375 0.719174 9.76086
v -2.711926 1.408766 10.335434
v -1.850204 2.131837 10.752131
v -0.961545 2.87751 11.004682
v -0.816376 2.732341 -3.91071
v -1.562049 1.843683 -3.91071
v -2.28512 0.98196 -3.91071
v -2.974713 0.160136 -3.91071
v -3.620455 -0.60943 -3.91071
v -4.212634 -1.315162 -3.91071
v -4.742344 -1.946445 -3.91071
v -5.201617 -2.493785 -3.91071
v -5.201617 -2.493785 4.83929
v -5.201617 -2.493785 6.08929
v -4.742344 -1.946445 7.187356
v -4.212634 -1.315162 8.174894
v -3.620455 -0.60943 9.037051
v -2.974713 0.160136 9.76086
v -2.28512 0.98196 10.335434
v -1.562049 1.843683 10.752131
v -0.816376 2.732341 11.004682
v -0.648204 2.614586 -3.91071
v -1.228235 1.609943 -3.91071
v -1.790684 0.635753 -3.91071
v -2.327092 -0.293333 -3.91071
v -2.82939 -1.163339 -3.91071
v -3.290024 -1.96118 -3.91071
v -3.702065 -2.674856 -3.91071
v -4.059316 -3.293633 -3.91071
v -4.059316 -3.293633 4.83929
v -4.059316 -3.293633 6.08929
v -3.702065 -2.674856 7.187356
v -3.290024 -1.96118 8.174894
v -2.82939 -1.163339 9.037051
v -2.327092 -0.293333 9.76086
v -1.790684 0.635753 10.335434
v -1.228235 1.609943 10.752131
v -0.648204 2.614586 11.004682
v -0.462139 2.527823 -3.91071
v -0.858904 1.437721 -3.91071
v -1.243642 0.380662 -3.91071
v -1.610566 -0.627454 -3.91071
v -1.954158 -1.571467 -3.91071
v -2.269251 -2.437175 -3.91071
v -2.551103 -3.211559 -3.91071
v -2.795477 -3.88297 -3.91071
v -2.795477 -3.88297 4.83929
v -2.795477 -3.88297 6.08929
v -2.551103 -3.211559 7.187356
v -2.269251 -2.437175 8.174894
v -1.954158 -1.571467 9.037051
v -1.610566 -0.627454 9.76086
v -1.243642 0.380662 10.335434
v -0.858904 1.437721 10.752131
v -0.462139 2.527823 11.004682
v -0.263835 2.474687 -3.91071
v -0.465277 1.332249 -3.91071
v -0.660614 0.224441 -3.91071
v -0.846906 -0.832077 -3.91071
v -1.021353 -1.821411 -3.91071
v -1.181329 -2.728683 -3.91071
v -1.324429 -3.540245 -3.91071
v -1.448501 -4.243891 -3.91071
v -1.448501 -4.243891 4.83929
v -1.448501 -4.243891 6.08929
v -1.324429 -3.540245 7.187356
v -1.181329 -2.728683 8.174894
v -1.021353 -1.821411 9.037051
v -0.846906 -0.832077 9.76086
v -0.660614 0.224441 10.335434
v -0.465277 1.332249 10.752131
v -0.263835 2.474687 11.004682
v -0.059316 2.456794 -3.91071
v -0.059316 1.296732 -3.91071
v -0.059316 0.171834 -3.91071
v -0.059316 -0.900982 -3.91071
v -0.059316 -1.905578 -3.91071
v -0.059316 -2.826846 -3.91071
v -0.059316 -3.650928 -3.91071
v -0.059316 -4.365429 -3.91071
v -0.059316 -4.365429 4.83929
v -0.059316 -4.365429 6.08929
v -0.059316 -3.650928 7.187356
v -0.059316 -2.826846 8.174894
v -0.059316 -1.905578 9.037051
v -0.059316 -0.900982 9.76086
v -0.059316 0.171834 10.335434
v -0.059316 1.296732 10.752131
v -0.059316 2.456794 11.004682
v 0.145203 2.474687 -3.91071
v 0.346645 1.332249 -3.91071
v 0.541982 0.224441 -3.91071
v 0.728275 -0.832077 -3.91071
v 0.902721 -1.821411 -3.91071
v 1.062697 -2.728683 -3.91071
v 1.205798 -3.540245 -3.91071
v 1.32987 -4.243891 -3.91071
v 1.32987 -4.243891 4.83929
v 1.32987 -4.243891 6.08929
v 1.205798 -3.540245 7.187356
v 1.062697 -2.728683 8.174894
v 0.902721 -1.821411 9.037051
v 0.728275 -0.832077 9.76086
v 0.541982 0.224441 10.335434
v 0.346645 1.332249 10.752131
v 0.145203 2.474687 11.004682
v 0.343507 2.527823 -3.91071
v 0.740272 1.437721 -3.91071
v 1.12501 0.380662 -3.91071
v 1.491934 -0.627454 -3.91071
v 1.835527 -1.571467 -3.91071
v 2.150619 -2.437175 -3.91071
v 2.432471 -3.211559 -3.91071
v 2.676845 -3.88297 -3.91071
v 2.676845 -3.88297 4.83929
v 2.676845 -3.88297 6.08929
v 2.432471 -3.211559 7.187356
v 2.150619 -2.437175 8.174894
v 1.835527 -1.571467 9.037051
v 1.491934 -0.627454 9.76086
v 1.12501 0.380662 10.335434
v 0.740272 1.437721 10.752131
v 0.343507 2.527823 11.004682
v 0.529572 2.614586 -3.91071
v 1.109603 1.609943 -3.91071
v 1.672052 0.635753 -3.91071
v 2.20846 -0.293333 -3.91071
v 2.710759 -1.163339 -3.91071
v 3.171392 -1.96118 -3.91071
v 3.583433 -2.674856 -3.91071
v 3.940684 -3.293633 -3.91071
v 3.940684 -3.293633 4.83929
v 3.940684 -3.293633 6.08929
v 3.583433 -2.674856 7.187356
v 3.171392 -1.96118 8.174894
v 2.710759 -1.163339 9.037051
v 2.20846 -0.293333 9.76086
v 1.672052 0.635753 10.335434
v 1.109603 1.609943 10.752131
v 0.529572 2.614586 11.004682
v 0.697744 2.732341 -3.91071
v 1.443418 1.843683 -3.91071
v 2.166488 0.98196 -3.91071
v 2.856081 0.160136 -3.91071
v 3.501823 -0.60943 -3.91071
v 4.094003 -1.315162 -3.91071
v 4.623712 -1.946445 -3.91071
v 5.082985 -2.493785 -3.91071
v 5.082985 -2.493785 4.83929
v 5.082985 -2.493785 6.08929
v 4.623712 -1.946445 7.187356
v 4.094003 -1.315162 8.174894
v 3.501823 -0.60943 9.037051
v 2.856081 0.160136 9.76086
v 2.166488 0.98196 10.335434
v 1.443418 1.843683 10.752131
v 0.697744 2.732341 11.004682
v 0.842913 2.87751 -3.91071
v 1.731572 2.131837 -3.91071
v 2.593294 1.408766 -3.91071
v 3.415119 0.719174 -3.91071
v 4.184684 0.073431 -3.91071
v 4.890416 -0.518748 -3.91071
v 5.5217 -1.048458 -3.91071
v 6.06904 -1.50773 -3.91071
v 6.06904 -1.50773 4.83929
v 6.06904 -1.50773 6.08929
v 5.5217 -1.048458 7.187356
v 4.890416 -0.518748 8.174894
v 4.184684 0.073431 9.037051
v 3.415119 0.719174 9.76086
v 2.593294 1.408766 10.335434
v 1.731572 2.131837 10.752131
v 0.842913 2.87751 11.004682
v 0.960669 3.045682 -3.91071
v 1.965311 2.465651 -3.91071
v 2.939502 1.903202 -3.91071
v 3.868588 1.366794 -3.91071
v 4.738594 0.864496 -3.91071
v 5.536435 0.403862 -3.91071
v 6.250111 -0.008179 -3.91071
v 6.868887 -0.365429 -3.91071
v 6.868887 -0.365429 4.83929
v 6.868887 -0.365429 6.08929
v 6.250111 -0.008179 7.187356
v 5.536435 0.403862 8.174894
v 4.738594 0.864496 9.037051
v 3.868588 1.366794 9.76086
v 2.939502 1.903202 10.335434
v 1.965311 2.465651 10.752131
v 0.960669 3.045682 11.004682
v 1.047432 3.231747 -3.91071
v 2.137533 2.834983 -3.91071
v 3.194592 2.450245 -3.91071
v 4.202709 2.08332 -3.91071
v 5.146721 1.739728 -3.91071
v 6.01243 1.424636 -3.91071
v 6.786813 1.142783 -3.91071
v 7.458225 0.898409 -3.91071
v 7.458225 0.898409 4.83929
v 7.458225 0.898409 6.08929
v 6.786813 1.142783 7.187356
v 6.01243 1.424636 8.174894
v 5.146721 1.739728 9.037051
v 4.202709 2.08332 9.76086
v 3.194592 2.450245 10.335434
v 2.137533 2.834983 10.752131
v 1.047432 3.231747 11.004682
v 1.100568 3.430052 -3.91071
v 2.243005 3.228609 -3.91071
v 3.350814 3.033273 -3.91071
v 4.407331 2.84698 -3.91071
v 5.396666 2.672534 -3.91071
v 6.303937 2.512557 -3.91071
v 7.1155 2.369457 -3.91071
v 7.819146 2.245385 -3.91071
v 7.819146 2.245385 4.83929
v 7.819146 2.245385 6.08929
v 7.1155 2.369457 7.187356
v 6.303937 2.512557 8.174894
v 5.396666 2.672534 9.037051
v 4.407331 2.84698 9.76086
v 3.350814 3.033273 10.335434
v 2.243005 3.228609 10.752131
v 1.100568 3.430052 11.004682
v 7.940684 3.634571 -3.877219
v -1.448501 11.513033 4.001243
v 3.940684 10.562774 -3.877219
v 7.819146 5.023756 -3.877219
v 7.940684 3.634571 4.001243
v -2.795477 11.152112 -3.877219
v 3.940684 10.562774 4.001243
v 7.819146 5.023756 4.001243
v -2.795477 11.152112 4.001243
v 2.676845 11.152112 -3.877219
v 7.458225 6.370732 -3.877219
v -4.059316 10.562774 -3.877219
v 2.676845 11.152112 4.001243
v 7.458225 6.370732 4.001243
v -4.059316 10.562774 4.001243
v 1.32987 11.513033 -3.877219
v 6.868887 7.634571 -3.877219
v -5.201617 9.762926 -3.877219
v 1.32987 11.513033 4.001243
v 6.868887 7.634571 4.001243
v -5.201617 9.762926 4.001243
v -0.059316 11.634571 -3.877219
v 6.06904 8.776871 -3.877219
v -6.187671 8.776871 -3.877219
v -0.059316 11.634571 4.001243
v 6.06904 8.776871 4.001243
v -1.448501 11.513033 -3.877219
v 5.082985 9.762926 -3.877219
v 5.082985 9.762926 4.001243
v -6.987519 7.634571 4.001243
v 7.819146 2.245385 -3.877219
v -7.576857 6.370732 -3.877219
v 7.819146 2.245385 4.001243
v -7.576857 6.370732 4.001243
v -7.937778 5.023756 -3.877219
v -6.187671 8.776871 4.001243
v -7.937778 5.023756 4.001243
v -0.059316 -4.365429 4.001243
v -8.059316 3.634571 -3.877219
v -2.795477 -3.88297 -3.877219
v -8.059316 3.634571 4.001243
v -2.795477 -3.88297 4.001243
v -7.937778 2.245385 -3.877219
v -6.987519 7.634571 -3.877219
v -1.448501 -4.243891 4.001243
v -6.987519 -0.365429 4.001243
v -0.059316 -4.365429 -3.877219
v -6.187671 -1.50773 -3.877219
v -7.576857 0.898409 4.001243
v 6.06904 -1.50773 -3.877219
v -1.448501 -4.243891 -3.877219
v -6.987519 -0.365429 -3.877219
v -5.201617 -2.493785 4.001243
v -6.187671 -1.50773 4.001243
v -7.937778 2.245385 4.001243
v -4.059316 -3.293633 -3.877219
v -5.201617 -2.493785 -3.877219
v -7.576857 0.898409 -3.877219
v -4.059316 -3.293633 4.001243
v 6.06904 -1.50773 4.001243
v 5.082985 -2.493785 -3.877219
v 2.676845 -3.88297 4.001243
v 1.32987 -4.243891 -3.877219
v 5.082985 -2.493785 4.001243
v 3.940684 -3.293633 -3.877219
v 1.32987 -4.243891 4.001243
v 3.940684 -3.293633 4.001243
v 6.868887 -0.365429 -3.877219
v 2.676845 -3.88297 -3.877219
v 7.458225 0.898409 -3.877219
v 7.458225 0.898409 4.001243
v 6.868887 -0.365429 4.001243
v -2.800088 11.149962 4.001243
v 7.463332 6.351672 -3.877219
v -4.066226 10.557935 -3.877219
v 7.820917 5.003518 -3.877219
v 6.078677 8.763108 -3.877219
v -5.209769 9.754774 -3.877219
v 6.876726 7.61776 -3.877219
v 7.820917 5.003518 4.001243
v 6.078677 8.763108 4.001243
v 6.876726 7.61776 4.001243
v 1.335144 11.511619 4.001243
v -1.450031 11.512623 -3.877219
v 7.463332 6.351672 4.001243
v -7.939489 5.004199 -3.877219
v -6.195857 8.765181 -3.877219
v -7.93252 2.225762 -3.877219
v -4.066226 10.557935 4.001243
v -2.800088 11.149962 -3.877219
v -7.93252 2.225762 4.001243
v -8.057548 3.614366 -3.877219
v -7.581615 6.352973 4.001243
v -6.994526 7.619544 -3.877219
v -5.209769 9.754774 4.001243
v -8.057548 3.614366 4.001243
v -1.450031 11.512623 4.001243
v -7.939489 5.004199 4.001243
v -6.195857 8.765181 4.001243
v 2.684808 11.148398 -3.877219
v 5.09327 9.752642 4.001243
v -0.057355 11.634399 -3.877219
v 2.684808 11.148398 4.001243
v -0.057355 11.634399 4.001243
v -4.04858 -3.298639 -3.877219
v 5.09327 9.752642 -3.877219
v -4.04858 -3.298639 4.001243
v -5.189703 -2.502127 -3.877219
v -6.97688 -0.380623 4.001243
v -7.568518 0.880526 -3.877219
v -5.189703 -2.502127 4.001243
v -6.175791 -1.519611 -3.877219
v -6.994526 7.619544 4.001243
v -7.568518 0.880526 4.001243
v -7.581615 6.352973 -3.877219
v -6.97688 -0.380623 -3.877219
v -2.78699 -3.885244 -3.877219
v 3.950387 10.55598 -3.877219
v -6.175791 -1.519611 4.001243
v 1.335144 11.511619 -3.877219
v 3.950387 10.55598 4.001243
v 1.328292 -4.244029 4.001243
v -1.443062 -4.244367 4.001243
v 2.671931 -3.884287 -3.877219
v -0.057355 -4.365258 -3.877219
v 2.671931 -3.884287 4.001243
v 3.933038 -3.297198 -3.877219
v 3.933038 -3.297198 4.001243
v -2.78699 -3.885244 4.001243
v -1.443062 -4.244367 -3.877219
v 6.058948 -1.517822 -3.877219
v 6.058948 -1.517822 4.001243
v 1.328292 -4.244029 -3.877219
v 6.859377 -0.379011 -3.877219
v -0.057355 -4.365258 4.001243
v 6.859377 -0.379011 4.001243
v 7.450455 0.881747 -3.877219
v 7.450455 0.881747 4.001243
v 7.814065 2.226422 -3.877219
v 7.814065 2.226422 4.001243
v 7.938916 3.614366 -3.877219
v 5.073541 -2.500398 -3.877219
v 7.938916 3.614366 4.001243
v 5.073541 -2.500398 4.001243

vt 0.986111 1 0
vt 0.513889 1 0
vt 0.486111 1 0
vt 0.958333 1 0
vt 0.458333 1 0
vt 0.930556 1 0
vt 0.430556 1 0
vt 0.902778 1 0
vt 0.402778 1 0
vt 0.875 1 0
vt 0.375 1 0
vt 0.847222 1 0
vt 0.347222 1 0
vt 0.819444 1 0
vt 0.319444 1 0
vt 0.791667 1 0
vt 0.291667 1 0
vt 0.763889 1 0
vt 0.263889 1 0
vt 0.236111 1 0
vt 0.736111 1 0
vt 0.208333 1 0
vt 0.708333 1 0
vt 0.180556 1 0
vt 0.680556 1 0
vt 0.152778 1 0
vt 0.652778 1 0
vt 0.125 1 0
vt 0.625 1 0
vt 0.097222 1 0
vt 0.597222 1 0
vt 0.069444 1 0
vt 0.569444 1 0
vt 0.041667 1 0
vt 0.541667 1 0
vt 0.013889 1 0
vt 1 0.875 0
vt 0 0.875 0
vt 1 0 0
vt 1 1 0
vt 0 0 0
vt 0 1 0
vt 1 0.132586 0
vt 0 0.132586 0
vt 1 0.262758 0
vt 0 0.262758 0
vt 1 0.390456 0
vt 0 0.390456 0
vt 1 0.515768 0
vt 0 0.515768 0
vt 1 0.638934 0
vt 0 0.638934 0
vt 1 0.76034 0
vt 0 0.76034 0
vt 1 0.880495 0
vt 0 0.880495 0
vt 0.027778 0.875 0
vt 0.027778 0 0
vt 0.027778 1 0
vt 0.027778 0.132586 0
vt 0.027778 0.262758 0
vt 0.027778 0.390456 0
vt 0.027778 0.515768 0
vt 0.027778 0.638934 0
vt 0.027778 0.76034 0
vt 0.027778 0.880495 0
vt 0.055556 0.875 0
vt 0.055556 0 0
vt 0.055556 1 0
vt 0.055556 0.132586 0
vt 0.055556 0.262758 0
vt 0.055556 0.390456 0
vt 0.055556 0.515768 0
vt 0.055556 0.638934 0
vt 0.055556 0.76034 0
vt 0.055556 0.880495 0
vt 0.083333 0.875 0
vt 0.083333 0 0
vt 0.083333 1 0
vt 0.083333 0.132586 0
vt 0.083333 0.262758 0
vt 0.083333 0.390456 0
vt 0.083333 0.515768 0
vt 0.083333 0.638934 0
vt 0.083333 0.76034 0
vt 0.083333 0.880495 0
vt 0.111111 0.875 0
vt 0.111111 0 0
vt 0.111111 1 0
vt 0.111111 0.132586 0
vt 0.111111 0.262758 0
vt 0.111111 0.390456 0
vt 0.111111 0.515768 0
vt 0.111111 0.638934 0
vt 0.111111 0.76034 0
vt 0.111111 0.880495 0
vt 0.138889 0.875 0
vt 0.138889 0 0
vt 0.138889 1 0
vt 0.138889 0.132586 0
vt 0.138889 0.262758 0
vt 0.138889 0.390456 0
vt 0.138889 0.515768 0
vt 0.138889 0.638934 0
vt 0.138889 0.76034 0
vt 0.138889 0.880495 0
vt 0.166667 0.875 0
vt 0.166667 0 0
vt 0.166667 1 0
vt 0.166667 0.132586 0
vt 0.166667 0.262758 0
vt 0.166667 0.390456 0
vt 0.166667 0.515768 0
vt 0.166667 0.638934 0
vt 0.166667 0.76034 0
vt 0.166667 0.880495 0
vt 0.194444 0.875 0
vt 0.194444 0 0
vt 0.194444 1 0
vt 0.194444 0.132586 0
vt 0.194444 0.262758 0
vt 0.194444 0.390456 0
vt 0.194444 0.515768 0
vt 0.194444 0.638934 0
vt 0.194444 0.76034 0
vt 0.194444 0.880495 0
vt 0.222222 0.875 0
vt 0.222222 0 0
vt 0.222222 1 0
vt 0.222222 0.132586 0
vt 0.222222 0.262758 0
vt 0.222222 0.390456 0
vt 0.222222 0.515768 0
vt 0.222222 0.638934 0
vt 0.222222 0.76034 0
vt 0.222222 0.880495 0
vt 0.25 0.875 0
vt 0.25 0 0
vt 0.25 1 0
vt 0.25 0.132586 0
vt 0.25 0.262758 0
vt 0.25 0.390456 0
vt 0.25 0.515768 0
vt 0.25 0.638934 0
vt 0.25 0.76034 0
vt 0.25 0.880495 0
vt 0.277778 0.875 0
vt 0.277778 0 0
vt 0.277778 1 0
vt 0.277778 0.132586 0
vt 0.277778 0.262758 0
vt 0.277778 0.390456 0
vt 0.277778 0.515768 0
vt 0.277778 0.638934 0
vt 0.277778 0.76034 0
vt 0.277778 0.880495 0
vt 0.305556 0.875 0
vt 0.305556 0 0
vt 0.305556 1 0
vt 0.305556 0.132586 0
vt 0.305556 0.262758 0
vt 0.305556 0.390456 0
vt 0.305556 0.515768 0
vt 0.305556 0.638934 0
vt 0.305556 0.76034 0
vt 0.305556 0.880495 0
vt 0.333333 0.875 0
vt 0.333333 0 0
vt 0.333333 1 0
vt 0.333333 0.132586 0
vt 0.333333 0.262758 0
vt 0.333333 0.390456 0
vt 0.333333 0.515768 0
vt 0.333333 0.638934 0
vt 0.333333 0.76034 0
vt 0.333333 0.880495 0
vt 0.361111 0.875 0
vt 0.361111 0 0
vt 0.361111 1 0
vt 0.361111 0.132586 0
vt 0.361111 0.262758 0
vt 0.361111 0.390456 0
vt 0.361111 0.515768 0
vt 0.361111 0.638934 0
vt 0.361111 0.76034 0
vt 0.361111 0.880495 0
vt 0.388889 0.875 0
vt 0.388889 0 0
vt 0.388889 1 0
vt 0.388889 0.132586 0
vt 0.388889 0.262758 0
vt 0.388889 0.390456 0
vt 0.388889 0.515768 0
vt 0.388889 0.638934 0
vt 0.388889 0.76034 0
vt 0.388889 0.880495 0
vt 0.416667 0.875 0
vt 0.416667 0 0
vt 0.416667 1 0
vt 0.416667 0.132586 0
vt 0.416667 0.262758 0
vt 0.416667 0.390456 0
vt 0.416667 0.515768 0
vt 0.416667 0.638934 0
vt 0.416667 0.76034 0
vt 0.416667 0.880495 0
vt 0.444444 0.875 0
vt 0.444444 0 0
vt 0.444444 1 0
vt 0.444444 0.132586 0
vt 0.444444 0.262758 0
vt 0.444444 0.390456 0
vt 0.444444 0.515768 0
vt 0.444444 0.638934 0
vt 0.444444 0.76034 0
vt 0.444444 0.880495 0
vt 0.472222 0.875 0
vt 0.472222 0 0
vt 0.472222 1 0
vt 0.472222 0.132586 0
vt 0.472222 0.262758 0
vt 0.472222 0.390456 0
vt 0.472222 0.515768 0
vt 0.472222 0.638934 0
vt 0.472222 0.76034 0
vt 0.472222 0.880495 0
vt 0.5 0.875 0
vt 0.5 0 0
vt 0.5 1 0
vt 0.5 0.132586 0
vt 0.5 0.262758 0
vt 0.5 0.390456 0
vt 0.5 0.515768 0
vt 0.5 0.638934 0
vt 0.5 0.76034 0
vt 0.5 0.880495 0
vt 0.527778 0.875 0
vt 0.527778 0 0
vt 0.527778 1 0
vt 0.527778 0.132586 0
vt 0.527778 0.262758 0
vt 0.527778 0.390456 0
vt 0.527778 0.515768 0
vt 0.527778 0.638934 0
vt 0.527778 0.76034 0
vt 0.527778 0.880495 0
vt 0.555556 0.875 0
vt 0.555556 0 0
vt 0.555556 1 0
vt 0.555556 0.132586 0
vt 0.555556 0.262758 0
vt 0.555556 0.390456 0
vt 0.555556 0.515768 0
vt 0.555556 0.638934 0
vt 0.555556 0.76034 0
vt 0.555556 0.880495 0
vt 0.583333 0.875 0
vt 0.583333 0 0
vt 0.583333 1 0
vt 0.583333 0.132586 0
vt 0.583333 0.262758 0
vt 0.583333 0.390456 0
vt 0.583333 0.515768 0
vt 0.583333 0.638934 0
vt 0.583333 0.76034 0
vt 0.583333 0.880495 0
vt 0.611111 0.875 0
vt 0.611111 0 0
vt 0.611111 1 0
vt 0.611111 0.132586 0
vt 0.611111 0.262758 0
vt 0.611111 0.390456 0
vt 0.611111 0.515768 0
vt 0.611111 0.638934 0
vt 0.611111 0.76034 0
vt 0.611111 0.880495 0
vt 0.638889 0.875 0
vt 0.638889 0 0
vt 0.638889 1 0
vt 0.638889 0.132586 0
vt 0.638889 0.262758 0
vt 0.638889 0.390456 0
vt 0.638889 0.515768 0
vt 0.638889 0.638934 0
vt 0.638889 0.76034 0
vt 0.638889 0.880495 0
vt 0.666667 0.875 0
vt 0.666667 0 0
vt 0.666667 1 0
vt 0.666667 0.132586 0
vt 0.666667 0.262758 0
vt 0.666667 0.390456 0
vt 0.666667 0.515768 0
vt 0.666667 0.638934 0
vt 0.666667 0.76034 0
vt 0.666667 0.880495 0
vt 0.694444 0.875 0
vt 0.694444 0 0
vt 0.694444 1 0
vt 0.694444 0.132586 0
vt 0.694444 0.262758 0
vt 0.694444 0.390456 0
vt 0.694444 0.515768 0
vt 0.694444 0.638934 0
vt 0.694444 0.76034 0
vt 0.694444 0.880495 0
vt 0.722222 0.875 0
vt 0.722222 0 0
vt 0.722222 1 0
vt 0.722222 0.132586 0
vt 0.722222 0.262758 0
vt 0.722222 0.390456 0
vt 0.722222 0.515768 0
vt 0.722222 0.638934 0
vt 0.722222 0.76034 0
vt 0.722222 0.880495 0
vt 0.75 0.875 0
vt 0.75 0 0
vt 0.75 1 0
vt 0.75 0.132586 0
vt 0.75 0.262758 0
vt 0.75 0.390456 0
vt 0.75 0.515768 0
vt 0.75 0.638934 0
vt 0.75 0.76034 0
vt 0.75 0.880495 0
vt 0.777778 0.875 0
vt 0.777778 0 0
vt 0.777778 1 0
vt 0.777778 0.132586 0
vt 0.777778 0.262758 0
vt 0.777778 0.390456 0
vt 0.777778 0.515768 0
vt 0.777778 0.638934 0
vt 0.777778 0.76034 0
vt 0.777778 0.880495 0
vt 0.805556 0.875 0
vt 0.805556 0 0
vt 0.805556 1 0
vt 0.805556 0.132586 0
vt 0.805556 0.262758 0
vt 0.805556 0.390456 0
vt 0.805556 0.515768 0
vt 0.805556 0.638934 0
vt 0.805556 0.76034 0
vt 0.805556 0.880495 0
vt 0.833333 0.875 0
vt 0.833333 0 0
vt 0.833333 1 0
vt 0.833333 0.132586 0
vt 0.833333 0.262758 0
vt 0.833333 0.390456 0
vt 0.833333 0.515768 0
vt 0.833333 0.638934 0
vt 0.833333 0.76034 0
vt 0.833333 0.880495 0
vt 0.861111 0.875 0
vt 0.861111 0 0
vt 0.861111 1 0
vt 0.861111 0.132586 0
vt 0.861111 0.262758 0
vt 0.861111 0.390456 0
vt 0.861111 0.515768 0
vt 0.861111 0.638934 0
vt 0.861111 0.76034 0
vt 0.861111 0.880495 0
vt 0.888889 0.875 0
vt 0.888889 0 0
vt 0.888889 1 0
vt 0.888889 0.132586 0
vt 0.888889 0.262758 0
vt 0.888889 0.390456 0
vt 0.888889 0.515768 0
vt 0.888889 0.638934 0
vt 0.888889 0.76034 0
vt 0.888889 0.880495 0
vt 0.916667 0.875 0
vt 0.916667 0 0
vt 0.916667 1 0
vt 0.916667 0.132586 0
vt 0.916667 0.262758 0
vt 0.916667 0.390456 0
vt 0.916667 0.515768 0
vt 0.916667 0.638934 0
vt 0.916667 0.76034 0
vt 0.916667 0.880495 0
vt 0.944444 0.875 0
vt 0.944444 0 0
vt 0.944444 1 0
vt 0.944444 0.132586 0
vt 0.944444 0.262758 0
vt 0.944444 0.390456 0
vt 0.944444 0.515768 0
vt 0.944444 0.638934 0
vt 0.944444 0.76034 0
vt 0.944444 0.880495 0
vt 0.972222 0.875 0
vt 0.972222 0 0
vt 0.972222 1 0
vt 0.972222 0.132586 0
vt 0.972222 0.262758 0
vt 0.972222 0.390456 0
vt 0.972222 0.515768 0
vt 0.972222 0.638934 0
vt 0.972222 0.76034 0
vt 0.972222 0.880495 0
vt 0.277778 0.791195 0
vt 1 0.791195 0
vt 0 0.791195 0
vt 0.166667 0.791195 0
vt 0.027778 0.791195 0
vt 0.305556 0.791195 0
vt 0.194444 0.791195 0
vt 0.055556 0.791195 0
vt 0.333333 0.791195 0
vt 0.222222 0.791195 0
vt 0.083333 0.791195 0
vt 0.361111 0.791195 0
vt 0.25 0.791195 0
vt 0.111111 0.791195 0
vt 0.138889 0.791195 0
vt 0.416667 0.791195 0
vt 0.972222 0.791195 0
vt 0.444444 0.791195 0
vt 0.388889 0.791195 0
vt 0.472222 0.791195 0
vt 0.75 0.791195 0
vt 0.5 0.791195 0
vt 0.694444 0.791195 0
vt 0.722222 0.791195 0
vt 0.583333 0.791195 0
vt 0.555556 0.791195 0
vt 0.638889 0.791195 0
vt 0.611111 0.791195 0
vt 0.527778 0.791195 0
vt 0.666667 0.791195 0
vt 0.888889 0.791195 0
vt 0.805556 0.791195 0
vt 0.861111 0.791195 0
vt 0.777778 0.791195 0
vt 0.833333 0.791195 0
vt 0.944444 0.791195 0
vt 0.916667 0.791195 0
vt 0.305657 0.791195 0
vt 0.027373 0.791195 0
vt 0.110776 0.791195 0
vt 0.082964 0.791195 0
vt 0.222113 0.791195 0
vt 0.055163 0.791195 0
vt 0.333501 0.791195 0
vt 0.528182 0.791195 0
vt 0.444811 0.791195 0
vt 0.361341 0.791195 0
vt 0.500404 0.791195 0
vt 0.277809 0.791195 0
vt 0.472613 0.791195 0
vt 0.389173 0.791195 0
vt 0.138599 0.791195 0
vt 0.194269 0.791195 0
vt 0.249961 0.791195 0
vt 0.666903 0.791195 0
vt 0.583703 0.791195 0
vt 0.639179 0.791195 0
vt 0.416997 0.791195 0
vt 0.555949 0.791195 0
vt 0.611446 0.791195 0
vt 0.166431 0.791195 0
vt 0.777746 0.791195 0
vt 0.722331 0.791195 0
vt 0.805454 0.791195 0
vt 0.833165 0.791195 0
vt 0.694619 0.791195 0
vt 0.888605 0.791195 0
vt 0.750039 0.791195 0
vt 0.916336 0.791195 0
vt 0.944078 0.791195 0
vt 0.971831 0.791195 0
vt 0.999596 0.791195 0
vt 0.860881 0.791195 0

f 351/247 334/237 669/435 705/451 
f 663/432 351/247 705/451 
f 351/247 352/249 335/239 334/237 
f 352/248 353/250 336/240 335/238 
f 353/250 354/251 337/241 336/240 
f 354/251 355/252 338/242 337/241 
f 355/252 356/253 339/243 338/242 
f 356/253 357/254 340/244 339/243 
f 357/254 358/255 341/245 340/244 
f 358/255 359/256 342/246 341/245 
f 694/445 28/57 11/38 619/409 
f 694/445 622/411 28/57 
f 28/57 29/59 12/42 11/38 
f 29/58 30/60 13/44 12/41 
f 30/60 31/61 14/46 13/44 
f 31/61 32/62 15/48 14/46 
f 32/62 33/63 16/50 15/48 
f 33/63 34/64 17/52 16/50 
f 34/64 35/65 18/54 17/52 
f 35/65 36/66 19/56 18/54 
f 36/66 2/36 19/56 
f 359/256 2/35 342/246 
f 351/247 663/432 728/465 
f 728/465 660/431 368/257 351/247 
f 368/257 369/259 352/249 351/247 
f 369/258 370/260 353/250 352/248 
f 370/260 371/261 354/251 353/250 
f 371/261 372/262 355/252 354/251 
f 372/262 373/263 356/253 355/252 
f 373/263 374/264 357/254 356/253 
f 374/264 375/265 358/255 357/254 
f 699/449 45/67 28/57 622/411 
f 699/449 628/414 45/67 
f 45/67 46/69 29/59 28/57 
f 46/68 47/70 30/60 29/58 
f 47/70 48/71 31/61 30/60 
f 48/71 49/72 32/62 31/61 
f 49/72 50/73 33/63 32/62 
f 50/73 51/74 34/64 33/63 
f 51/74 52/75 35/65 34/64 
f 52/75 53/76 36/66 35/65 
f 53/76 2/34 36/66 
f 375/265 376/266 359/256 358/255 
f 376/266 2/33 359/256 
f 723/462 368/257 660/431 
f 368/257 723/462 668/434 385/267 
f 385/267 386/269 369/259 368/257 
f 386/268 387/270 370/260 369/258 
f 387/270 388/271 371/261 370/260 
f 388/271 389/272 372/262 371/261 
f 389/272 390/273 373/263 372/262 
f 390/273 391/274 374/264 373/263 
f 696/447 45/67 628/414 
f 45/67 696/447 634/417 62/77 
f 62/77 63/79 46/69 45/67 
f 63/78 64/80 47/70 46/68 
f 64/80 65/81 48/71 47/70 
f 65/81 66/82 49/72 48/71 
f 66/82 67/83 50/73 49/72 
f 67/83 68/84 51/74 50/73 
f 68/84 69/85 52/75 51/74 
f 69/85 70/86 53/76 52/75 
f 70/86 2/32 53/76 
f 391/274 392/275 375/265 374/264 
f 392/275 393/276 376/266 375/265 
f 393/276 2/31 376/266 
f 385/267 668/434 733/466 
f 733/466 667/433 402/277 385/267 
f 402/277 403/279 386/269 385/267 
f 403/278 404/280 387/270 386/268 
f 404/280 405/281 388/271 387/270 
f 405/281 406/282 389/272 388/271 
f 406/282 407/283 390/273 389/272 
f 695/446 79/87 62/77 634/417 
f 695/446 640/420 79/87 
f 79/87 80/89 63/79 62/77 
f 80/88 81/90 64/80 63/78 
f 81/90 82/91 65/81 64/80 
f 82/91 83/92 66/82 65/81 
f 83/92 84/93 67/83 66/82 
f 84/93 85/94 68/84 67/83 
f 85/94 86/95 69/85 68/84 
f 86/95 87/96 70/86 69/85 
f 87/96 2/30 70/86 
f 407/283 408/284 391/274 390/273 
f 408/284 409/285 392/275 391/274 
f 409/285 410/286 393/276 392/275 
f 410/286 2/29 393/276 
f 725/463 402/277 667/433 
f 402/277 725/463 673/436 419/287 
f 419/287 420/289 403/279 402/277 
f 420/288 421/290 404/280 403/278 
f 421/290 422/291 405/281 404/280 
f 422/291 423/292 406/282 405/281 
f 715/458 96/97 79/87 640/420 
f 715/458 643/421 96/97 
f 96/97 97/99 80/89 79/87 
f 97/98 98/100 81/90 80/88 
f 98/100 99/101 82/91 81/90 
f 99/101 100/102 83/92 82/91 
f 100/102 101/103 84/93 83/92 
f 101/103 102/104 85/94 84/93 
f 102/104 103/105 86/95 85/94 
f 103/105 104/106 87/96 86/95 
f 104/106 2/28 87/96 
f 423/292 424/293 407/283 406/282 
f 424/293 425/294 408/284 407/283 
f 425/294 426/295 409/285 408/284 
f 426/295 427/296 410/286 409/285 
f 427/296 2/27 410/286 
f 419/287 673/436 721/461 
f 721/461 656/429 436/297 419/287 
f 436/297 437/299 420/289 419/287 
f 437/298 438/300 421/290 420/288 
f 438/300 439/301 422/291 421/290 
f 113/107 96/97 643/421 735/467 
f 621/410 113/107 735/467 
f 113/107 114/109 97/99 96/97 
f 114/108 115/110 98/100 97/98 
f 115/110 116/111 99/101 98/100 
f 116/111 117/112 100/102 99/101 
f 117/112 118/113 101/103 100/102 
f 118/113 119/114 102/104 101/103 
f 119/114 120/115 103/105 102/104 
f 120/115 121/116 104/106 103/105 
f 121/116 2/26 104/106 
f 439/301 440/302 423/292 422/291 
f 440/302 441/303 424/293 423/292 
f 441/303 442/304 425/294 424/293 
f 442/304 443/305 426/295 425/294 
f 443/305 444/306 427/296 426/295 
f 444/306 2/25 427/296 
f 453/307 436/297 656/429 
f 743/472 659/430 453/307 
f 743/472 453/307 656/429 
f 453/307 454/309 437/299 436/297 
f 717/459 130/117 113/107 621/410 
f 717/459 627/413 130/117 
f 130/117 131/119 114/109 113/107 
f 131/118 132/120 115/110 114/108 
f 132/120 133/121 116/111 115/110 
f 133/121 134/122 117/112 116/111 
f 134/122 135/123 118/113 117/112 
f 135/123 136/124 119/114 118/113 
f 136/124 137/125 120/115 119/114 
f 137/125 138/126 121/116 120/115 
f 138/126 2/24 121/116 
f 454/308 455/310 438/300 437/298 
f 455/310 456/311 439/301 438/300 
f 456/311 457/312 440/302 439/301 
f 457/312 458/313 441/303 440/302 
f 458/313 459/314 442/304 441/303 
f 459/314 460/315 443/305 442/304 
f 460/315 461/316 444/306 443/305 
f 461/316 2/23 444/306 
f 453/307 659/430 737/469 
f 737/469 652/427 470/317 453/307 
f 697/448 147/127 130/117 627/413 
f 697/448 633/416 147/127 
f 147/127 148/129 131/119 130/117 
f 148/128 149/130 132/120 131/118 
f 149/130 150/131 133/121 132/120 
f 150/131 151/132 134/122 133/121 
f 151/132 152/133 135/123 134/122 
f 152/133 153/134 136/124 135/123 
f 153/134 154/135 137/125 136/124 
f 154/135 155/136 138/126 137/125 
f 155/136 2/22 138/126 
f 470/317 471/319 454/309 453/307 
f 471/318 472/320 455/310 454/308 
f 472/320 473/321 456/311 455/310 
f 473/321 474/322 457/312 456/311 
f 474/322 475/323 458/313 457/312 
f 475/323 476/324 459/314 458/313 
f 476/324 477/325 460/315 459/314 
f 477/325 478/326 461/316 460/315 
f 478/326 2/21 461/316 
f 487/327 470/317 652/427 
f 718/460 164/137 147/127 633/416 
f 718/460 639/419 164/137 
f 164/137 165/139 148/129 147/127 
f 165/138 166/140 149/130 148/128 
f 166/140 167/141 150/131 149/130 
f 167/141 168/142 151/132 150/131 
f 168/142 169/143 152/133 151/132 
f 169/143 170/144 153/134 152/133 
f 170/144 171/145 154/135 153/134 
f 171/145 172/146 155/136 154/135 
f 172/146 2/20 155/136 
f 736/468 680/440 487/327 
f 749/474 736/468 487/327 
f 749/474 487/327 652/427 
f 487/327 488/329 471/319 470/317 
f 488/328 489/330 472/320 471/318 
f 489/330 490/331 473/321 472/320 
f 490/331 491/332 474/322 473/321 
f 491/332 492/333 475/323 474/322 
f 492/333 493/334 476/324 475/323 
f 616/407 181/147 164/137 639/419 
f 181/147 182/149 165/139 164/137 
f 182/148 183/150 166/140 165/138 
f 183/150 184/151 167/141 166/140 
f 184/151 185/152 168/142 167/141 
f 185/152 186/153 169/143 168/142 
f 186/153 187/154 170/144 169/143 
f 187/154 188/155 171/145 170/144 
f 188/155 189/156 172/146 171/145 
f 189/156 2/19 172/146 
f 493/334 494/335 477/325 476/324 
f 494/335 495/336 478/326 477/325 
f 495/336 2/18 478/326 
f 487/327 680/440 740/470 
f 676/438 504/337 487/327 
f 676/438 487/327 740/470 
f 504/337 505/339 488/329 487/327 
f 505/338 506/340 489/330 488/328 
f 506/340 507/341 490/331 489/330 
f 507/341 508/342 491/332 490/331 
f 711/455 181/147 616/407 
f 181/147 711/455 623/412 198/157 
f 198/157 199/159 182/149 181/147 
f 199/158 200/160 183/150 182/148 
f 200/160 201/161 184/151 183/150 
f 201/161 202/162 185/152 184/151 
f 202/162 203/163 186/153 185/152 
f 203/163 204/164 187/154 186/153 
f 204/164 205/165 188/155 187/154 
f 205/165 206/166 189/156 188/155 
f 206/166 2/17 189/156 
f 508/342 509/343 492/333 491/332 
f 509/343 510/344 493/334 492/333 
f 510/344 511/345 494/335 493/334 
f 511/345 512/346 495/336 494/335 
f 512/346 2/16 495/336 
f 742/471 521/347 504/337 676/438 
f 742/471 681/441 521/347 
f 521/347 522/349 505/339 504/337 
f 522/348 523/350 506/340 505/338 
f 523/350 524/351 507/341 506/340 
f 524/351 525/352 508/342 507/341 
f 215/167 198/157 623/412 
f 687/444 629/415 215/167 
f 687/444 215/167 623/412 
f 215/167 216/169 199/159 198/157 
f 216/168 217/170 200/160 199/158 
f 217/170 218/171 201/161 200/160 
f 218/171 219/172 202/162 201/161 
f 219/172 220/173 203/163 202/162 
f 220/173 221/174 204/164 203/163 
f 221/174 222/175 205/165 204/164 
f 222/175 223/176 206/166 205/165 
f 223/176 2/15 206/166 
f 525/352 526/353 509/343 508/342 
f 526/353 527/354 510/344 509/343 
f 527/354 528/355 511/345 510/344 
f 528/355 529/356 512/346 511/345 
f 529/356 2/14 512/346 
f 521/347 681/441 758/479 
f 678/439 538/357 521/347 
f 678/439 521/347 758/479 
f 538/357 539/359 522/349 521/347 
f 539/358 540/360 523/350 522/348 
f 232/177 215/167 629/415 
f 703/450 635/418 232/177 
f 703/450 232/177 629/415 
f 232/177 233/179 216/169 215/167 
f 233/178 234/180 217/170 216/168 
f 234/180 235/181 218/171 217/170 
f 235/181 236/182 219/172 218/171 
f 236/182 237/183 220/173 219/172 
f 237/183 238/184 221/174 220/173 
f 238/184 239/185 222/175 221/174 
f 239/185 240/186 223/176 222/175 
f 240/186 2/13 223/176 
f 540/360 541/361 524/351 523/350 
f 541/361 542/362 525/352 524/351 
f 542/362 543/363 526/353 525/352 
f 543/363 544/364 527/354 526/353 
f 544/364 545/365 528/355 527/354 
f 545/365 546/366 529/356 528/355 
f 546/366 2/12 529/356 
f 538/357 678/439 746/473 
f 746/473 674/437 555/367 538/357 
f 555/367 556/369 539/359 538/357 
f 556/368 557/370 540/360 539/358 
f 249/187 232/177 635/418 
f 709/453 650/425 249/187 
f 709/453 249/187 635/418 
f 249/187 250/189 233/179 232/177 
f 250/188 251/190 234/180 233/178 
f 251/190 252/191 235/181 234/180 
f 252/191 253/192 236/182 235/181 
f 253/192 254/193 237/183 236/182 
f 254/193 255/194 238/184 237/183 
f 255/194 256/195 239/185 238/184 
f 256/195 257/196 240/186 239/185 
f 257/196 2/11 240/186 
f 557/370 558/371 541/361 540/360 
f 558/371 559/372 542/362 541/361 
f 559/372 560/373 543/363 542/362 
f 560/373 561/374 544/364 543/363 
f 561/374 562/375 545/365 544/364 
f 562/375 563/376 546/366 545/365 
f 563/376 2/10 546/366 
f 750/475 572/377 555/367 674/437 
f 750/475 686/443 572/377 
f 572/377 573/379 556/369 555/367 
f 266/197 249/187 650/425 713/457 
f 644/422 266/197 713/457 
f 266/197 267/199 250/189 249/187 
f 267/198 268/200 251/190 250/188 
f 268/200 269/201 252/191 251/190 
f 269/201 270/202 253/192 252/191 
f 270/202 271/203 254/193 253/192 
f 271/203 272/204 255/194 254/193 
f 272/204 273/205 256/195 255/194 
f 273/205 274/206 257/196 256/195 
f 274/206 2/9 257/196 
f 573/378 574/380 557/370 556/368 
f 574/380 575/381 558/371 557/370 
f 575/381 576/382 559/372 558/371 
f 576/382 577/383 560/373 559/372 
f 577/383 578/384 561/374 560/373 
f 578/384 579/385 562/375 561/374 
f 579/385 580/386 563/376 562/375 
f 580/386 2/8 563/376 
f 572/377 686/443 752/476 
f 752/476 685/442 589/387 572/377 
f 727/464 283/207 266/197 644/422 
f 727/464 648/424 283/207 
f 283/207 284/209 267/199 266/197 
f 284/208 285/210 268/200 267/198 
f 285/210 286/211 269/201 268/200 
f 286/211 287/212 270/202 269/201 
f 287/212 288/213 271/203 270/202 
f 288/213 289/214 272/204 271/203 
f 289/214 290/215 273/205 272/204 
f 290/215 291/216 274/206 273/205 
f 291/216 2/7 274/206 
f 589/387 590/389 573/379 572/377 
f 590/388 591/390 574/380 573/378 
f 591/390 592/391 575/381 574/380 
f 592/391 593/392 576/382 575/381 
f 593/392 594/393 577/383 576/382 
f 594/393 595/394 578/384 577/383 
f 595/394 596/395 579/385 578/384 
f 596/395 597/396 580/386 579/385 
f 597/396 2/6 580/386 
f 589/387 685/442 754/477 
f 707/452 283/207 648/424 
f 283/207 707/452 651/426 300/217 
f 300/217 301/219 284/209 283/207 
f 301/218 302/220 285/210 284/208 
f 302/220 303/221 286/211 285/210 
f 303/221 304/222 287/212 286/211 
f 304/222 305/223 288/213 287/212 
f 305/223 306/224 289/214 288/213 
f 306/224 307/225 290/215 289/214 
f 307/225 308/226 291/216 290/215 
f 308/226 2/5 291/216 
f 754/477 647/423 606/397 589/387 
f 606/397 607/399 590/389 589/387 
f 607/398 608/400 591/390 590/388 
f 608/400 609/401 592/391 591/390 
f 609/401 610/402 593/392 592/391 
f 610/402 611/403 594/393 593/392 
f 611/403 612/404 595/394 594/393 
f 612/404 613/405 596/395 595/394 
f 613/405 614/406 597/396 596/395 
f 614/406 2/4 597/396 
f 712/456 317/227 300/217 651/426 
f 712/456 655/428 317/227 
f 317/227 318/229 301/219 300/217 
f 318/228 319/230 302/220 301/218 
f 319/230 320/231 303/221 302/220 
f 320/231 321/232 304/222 303/221 
f 321/232 322/233 305/223 304/222 
f 322/233 323/234 306/224 305/223 
f 323/234 324/235 307/225 306/224 
f 324/235 325/236 308/226 307/225 
f 325/236 2/3 308/226 
f 11/37 606/397 647/423 757/478 
f 619/408 11/37 757/478 
f 11/37 12/40 607/399 606/397 
f 12/39 13/43 608/400 607/398 
f 13/43 14/45 609/401 608/400 
f 14/45 15/47 610/402 609/401 
f 15/47 16/49 611/403 610/402 
f 16/49 17/51 612/404 611/403 
f 17/51 18/53 613/405 612/404 
f 18/53 19/55 614/406 613/405 
f 710/454 317/227 655/428 
f 317/227 710/454 669/435 334/237 
f 334/237 335/239 318/229 317/227 
f 335/238 336/240 319/230 318/228 
f 336/240 337/241 320/231 319/230 
f 337/241 338/242 321/232 320/231 
f 338/242 339/243 322/233 321/232 
f 339/243 340/244 323/234 322/233 
f 340/244 341/245 324/235 323/234 
f 341/245 342/246 325/236 324/235 
f 342/246 2/2 325/236 
f 19/55 2/1 614/406 

Bumper_Unten
usemtl DYellow
v 7.248052 3.614366 4.001243
v 5.942645 3.614366 3.526114
v 4.878467 3.614366 2.633163
v 4.183874 3.614366 1.430093
v 3.942645 3.614366 0.062012
v 4.183874 3.614366 -1.306068
v 4.878467 3.614366 -2.509138
v 5.942645 3.614366 -3.402089
v 7.248052 3.614366 -3.877219
v 7.137067 4.882937 4.001243
v 5.851491 4.656255 3.526114
v 4.803481 4.471463 2.633163
v 4.119441 4.350848 1.430093
v 3.881876 4.308959 0.062012
v 4.119441 4.350848 -1.306068
v 4.803481 4.471463 -2.509138
v 5.851491 4.656255 -3.402089
v 7.137067 4.882937 -3.877219
v 6.807482 6.112963 4.001243
v 5.580801 5.666487 3.526114
v 4.580801 5.302517 2.633163
v 3.928097 5.064952 1.430093
v 3.701415 4.982447 0.062012
v 3.928097 5.064952 -1.306068
v 4.580801 5.302517 -2.509138
v 5.580801 5.666487 -3.402089
v 6.807482 6.112963 -3.877219
v 6.269313 7.26707 4.001243
v 5.138797 6.614366 3.526114
v 4.217192 6.082277 2.633163
v 3.615657 5.734981 1.430093
v 3.406747 5.614366 0.062012
v 3.615657 5.734981 -1.306068
v 4.217192 6.082277 -2.509138
v 5.138797 6.614366 -3.402089
v 6.269313 7.26707 -3.877219
v 5.538912 8.310191 4.001243
v 4.538912 7.471092 3.526114
v 3.723704 6.787052 2.633163
v 3.191615 6.340576 1.430093
v 3.006823 6.185517 0.062012
v 3.191615 6.340576 -1.306068
v 3.723704 6.787052 -2.509138
v 4.538912 7.471092 -3.402089
v 5.538912 8.310191 -3.877219
v 4.63847 9.210633 4.001243
v 3.799371 8.210633 3.526114
v 3.11533 7.395425 2.633163
v 2.668855 6.863336 1.430093
v 2.513795 6.678544 0.062012
v 2.668855 6.863336 -1.306068
v 3.11533 7.395425 -2.509138
v 3.799371 8.210633 -3.402089
v 4.63847 9.210633 -3.877219
v 3.595349 9.941034 4.001243
v 2.942645 8.810519 3.526114
v 2.410556 7.888914 2.633163
v 2.06326 7.287379 1.430093
v 1.942645 7.078468 0.062012
v 2.06326 7.287379 -1.306068
v 2.410556 7.888914 -2.509138
v 2.942645 8.810519 -3.402089
v 3.595349 9.941034 -3.877219
v 2.441241 10.479203 4.001243
v 1.994766 9.252522 3.526114
v 1.630796 8.252522 2.633163
v 1.393231 7.599818 1.430093
v 1.310725 7.373137 0.062012
v 1.393231 7.599818 -1.306068
v 1.630796 8.252522 -2.509138
v 1.994766 9.252522 -3.402089
v 2.441241 10.479203 -3.877219
v 1.211216 10.808788 4.001243
v 0.984534 9.523213 3.526114
v 0.799741 8.475202 2.633163
v 0.679127 7.791162 1.430093
v 0.637238 7.553597 0.062012
v 0.679127 7.791162 -1.306068
v 0.799741 8.475202 -2.509138
v 0.984534 9.523213 -3.402089
v 1.211216 10.808788 -3.877219
v -0.057355 10.919773 4.001243
v -0.057355 9.614366 3.526114
v -0.057355 8.550188 2.633163
v -0.057355 7.855596 1.430093
v -0.057355 7.614366 0.062012
v -0.057355 7.855596 -1.306068
v -0.057355 8.550188 -2.509138
v -0.057355 9.614366 -3.402089
v -0.057355 10.919773 -3.877219
v -1.325926 10.808788 4.001243
v -1.099244 9.523213 3.526114
v -0.914452 8.475202 2.633163
v -0.793837 7.791162 1.430093
v -0.751948 7.553597 0.062012
v -0.793837 7.791162 -1.306068
v -0.914452 8.475202 -2.509138
v -1.099244 9.523213 -3.402089
v -1.325926 10.808788 -3.877219
v -2.555952 10.479203 4.001243
v -2.109476 9.252522 3.526114
v -1.745506 8.252522 2.633163
v -1.507941 7.599818 1.430093
v -1.425436 7.373137 0.062012
v -1.507941 7.599818 -1.306068
v -1.745506 8.252522 -2.509138
v -2.109476 9.252522 -3.402089
v -2.555952 10.479203 -3.877219
v -3.710059 9.941034 4.001243
v -3.057355 8.810519 3.526114
v -2.525266 7.888914 2.633163
v -2.17797 7.287379 1.430093
v -2.057355 7.078468 0.062012
v -2.17797 7.287379 -1.306068
v -2.525266 7.888914 -2.509138
v -3.057355 8.810519 -3.402089
v -3.710059 9.941034 -3.877219
v -4.75318 9.210633 4.001243
v -3.914081 8.210633 3.526114
v -3.23004 7.395425 2.633163
v -2.783565 6.863336 1.430093
v -2.628506 6.678544 0.062012
v -2.783565 6.863336 -1.306068
v -3.23004 7.395425 -2.509138
v -3.914081 8.210633 -3.402089
v -4.75318 9.210633 -3.877219
v -5.653622 8.310191 4.001243
v -4.653622 7.471092 3.526114
v -3.838414 6.787052 2.633163
v -3.306325 6.340576 1.430093
v -3.121533 6.185517 0.062012
v -3.306325 6.340576 -1.306068
v -3.838414 6.787052 -2.509138
v -4.653622 7.471092 -3.402089
v -5.653622 8.310191 -3.877219
v -6.384023 7.26707 4.001243
v -5.253507 6.614366 3.526114
v -4.331903 6.082277 2.633163
v -3.730368 5.734981 1.430093
v -3.521457 5.614366 0.062012
v -3.730368 5.734981 -1.306068
v -4.331903 6.082277 -2.509138
v -5.253507 6.614366 -3.402089
v -6.384023 7.26707 -3.877219
v -6.922192 6.112963 4.001243
v -5.695511 5.666487 3.526114
v -4.695511 5.302517 2.633163
v -4.042807 5.064952 1.430093
v -3.816126 4.982447 0.062012
v -4.042807 5.064952 -1.306068
v -4.695511 5.302517 -2.509138
v -5.695511 5.666487 -3.402089
v -6.922192 6.112963 -3.877219
v -7.251777 4.882937 4.001243
v -5.966202 4.656255 3.526114
v -4.918191 4.471463 2.633163
v -4.234151 4.350848 1.430093
v -3.996586 4.308959 0.062012
v -4.234151 4.350848 -1.306068
v -4.918191 4.471463 -2.509138
v -5.966202 4.656255 -3.402089
v -7.251777 4.882937 -3.877219
v -7.362762 3.614366 4.001243
v -6.057355 3.614366 3.526114
v -4.993177 3.614366 2.633163
v -4.298585 3.614366 1.430093
v -4.057355 3.614366 0.062012
v -4.298585 3.614366 -1.306068
v -4.993177 3.614366 -2.509138
v -6.057355 3.614366 -3.402089
v -7.362762 3.614366 -3.877219
v -7.251777 2.345795 4.001243
v -5.966202 2.572477 3.526114
v -4.918191 2.75727 2.633163
v -4.234151 2.877884 1.430093
v -3.996586 2.919773 0.062012
v -4.234151 2.877884 -1.306068
v -4.918191 2.75727 -2.509138
v -5.966202 2.572477 -3.402089
v -7.251777 2.345795 -3.877219
v -6.922192 1.11577 4.001243
v -5.695511 1.562245 3.526114
v -4.695511 1.926216 2.633163
v -4.042807 2.16378 1.430093
v -3.816126 2.246286 0.062012
v -4.042807 2.16378 -1.306068
v -4.695511 1.926216 -2.509138
v -5.695511 1.562245 -3.402089
v -6.922192 1.11577 -3.877219
v -6.384023 -0.038337 4.001243
v -5.253507 0.614366 3.526114
v -4.331903 1.146455 2.633163
v -3.730368 1.493751 1.430093
v -3.521457 1.614366 0.062012
v -3.730368 1.493751 -1.306068
v -4.331903 1.146455 -2.509138
v -5.253507 0.614366 -3.402089
v -6.384023 -0.038337 -3.877219
v -5.653622 -1.081459 4.001243
v -4.653622 -0.24236 3.526114
v -3.838414 0.441681 2.633163
v -3.306325 0.888156 1.430093
v -3.121533 1.043216 0.062012
v -3.306325 0.888156 -1.306068
v -3.838414 0.441681 -2.509138
v -4.653622 -0.24236 -3.402089
v -5.653622 -1.081459 -3.877219
v -4.75318 -1.981901 4.001243
v -3.914081 -0.981901 3.526114
v -3.23004 -0.166693 2.633163
v -2.783565 0.365396 1.430093
v -2.628506 0.550188 0.062012
v -2.783565 0.365396 -1.306068
v -3.23004 -0.166693 -2.509138
v -3.914081 -0.981901 -3.402089
v -4.75318 -1.981901 -3.877219
v -3.710059 -2.712302 4.001243
v -3.057355 -1.581786 3.526114
v -2.525266 -0.660181 2.633163
v -2.17797 -0.058646 1.430093
v -2.057355 0.150265 0.062012
v -2.17797 -0.058646 -1.306068
v -2.525266 -0.660181 -2.509138
v -3.057355 -1.581786 -3.402089
v -3.710059 -2.712302 -3.877219
v -2.555952 -3.250471 4.001243
v -2.109476 -2.02379 3.526114
v -1.745506 -1.02379 2.633163
v -1.507941 -0.371086 1.430093
v -1.425436 -0.144404 0.062012
v -1.507941 -0.371086 -1.306068
v -1.745506 -1.02379 -2.509138
v -2.109476 -2.02379 -3.402089
v -2.555952 -3.250471 -3.877219
v -1.325926 -3.580056 4.001243
v -1.099244 -2.29448 3.526114
v -0.914452 -1.24647 2.633163
v -0.793837 -0.56243 1.430093
v -0.751948 -0.324865 0.062012
v -0.793837 -0.56243 -1.306068
v -0.914452 -1.24647 -2.509138
v -1.099244 -2.29448 -3.402089
v -1.325926 -3.580056 -3.877219
v -0.057355 -3.691041 4.001243
v -0.057355 -2.385634 3.526114
v -0.057355 -1.321456 2.633163
v -0.057355 -0.626863 1.430093
v -0.057355 -0.385634 0.062012
v -0.057355 -0.626863 -1.306068
v -0.057355 -1.321456 -2.509138
v -0.057355 -2.385634 -3.402089
v -0.057355 -3.691041 -3.877219
v 1.211216 -3.580056 4.001243
v 0.984534 -2.29448 3.526114
v 0.799741 -1.24647 2.633163
v 0.679127 -0.56243 1.430093
v 0.637238 -0.324865 0.062012
v 0.679127 -0.56243 -1.306068
v 0.799741 -1.24647 -2.509138
v 0.984534 -2.29448 -3.402089
v 1.211216 -3.580056 -3.877219
v 2.441241 -3.250471 4.001243
v 1.994766 -2.02379 3.526114
v 1.630796 -1.02379 2.633163
v 1.393231 -0.371086 1.430093
v 1.310725 -0.144404 0.062012
v 1.393231 -0.371086 -1.306068
v 1.630796 -1.02379 -2.509138
v 1.994766 -2.02379 -3.402089
v 2.441241 -3.250471 -3.877219
v 3.595349 -2.712302 4.001243
v 2.942645 -1.581786 3.526114
v 2.410556 -0.660181 2.633163
v 2.06326 -0.058646 1.430093
v 1.942645 0.150265 0.062012
v 2.06326 -0.058646 -1.306068
v 2.410556 -0.660181 -2.509138
v 2.942645 -1.581786 -3.402089
v 3.595349 -2.712302 -3.877219
v 4.63847 -1.981901 4.001243
v 3.799371 -0.981901 3.526114
v 3.11533 -0.166693 2.633163
v 2.668855 0.365396 1.430093
v 2.513795 0.550188 0.062012
v 2.668855 0.365396 -1.306068
v 3.11533 -0.166693 -2.509138
v 3.799371 -0.981901 -3.402089
v 4.63847 -1.981901 -3.877219
v 5.538912 -1.081459 4.001243
v 4.538912 -0.24236 3.526114
v 3.723704 0.441681 2.633163
v 3.191615 0.888156 1.430093
v 3.006823 1.043216 0.062012
v 3.191615 0.888156 -1.306068
v 3.723704 0.441681 -2.509138
v 4.538912 -0.24236 -3.402089
v 5.538912 -1.081459 -3.877219
v 6.269313 -0.038337 4.001243
v 5.138797 0.614366 3.526114
v 4.217192 1.146455 2.633163
v 3.615657 1.493751 1.430093
v 3.406747 1.614366 0.062012
v 3.615657 1.493751 -1.306068
v 4.217192 1.146455 -2.509138
v 5.138797 0.614366 -3.402089
v 6.269313 -0.038337 -3.877219
v 6.807482 1.11577 4.001243
v 5.580801 1.562245 3.526114
v 4.580801 1.926216 2.633163
v 3.928097 2.16378 1.430093
v 3.701415 2.246286 0.062012
v 3.928097 2.16378 -1.306068
v 4.580801 1.926216 -2.509138
v 5.580801 1.562245 -3.402089
v 6.807482 1.11577 -3.877219
v 7.137067 2.345795 4.001243
v 5.851491 2.572477 3.526114
v 4.803481 2.75727 2.633163
v 4.119441 2.877884 1.430093
v 3.881876 2.919773 0.062012
v 4.119441 2.877884 -1.306068
v 4.803481 2.75727 -2.509138
v 5.851491 2.572477 -3.402089
v 7.137067 2.345795 -3.877219
v -1.450031 11.512623 4.001243
v 7.820917 5.003518 -3.877219
v 3.950387 10.55598 -3.877219
v -2.800088 11.149962 -3.877219
v 7.820917 5.003518 4.001243
v 3.950387 10.55598 4.001243
v -2.800088 11.149962 4.001243
v 7.463332 6.351672 -3.877219
v 2.684808 11.148398 -3.877219
v -4.066226 10.557935 -3.877219
v 7.463332 6.351672 4.001243
v 2.684808 11.148398 4.001243
v -4.066226 10.557935 4.001243
v 6.876726 7.61776 -3.877219
v 1.335144 11.511619 -3.877219
v -5.209769 9.754774 -3.877219
v 6.876726 7.61776 4.001243
v 1.335144 11.511619 4.001243
v -5.209769 9.754774 4.001243
v 6.078677 8.763108 -3.877219
v -0.057355 11.634399 -3.877219
v -6.195857 8.765181 -3.877219
v 6.078677 8.763108 4.001243
v -0.057355 11.634399 4.001243
v -6.195857 8.765181 4.001243
v 5.09327 9.752642 -3.877219
v -1.450031 11.512623 -3.877219
v 5.09327 9.752642 4.001243
v -6.994526 7.619544 4.001243
v 7.938916 3.614366 -3.877219
v -7.581615 6.352973 -3.877219
v 7.938916 3.614366 4.001243
v -7.581615 6.352973 4.001243
v -8.057548 3.614366 4.001243
v -7.939489 5.004199 -3.877219
v 1.328292 -4.244029 -3.877219
v -7.939489 5.004199 4.001243
v -0.057355 -4.365258 4.001243
v -8.057548 3.614366 -3.877219
v -6.994526 7.619544 -3.877219
v -2.78699 -3.885244 -3.877219
v -7.568518 0.880526 4.001243
v -7.93252 2.225762 -3.877219
v -6.97688 -0.380623 -3.877219
v -7.93252 2.225762 4.001243
v -4.04858 -3.298639 4.001243
v -6.97688 -0.380623 4.001243
v -1.443062 -4.244367 4.001243
v -6.175791 -1.519611 -3.877219
v -0.057355 -4.365258 -3.877219
v -2.78699 -3.885244 4.001243
v -6.175791 -1.519611 4.001243
v 6.859377 -0.379011 -3.877219
v -1.443062 -4.244367 -3.877219
v -5.189703 -2.502127 -3.877219
v -7.568518 0.880526 -3.877219
v 3.933038 -3.297198 4.001243
v -5.189703 -2.502127 4.001243
v 5.073541 -2.500398 -3.877219
v -4.04858 -3.298639 -3.877219
v 5.073541 -2.500398 4.001243
v 3.933038 -3.297198 -3.877219
v 1.328292 -4.244029 4.001243
v 6.058948 -1.517822 -3.877219
v 2.671931 -3.884287 -3.877219
v 7.814065 2.226422 -3.877219
v 7.814065 2.226422 4.001243
v 6.058948 -1.517822 4.001243
v 2.671931 -3.884287 4.001243
v 6.859377 -0.379011 4.001243
v 7.450455 0.881747 -3.877219
v 7.450455 0.881747 4.001243
v -1.448501 11.513033 4.001243
v 6.868887 7.634571 4.001243
v -4.059316 10.562774 4.001243
v 6.868887 7.634571 -3.877219
v 7.819146 5.023756 -3.877219
v 6.06904 8.776871 -3.877219
v 7.458225 6.370732 4.001243
v 7.819146 5.023756 4.001243
v -4.059316 10.562774 -3.877219
v -6.987519 7.634571 4.001243
v -7.937778 2.245385 -3.877219
v -2.795477 11.152112 -3.877219
v -7.576857 6.370732 -3.877219
v 7.458225 6.370732 -3.877219
v -5.201617 9.762926 -3.877219
v 6.06904 8.776871 4.001243
v -6.987519 7.634571 -3.877219
v -7.576857 0.898409 -3.877219
v -5.201617 9.762926 4.001243
v -6.187671 8.776871 -3.877219
v -7.937778 5.023756 4.001243
v -6.187671 8.776871 4.001243
v -7.937778 2.245385 4.001243
v 1.32987 11.513033 4.001243
v -2.795477 11.152112 4.001243
v 7.940684 3.634571 4.001243
v -0.059316 11.634571 -3.877219
v -8.059316 3.634571 4.001243
v -7.937778 5.023756 -3.877219
v -7.576857 0.898409 4.001243
v 1.32987 11.513033 -3.877219
v -6.187671 -1.50773 4.001243
v -6.987519 -0.365429 -3.877219
v 7.940684 3.634571 -3.877219
v -8.059316 3.634571 -3.877219
v -7.576857 6.370732 4.001243
v -4.059316 -3.293633 4.001243
v 2.676845 11.152112 4.001243
v 3.940684 10.562774 -3.877219
v -2.795477 -3.88297 4.001243
v -4.059316 -3.293633 -3.877219
v -5.201617 -2.493785 4.001243
v 3.940684 10.562774 4.001243
v -6.987519 -0.365429 4.001243
v -2.795477 -3.88297 -3.877219
v -1.448501 11.513033 -3.877219
v -6.187671 -1.50773 -3.877219
v -1.448501 -4.243891 4.001243
v -0.059316 -4.365429 4.001243
v -1.448501 -4.243891 -3.877219
v 5.082985 9.762926 -3.877219
v -5.201617 -2.493785 -3.877219
v 2.676845 11.152112 -3.877219
v 5.082985 9.762926 4.001243
v 1.32987 -4.243891 4.001243
v 1.32987 -4.243891 -3.877219
v -0.059316 -4.365429 -3.877219
v 2.676845 -3.88297 -3.877219
v 2.676845 -3.88297 4.001243
v 3.940684 -3.293633 -3.877219
v 3.940684 -3.293633 4.001243
v 5.082985 -2.493785 -3.877219
v 6.06904 -1.50773 -3.877219
v 5.082985 -2.493785 4.001243
v 6.06904 -1.50773 4.001243
v 6.868887 -0.365429 -3.877219
v 6.868887 -0.365429 4.001243
v 7.458225 0.898409 -3.877219
v -0.059316 11.634571 4.001243
v 7.458225 0.898409 4.001243
v 7.819146 2.245385 -3.877219
v 7.819146 2.245385 4.001243

vt 1 0.277778 0
vt 0 0.277778 0
vt 1 0.333333 0
vt 0 0.333333 0
vt 1 0.388889 0
vt 0 0.388889 0
vt 1 0.444444 0
vt 0 0.444444 0
vt 1 0.5 0
vt 0 0.5 0
vt 1 0.555556 0
vt 0 0.555556 0
vt 1 0.611111 0
vt 0 0.611111 0
vt 1 0.666667 0
vt 0 0.666667 0
vt 1 0.722222 0
vt 0 0.722222 0
vt 0.027778 0.277778 0
vt 0.027778 0.333333 0
vt 0.027778 0.388889 0
vt 0.027778 0.444444 0
vt 0.027778 0.5 0
vt 0.027778 0.555556 0
vt 0.027778 0.611111 0
vt 0.027778 0.666667 0
vt 0.027778 0.722222 0
vt 0.055556 0.277778 0
vt 0.055556 0.333333 0
vt 0.055556 0.388889 0
vt 0.055556 0.444444 0
vt 0.055556 0.5 0
vt 0.055556 0.555556 0
vt 0.055556 0.611111 0
vt 0.055556 0.666667 0
vt 0.055556 0.722222 0
vt 0.083333 0.277778 0
vt 0.083333 0.333333 0
vt 0.083333 0.388889 0
vt 0.083333 0.444444 0
vt 0.083333 0.5 0
vt 0.083333 0.555556 0
vt 0.083333 0.611111 0
vt 0.083333 0.666667 0
vt 0.083333 0.722222 0
vt 0.111111 0.277778 0
vt 0.111111 0.333333 0
vt 0.111111 0.388889 0
vt 0.111111 0.444444 0
vt 0.111111 0.5 0
vt 0.111111 0.555556 0
vt 0.111111 0.611111 0
vt 0.111111 0.666667 0
vt 0.111111 0.722222 0
vt 0.138889 0.277778 0
vt 0.138889 0.333333 0
vt 0.138889 0.388889 0
vt 0.138889 0.444444 0
vt 0.138889 0.5 0
vt 0.138889 0.555556 0
vt 0.138889 0.611111 0
vt 0.138889 0.666667 0
vt 0.138889 0.722222 0
vt 0.166667 0.277778 0
vt 0.166667 0.333333 0
vt 0.166667 0.388889 0
vt 0.166667 0.444444 0
vt 0.166667 0.5 0
vt 0.166667 0.555556 0
vt 0.166667 0.611111 0
vt 0.166667 0.666667 0
vt 0.166667 0.722222 0
vt 0.194444 0.277778 0
vt 0.194444 0.333333 0
vt 0.194444 0.388889 0
vt 0.194444 0.444444 0
vt 0.194444 0.5 0
vt 0.194444 0.555556 0
vt 0.194444 0.611111 0
vt 0.194444 0.666667 0
vt 0.194444 0.722222 0
vt 0.222222 0.277778 0
vt 0.222222 0.333333 0
vt 0.222222 0.388889 0
vt 0.222222 0.444444 0
vt 0.222222 0.5 0
vt 0.222222 0.555556 0
vt 0.222222 0.611111 0
vt 0.222222 0.666667 0
vt 0.222222 0.722222 0
vt 0.25 0.277778 0
vt 0.25 0.333333 0
vt 0.25 0.388889 0
vt 0.25 0.444444 0
vt 0.25 0.5 0
vt 0.25 0.555556 0
vt 0.25 0.611111 0
vt 0.25 0.666667 0
vt 0.25 0.722222 0
vt 0.277778 0.277778 0
vt 0.277778 0.333333 0
vt 0.277778 0.388889 0
vt 0.277778 0.444444 0
vt 0.277778 0.5 0
vt 0.277778 0.555556 0
vt 0.277778 0.611111 0
vt 0.277778 0.666667 0
vt 0.277778 0.722222 0
vt 0.305556 0.277778 0
vt 0.305556 0.333333 0
vt 0.305556 0.388889 0
vt 0.305556 0.444444 0
vt 0.305556 0.5 0
vt 0.305556 0.555556 0
vt 0.305556 0.611111 0
vt 0.305556 0.666667 0
vt 0.305556 0.722222 0
vt 0.333333 0.277778 0
vt 0.333333 0.333333 0
vt 0.333333 0.388889 0
vt 0.333333 0.444444 0
vt 0.333333 0.5 0
vt 0.333333 0.555556 0
vt 0.333333 0.611111 0
vt 0.333333 0.666667 0
vt 0.333333 0.722222 0
vt 0.361111 0.277778 0
vt 0.361111 0.333333 0
vt 0.361111 0.388889 0
vt 0.361111 0.444444 0
vt 0.361111 0.5 0
vt 0.361111 0.555556 0
vt 0.361111 0.611111 0
vt 0.361111 0.666667 0
vt 0.361111 0.722222 0
vt 0.388889 0.277778 0
vt 0.388889 0.333333 0
vt 0.388889 0.388889 0
vt 0.388889 0.444444 0
vt 0.388889 0.5 0
vt 0.388889 0.555556 0
vt 0.388889 0.611111 0
vt 0.388889 0.666667 0
vt 0.388889 0.722222 0
vt 0.416667 0.277778 0
vt 0.416667 0.333333 0
vt 0.416667 0.388889 0
vt 0.416667 0.444444 0
vt 0.416667 0.5 0
vt 0.416667 0.555556 0
vt 0.416667 0.611111 0
vt 0.416667 0.666667 0
vt 0.416667 0.722222 0
vt 0.444444 0.277778 0
vt 0.444444 0.333333 0
vt 0.444444 0.388889 0
vt 0.444444 0.444444 0
vt 0.444444 0.5 0
vt 0.444444 0.555556 0
vt 0.444444 0.611111 0
vt 0.444444 0.666667 0
vt 0.444444 0.722222 0
vt 0.472222 0.277778 0
vt 0.472222 0.333333 0
vt 0.472222 0.388889 0
vt 0.472222 0.444444 0
vt 0.472222 0.5 0
vt 0.472222 0.555556 0
vt 0.472222 0.611111 0
vt 0.472222 0.666667 0
vt 0.472222 0.722222 0
vt 0.5 0.277778 0
vt 0.5 0.333333 0
vt 0.5 0.388889 0
vt 0.5 0.444444 0
vt 0.5 0.5 0
vt 0.5 0.555556 0
vt 0.5 0.611111 0
vt 0.5 0.666667 0
vt 0.5 0.722222 0
vt 0.527778 0.277778 0
vt 0.527778 0.333333 0
vt 0.527778 0.388889 0
vt 0.527778 0.444444 0
vt 0.527778 0.5 0
vt 0.527778 0.555556 0
vt 0.527778 0.611111 0
vt 0.527778 0.666667 0
vt 0.527778 0.722222 0
vt 0.555556 0.277778 0
vt 0.555556 0.333333 0
vt 0.555556 0.388889 0
vt 0.555556 0.444444 0
vt 0.555556 0.5 0
vt 0.555556 0.555556 0
vt 0.555556 0.611111 0
vt 0.555556 0.666667 0
vt 0.555556 0.722222 0
vt 0.583333 0.277778 0
vt 0.583333 0.333333 0
vt 0.583333 0.388889 0
vt 0.583333 0.444444 0
vt 0.583333 0.5 0
vt 0.583333 0.555556 0
vt 0.583333 0.611111 0
vt 0.583333 0.666667 0
vt 0.583333 0.722222 0
vt 0.611111 0.277778 0
vt 0.611111 0.333333 0
vt 0.611111 0.388889 0
vt 0.611111 0.444444 0
vt 0.611111 0.5 0
vt 0.611111 0.555556 0
vt 0.611111 0.611111 0
vt 0.611111 0.666667 0
vt 0.611111 0.722222 0
vt 0.638889 0.277778 0
vt 0.638889 0.333333 0
vt 0.638889 0.388889 0
vt 0.638889 0.444444 0
vt 0.638889 0.5 0
vt 0.638889 0.555556 0
vt 0.638889 0.611111 0
vt 0.638889 0.666667 0
vt 0.638889 0.722222 0
vt 0.666667 0.277778 0
vt 0.666667 0.333333 0
vt 0.666667 0.388889 0
vt 0.666667 0.444444 0
vt 0.666667 0.5 0
vt 0.666667 0.555556 0
vt 0.666667 0.611111 0
vt 0.666667 0.666667 0
vt 0.666667 0.722222 0
vt 0.694444 0.277778 0
vt 0.694444 0.333333 0
vt 0.694444 0.388889 0
vt 0.694444 0.444444 0
vt 0.694444 0.5 0
vt 0.694444 0.555556 0
vt 0.694444 0.611111 0
vt 0.694444 0.666667 0
vt 0.694444 0.722222 0
vt 0.722222 0.277778 0
vt 0.722222 0.333333 0
vt 0.722222 0.388889 0
vt 0.722222 0.444444 0
vt 0.722222 0.5 0
vt 0.722222 0.555556 0
vt 0.722222 0.611111 0
vt 0.722222 0.666667 0
vt 0.722222 0.722222 0
vt 0.75 0.277778 0
vt 0.75 0.333333 0
vt 0.75 0.388889 0
vt 0.75 0.444444 0
vt 0.75 0.5 0
vt 0.75 0.555556 0
vt 0.75 0.611111 0
vt 0.75 0.666667 0
vt 0.75 0.722222 0
vt 0.777778 0.277778 0
vt 0.777778 0.333333 0
vt 0.777778 0.388889 0
vt 0.777778 0.444444 0
vt 0.777778 0.5 0
vt 0.777778 0.555556 0
vt 0.777778 0.611111 0
vt 0.777778 0.666667 0
vt 0.777778 0.722222 0
vt 0.805556 0.277778 0
vt 0.805556 0.333333 0
vt 0.805556 0.388889 0
vt 0.805556 0.444444 0
vt 0.805556 0.5 0
vt 0.805556 0.555556 0
vt 0.805556 0.611111 0
vt 0.805556 0.666667 0
vt 0.805556 0.722222 0
vt 0.833333 0.277778 0
vt 0.833333 0.333333 0
vt 0.833333 0.388889 0
vt 0.833333 0.444444 0
vt 0.833333 0.5 0
vt 0.833333 0.555556 0
vt 0.833333 0.611111 0
vt 0.833333 0.666667 0
vt 0.833333 0.722222 0
vt 0.861111 0.277778 0
vt 0.861111 0.333333 0
vt 0.861111 0.388889 0
vt 0.861111 0.444444 0
vt 0.861111 0.5 0
vt 0.861111 0.555556 0
vt 0.861111 0.611111 0
vt 0.861111 0.666667 0
vt 0.861111 0.722222 0
vt 0.888889 0.277778 0
vt 0.888889 0.333333 0
vt 0.888889 0.388889 0
vt 0.888889 0.444444 0
vt 0.888889 0.5 0
vt 0.888889 0.555556 0
vt 0.888889 0.611111 0
vt 0.888889 0.666667 0
vt 0.888889 0.722222 0
vt 0.916667 0.277778 0
vt 0.916667 0.333333 0
vt 0.916667 0.388889 0
vt 0.916667 0.444444 0
vt 0.916667 0.5 0
vt 0.916667 0.555556 0
vt 0.916667 0.611111 0
vt 0.916667 0.666667 0
vt 0.916667 0.722222 0
vt 0.944444 0.277778 0
vt 0.944444 0.333333 0
vt 0.944444 0.388889 0
vt 0.944444 0.444444 0
vt 0.944444 0.5 0
vt 0.944444 0.555556 0
vt 0.944444 0.611111 0
vt 0.944444 0.666667 0
vt 0.944444 0.722222 0
vt 0.972222 0.277778 0
vt 0.972222 0.333333 0
vt 0.972222 0.388889 0
vt 0.972222 0.444444 0
vt 0.972222 0.5 0
vt 0.972222 0.555556 0
vt 0.972222 0.611111 0
vt 0.972222 0.666667 0
vt 0.972222 0.722222 0
vt 0.277778 0.249196 0
vt 0.027778 0.749992 0
vt 0.166667 0.750619 0
vt 0.305556 0.750768 0
vt 0.027778 0.250008 0
vt 0.166667 0.249381 0
vt 0.305556 0.249232 0
vt 0.055556 0.750134 0
vt 0.194444 0.750702 0
vt 0.333333 0.75071 0
vt 0.055556 0.249866 0
vt 0.194444 0.249298 0
vt 0.333333 0.24929 0
vt 0.083333 0.750271 0
vt 0.222222 0.750763 0
vt 0.361111 0.750629 0
vt 0.083333 0.249729 0
vt 0.222222 0.249237 0
vt 0.361111 0.249371 0
vt 0.111111 0.750401 0
vt 0.25 0.750801 0
vt 0.388889 0.75053 0
vt 0.111111 0.249599 0
vt 0.25 0.249199 0
vt 0.388889 0.24947 0
vt 0.138889 0.750518 0
vt 0.277778 0.750804 0
vt 0.138889 0.249482 0
vt 0.416667 0.249586 0
vt 1 0.749851 0
vt 0 0.749851 0
vt 0.444444 0.750286 0
vt 1 0.250149 0
vt 0 0.250149 0
vt 0.444444 0.249714 0
vt 0.5 0.249992 0
vt 0.472222 0.750149 0
vt 0.777778 0.749185 0
vt 0.472222 0.249851 0
vt 0.75 0.250815 0
vt 0.5 0.750008 0
vt 0.416667 0.750414 0
vt 0.694444 0.749237 0
vt 0.555556 0.250271 0
vt 0.527778 0.749866 0
vt 0.583333 0.749599 0
vt 0.527778 0.250134 0
vt 0.666667 0.250702 0
vt 0.583333 0.250401 0
vt 0.722222 0.250801 0
vt 0.611111 0.749482 0
vt 0.75 0.749185 0
vt 0.694444 0.250763 0
vt 0.611111 0.250518 0
vt 0.916667 0.74947 0
vt 0.722222 0.749199 0
vt 0.638889 0.749381 0
vt 0.555556 0.749729 0
vt 0.833333 0.250768 0
vt 0.638889 0.250619 0
vt 0.861111 0.74929 0
vt 0.666667 0.749298 0
vt 0.861111 0.25071 0
vt 0.833333 0.749232 0
vt 0.777778 0.250815 0
vt 0.888889 0.749371 0
vt 0.805556 0.749196 0
vt 0.972222 0.749714 0
vt 0.972222 0.250286 0
vt 0.888889 0.250629 0
vt 0.805556 0.250804 0
vt 0.916667 0.25053 0
vt 0.944444 0.749586 0
vt 0.944444 0.250414 0
vt 0.277746 0.249185 0
vt 0.083702 0.249599 0
vt 0.333166 0.249232 0
vt 0.083702 0.750401 0
vt 0.028182 0.750134 0
vt 0.111445 0.750518 0
vt 0.055948 0.249729 0
vt 0.028182 0.249866 0
vt 0.333166 0.750768 0
vt 0.416337 0.24947 0
vt 0.527373 0.750008 0
vt 0.305454 0.750804 0
vt 0.444079 0.750414 0
vt 0.055948 0.750271 0
vt 0.360882 0.75071 0
vt 0.111445 0.249482 0
vt 0.416337 0.75053 0
vt 0.555162 0.749866 0
vt 0.360882 0.24929 0
vt 0.388605 0.750629 0
vt 0.471832 0.249714 0
vt 0.388605 0.249371 0
vt 0.527373 0.249992 0
vt 0.222331 0.249199 0
vt 0.305454 0.249196 0
vt 0.000404 0.250008 0
vt 0.250039 0.750815 0
vt 0.499596 0.249851 0
vt 0.471832 0.750286 0
vt 0.555162 0.250134 0
vt 0.222331 0.750801 0
vt 0.610776 0.250401 0
vt 0.582964 0.749729 0
vt 0.000404 0.749992 0
vt 0.499596 0.750149 0
vt 0.444079 0.249586 0
vt 0.66643 0.250619 0
vt 0.194619 0.249237 0
vt 0.166902 0.750702 0
vt 0.694269 0.250702 0
vt 0.66643 0.749381 0
vt 0.638599 0.250518 0
vt 0.166902 0.249298 0
vt 0.582964 0.250271 0
vt 0.694269 0.749298 0
vt 0.277746 0.750815 0
vt 0.610776 0.749599 0
vt 0.722113 0.250763 0
vt 0.749961 0.250801 0
vt 0.722113 0.749237 0
vt 0.139178 0.750619 0
vt 0.638599 0.749482 0
vt 0.194619 0.750763 0
vt 0.139178 0.249381 0
vt 0.777809 0.250804 0
vt 0.777809 0.749196 0
vt 0.749961 0.749199 0
vt 0.805657 0.749232 0
vt 0.805657 0.250768 0
vt 0.833502 0.74929 0
vt 0.833502 0.25071 0
vt 0.861341 0.749371 0
vt 0.889174 0.74947 0
vt 0.861341 0.250629 0
vt 0.889174 0.25053 0
vt 0.916997 0.749586 0
vt 0.916997 0.250414 0
vt 0.944811 0.749714 0
vt 0.250039 0.249185 0
vt 0.944811 0.250286 0
vt 0.972613 0.749851 0
vt 0.972613 0.250149 0

f 1180/912 768/498 1087/817 
f 768/498 1180/912 1114/846 759/481 
f 769/499 768/498 759/481 760/483 
f 770/500 769/499 760/483 761/485 
f 771/501 770/500 761/485 762/487 
f 772/502 771/501 762/487 763/489 
f 773/503 772/502 763/489 764/491 
f 774/504 773/503 764/491 765/493 
f 775/505 774/504 765/493 766/495 
f 776/506 775/505 766/495 767/497 
f 1112/843 1188/920 776/506 767/497 
f 776/506 1188/920 1084/814 
f 777/507 1162/894 1087/817 768/498 
f 1162/894 777/507 1093/823 
f 778/508 777/507 768/498 769/499 
f 779/509 778/508 769/499 770/500 
f 780/510 779/509 770/500 771/501 
f 781/511 780/510 771/501 772/502 
f 782/512 781/511 772/502 773/503 
f 783/513 782/512 773/503 774/504 
f 784/514 783/513 774/504 775/505 
f 785/515 784/514 775/505 776/506 
f 785/515 1159/891 1090/820 
f 1084/814 1159/891 785/515 776/506 
f 777/507 786/516 1161/893 1093/823 
f 1099/829 1161/893 786/516 
f 787/517 786/516 777/507 778/508 
f 788/518 787/517 778/508 779/509 
f 789/519 788/518 779/509 780/510 
f 790/520 789/519 780/510 781/511 
f 791/521 790/520 781/511 782/512 
f 792/522 791/521 782/512 783/513 
f 793/523 792/522 783/513 784/514 
f 794/524 793/523 784/514 785/515 
f 794/524 1168/900 1096/826 
f 1090/820 1168/900 794/524 785/515 
f 1105/835 1156/888 786/516 795/525 
f 786/516 1156/888 1099/829 
f 796/526 795/525 786/516 787/517 
f 797/527 796/526 787/517 788/518 
f 798/528 797/527 788/518 789/519 
f 799/529 798/528 789/519 790/520 
f 800/530 799/529 790/520 791/521 
f 801/531 800/530 791/521 792/522 
f 802/532 801/531 792/522 793/523 
f 803/533 802/532 793/523 794/524 
f 803/533 1158/890 1102/832 
f 1096/826 1158/890 803/533 794/524 
f 795/525 804/534 1170/902 1105/835 
f 1110/840 1170/902 804/534 
f 805/535 804/534 795/525 796/526 
f 806/536 805/535 796/526 797/527 
f 807/537 806/536 797/527 798/528 
f 808/538 807/537 798/528 799/529 
f 809/539 808/538 799/529 800/530 
f 810/540 809/539 800/530 801/531 
f 811/541 810/540 801/531 802/532 
f 812/542 811/541 802/532 803/533 
f 812/542 1160/892 1108/838 
f 1102/832 1160/892 812/542 803/533 
f 804/534 813/543 1208/940 1110/840 
f 1088/818 1208/940 813/543 
f 814/544 813/543 804/534 805/535 
f 815/545 814/544 805/535 806/536 
f 816/546 815/545 806/536 807/537 
f 817/547 816/546 807/537 808/538 
f 818/548 817/547 808/538 809/539 
f 819/549 818/548 809/539 810/540 
f 820/550 819/549 810/540 811/541 
f 821/551 820/550 811/541 812/542 
f 1205/937 821/551 812/542 1108/838 
f 821/551 1205/937 1085/815 
f 1094/824 1197/929 813/543 822/552 
f 813/543 1197/929 1088/818 
f 823/553 822/552 813/543 814/544 
f 824/554 823/553 814/544 815/545 
f 825/555 824/554 815/545 816/546 
f 826/556 825/555 816/546 817/547 
f 827/557 826/556 817/547 818/548 
f 828/558 827/557 818/548 819/549 
f 829/559 828/558 819/549 820/550 
f 830/560 829/559 820/550 821/551 
f 830/560 1193/925 1091/821 
f 1085/815 830/560 821/551 
f 1085/815 1193/925 830/560 
f 831/561 1094/824 822/552 
f 1192/924 831/561 1100/830 
f 831/561 1192/924 1094/824 
f 832/562 831/561 822/552 823/553 
f 833/563 832/562 823/553 824/554 
f 834/564 833/563 824/554 825/555 
f 835/565 834/564 825/555 826/556 
f 836/566 835/565 826/556 827/557 
f 837/567 836/566 827/557 828/558 
f 838/568 837/567 828/558 829/559 
f 839/569 838/568 829/559 830/560 
f 839/569 1207/939 1097/827 
f 1091/821 839/569 830/560 
f 1091/821 1207/939 839/569 
f 831/561 1178/910 1100/830 
f 1106/836 1178/910 831/561 840/570 
f 841/571 840/570 831/561 832/562 
f 842/572 841/571 832/562 833/563 
f 843/573 842/572 833/563 834/564 
f 844/574 843/573 834/564 835/565 
f 845/575 844/574 835/565 836/566 
f 846/576 845/575 836/566 837/567 
f 847/577 846/576 837/567 838/568 
f 848/578 847/577 838/568 839/569 
f 1185/917 839/569 1097/827 
f 839/569 1185/917 1103/833 848/578 
f 840/570 1223/955 1106/836 
f 840/570 849/579 1083/813 
f 840/570 1155/887 1223/955 
f 1083/813 1155/887 840/570 
f 850/580 849/579 840/570 841/571 
f 851/581 850/580 841/571 842/572 
f 852/582 851/581 842/572 843/573 
f 853/583 852/582 843/573 844/574 
f 854/584 853/583 844/574 845/575 
f 855/585 854/584 845/575 846/576 
f 856/586 855/585 846/576 847/577 
f 857/587 856/586 847/577 848/578 
f 848/578 1200/932 1109/839 
f 1109/839 857/587 848/578 
f 848/578 1103/833 1181/913 
f 1181/913 1200/932 848/578 
f 858/588 1179/911 1083/813 849/579 
f 1179/911 858/588 1089/819 
f 859/589 858/588 849/579 850/580 
f 860/590 859/589 850/580 851/581 
f 861/591 860/590 851/581 852/582 
f 862/592 861/591 852/582 853/583 
f 863/593 862/592 853/583 854/584 
f 864/594 863/593 854/584 855/585 
f 865/595 864/594 855/585 856/586 
f 866/596 865/595 856/586 857/587 
f 857/587 1166/898 1086/816 
f 1166/898 857/587 1109/839 
f 857/587 1086/816 866/596 
f 858/588 1157/889 1089/819 
f 1095/825 858/588 867/597 
f 1157/889 858/588 1095/825 
f 868/598 867/597 858/588 859/589 
f 869/599 868/598 859/589 860/590 
f 870/600 869/599 860/590 861/591 
f 871/601 870/600 861/591 862/592 
f 872/602 871/601 862/592 863/593 
f 873/603 872/602 863/593 864/594 
f 874/604 873/603 864/594 865/595 
f 875/605 874/604 865/595 866/596 
f 1086/816 1163/895 875/605 866/596 
f 875/605 1163/895 1092/822 
f 1173/905 1095/825 867/597 
f 867/597 876/606 1101/831 
f 1173/905 867/597 1101/831 
f 877/607 876/606 867/597 868/598 
f 878/608 877/607 868/598 869/599 
f 879/609 878/608 869/599 870/600 
f 880/610 879/609 870/600 871/601 
f 881/611 880/610 871/601 872/602 
f 882/612 881/611 872/602 873/603 
f 883/613 882/612 873/603 874/604 
f 884/614 883/613 874/604 875/605 
f 1092/822 1169/901 884/614 875/605 
f 884/614 1169/901 1098/828 
f 885/615 1176/908 1101/831 876/606 
f 1176/908 885/615 1107/837 
f 886/616 885/615 876/606 877/607 
f 887/617 886/616 877/607 878/608 
f 888/618 887/617 878/608 879/609 
f 889/619 888/618 879/609 880/610 
f 890/620 889/619 880/610 881/611 
f 891/621 890/620 881/611 882/612 
f 892/622 891/621 882/612 883/613 
f 893/623 892/622 883/613 884/614 
f 893/623 884/614 1174/906 1104/834 
f 1174/906 884/614 1098/828 
f 1164/896 885/615 894/624 1111/841 
f 885/615 1164/896 1107/837 
f 895/625 894/624 885/615 886/616 
f 896/626 895/625 886/616 887/617 
f 897/627 896/626 887/617 888/618 
f 898/628 897/627 888/618 889/619 
f 899/629 898/628 889/619 890/620 
f 900/630 899/629 890/620 891/621 
f 901/631 900/630 891/621 892/622 
f 902/632 901/631 892/622 893/623 
f 893/623 1171/903 1122/854 902/632 
f 1171/903 893/623 1104/834 
f 1115/847 1190/922 894/624 903/633 
f 894/624 1190/922 1111/841 
f 904/634 903/633 894/624 895/625 
f 905/635 904/634 895/625 896/626 
f 906/636 905/635 896/626 897/627 
f 907/637 906/636 897/627 898/628 
f 908/638 907/637 898/628 899/629 
f 909/639 908/638 899/629 900/630 
f 910/640 909/639 900/630 901/631 
f 911/641 910/640 901/631 902/632 
f 911/641 1167/899 1113/844 
f 1122/854 1167/899 911/641 902/632 
f 1175/907 912/642 1119/851 
f 912/642 1175/907 1115/847 903/633 
f 913/643 912/642 903/633 904/634 
f 914/644 913/643 904/634 905/635 
f 915/645 914/644 905/635 906/636 
f 916/646 915/645 906/636 907/637 
f 917/647 916/646 907/637 908/638 
f 918/648 917/647 908/638 909/639 
f 919/649 918/648 909/639 910/640 
f 920/650 919/649 910/640 911/641 
f 920/650 1183/915 1117/849 
f 1113/844 1183/915 920/650 911/641 
f 1182/914 912/642 921/651 1116/848 
f 912/642 1182/914 1119/851 
f 922/652 921/651 912/642 913/643 
f 923/653 922/652 913/643 914/644 
f 924/654 923/653 914/644 915/645 
f 925/655 924/654 915/645 916/646 
f 926/656 925/655 916/646 917/647 
f 927/657 926/656 917/647 918/648 
f 928/658 927/657 918/648 919/649 
f 929/659 928/658 919/649 920/650 
f 929/659 920/650 1189/921 1121/853 
f 1117/849 1189/921 920/650 
f 930/660 1177/909 1116/848 921/651 
f 1177/909 930/660 1127/859 
f 931/661 930/660 921/651 922/652 
f 932/662 931/661 922/652 923/653 
f 933/663 932/662 923/653 924/654 
f 934/664 933/663 924/654 925/655 
f 935/665 934/664 925/655 926/656 
f 936/666 935/665 926/656 927/657 
f 937/667 936/666 927/657 928/658 
f 938/668 937/667 928/658 929/659 
f 1121/853 1165/897 938/668 929/659 
f 938/668 1165/897 1125/857 
f 930/660 1184/916 1127/859 
f 1124/856 1184/916 930/660 939/669 
f 940/670 939/669 930/660 931/661 
f 941/671 940/670 931/661 932/662 
f 942/672 941/671 932/662 933/663 
f 943/673 942/672 933/663 934/664 
f 944/674 943/673 934/664 935/665 
f 945/675 944/674 935/665 936/666 
f 946/676 945/675 936/666 937/667 
f 947/677 946/676 937/667 938/668 
f 938/668 1172/904 1138/870 947/677 
f 1172/904 938/668 1125/857 
f 939/669 1198/930 1124/856 
f 1129/861 1198/930 939/669 948/678 
f 949/679 948/678 939/669 940/670 
f 950/680 949/679 940/670 941/671 
f 951/681 950/680 941/671 942/672 
f 952/682 951/681 942/672 943/673 
f 953/683 952/682 943/673 944/674 
f 954/684 953/683 944/674 945/675 
f 955/685 954/684 945/675 946/676 
f 956/686 955/685 946/676 947/677 
f 956/686 1187/919 1126/858 
f 1138/870 1187/919 956/686 947/677 
f 948/678 1186/918 1129/861 
f 1134/866 1186/918 948/678 957/687 
f 958/688 957/687 948/678 949/679 
f 959/689 958/688 949/679 950/680 
f 960/690 959/689 950/680 951/681 
f 961/691 960/690 951/681 952/682 
f 962/692 961/691 952/682 953/683 
f 963/693 962/692 953/683 954/684 
f 964/694 963/693 954/684 955/685 
f 965/695 964/694 955/685 956/686 
f 965/695 1201/933 1131/863 
f 1126/858 1201/933 965/695 956/686 
f 957/687 1196/928 1134/866 
f 1140/872 1196/928 957/687 966/696 
f 967/697 966/696 957/687 958/688 
f 968/698 967/697 958/688 959/689 
f 969/699 968/698 959/689 960/690 
f 970/700 969/699 960/690 961/691 
f 971/701 970/700 961/691 962/692 
f 972/702 971/701 962/692 963/693 
f 973/703 972/702 963/693 964/694 
f 974/704 973/703 964/694 965/695 
f 1206/938 965/695 1131/863 
f 965/695 1206/938 1137/869 974/704 
f 966/696 975/705 1128/860 
f 1191/923 1140/872 966/696 
f 1191/923 966/696 1128/860 
f 976/706 975/705 966/696 967/697 
f 977/707 976/706 967/697 968/698 
f 978/708 977/707 968/698 969/699 
f 979/709 978/708 969/699 970/700 
f 980/710 979/709 970/700 971/701 
f 981/711 980/710 971/701 972/702 
f 982/712 981/711 972/702 973/703 
f 983/713 982/712 973/703 974/704 
f 974/704 1142/874 983/713 
f 1195/927 974/704 1137/869 
f 974/704 1195/927 1142/874 
f 1133/865 975/705 984/714 
f 975/705 1194/926 1128/860 
f 1194/926 975/705 1133/865 
f 985/715 984/714 975/705 976/706 
f 986/716 985/715 976/706 977/707 
f 987/717 986/716 977/707 978/708 
f 988/718 987/717 978/708 979/709 
f 989/719 988/718 979/709 980/710 
f 990/720 989/719 980/710 981/711 
f 991/721 990/720 981/711 982/712 
f 992/722 991/721 982/712 983/713 
f 983/713 1123/855 992/722 
f 1199/931 983/713 1142/874 
f 1199/931 1123/855 983/713 
f 1202/934 993/723 1130/862 
f 993/723 1202/934 1133/865 984/714 
f 994/724 993/723 984/714 985/715 
f 995/725 994/724 985/715 986/716 
f 996/726 995/725 986/716 987/717 
f 997/727 996/726 987/717 988/718 
f 998/728 997/727 988/718 989/719 
f 999/729 998/728 989/719 990/720 
f 1000/730 999/729 990/720 991/721 
f 1001/731 1000/730 991/721 992/722 
f 992/722 1136/868 1001/731 
f 1204/936 992/722 1123/855 
f 992/722 1204/936 1136/868 
f 1120/852 993/723 1002/732 
f 993/723 1203/935 1130/862 
f 1203/935 993/723 1120/852 
f 1003/733 1002/732 993/723 994/724 
f 1004/734 1003/733 994/724 995/725 
f 1005/735 1004/734 995/725 996/726 
f 1006/736 1005/735 996/726 997/727 
f 1007/737 1006/736 997/727 998/728 
f 1008/738 1007/737 998/728 999/729 
f 1009/739 1008/738 999/729 1000/730 
f 1010/740 1009/739 1000/730 1001/731 
f 1001/731 1132/864 1010/740 
f 1211/943 1001/731 1136/868 
f 1211/943 1132/864 1001/731 
f 1011/741 1145/877 1120/852 1002/732 
f 1012/742 1011/741 1002/732 1003/733 
f 1013/743 1012/742 1003/733 1004/734 
f 1014/744 1013/743 1004/734 1005/735 
f 1015/745 1014/744 1005/735 1006/736 
f 1016/746 1015/745 1006/736 1007/737 
f 1017/747 1016/746 1007/737 1008/738 
f 1018/748 1017/747 1008/738 1009/739 
f 1019/749 1018/748 1009/739 1010/740 
f 1118/850 1019/749 1010/740 1132/864 
f 1011/741 1209/941 1145/877 
f 1151/883 1209/941 1011/741 1020/750 
f 1021/751 1020/750 1011/741 1012/742 
f 1022/752 1021/751 1012/742 1013/743 
f 1023/753 1022/752 1013/743 1014/744 
f 1024/754 1023/753 1014/744 1015/745 
f 1025/755 1024/754 1015/745 1016/746 
f 1026/756 1025/755 1016/746 1017/747 
f 1027/757 1026/756 1017/747 1018/748 
f 1028/758 1027/757 1018/748 1019/749 
f 1210/942 1019/749 1118/850 
f 1019/749 1210/942 1147/879 1028/758 
f 1213/945 1029/759 1139/871 
f 1029/759 1151/883 1020/750 
f 1029/759 1213/945 1151/883 
f 1030/760 1029/759 1020/750 1021/751 
f 1031/761 1030/760 1021/751 1022/752 
f 1032/762 1031/761 1022/752 1023/753 
f 1033/763 1032/762 1023/753 1024/754 
f 1034/764 1033/763 1024/754 1025/755 
f 1035/765 1034/764 1025/755 1026/756 
f 1036/766 1035/765 1026/756 1027/757 
f 1037/767 1036/766 1027/757 1028/758 
f 1212/944 1144/876 1037/767 
f 1037/767 1028/758 1147/879 
f 1212/944 1037/767 1147/879 
f 1038/768 1139/871 1029/759 
f 1215/947 1038/768 1143/875 
f 1215/947 1139/871 1038/768 
f 1039/769 1038/768 1029/759 1030/760 
f 1040/770 1039/769 1030/760 1031/761 
f 1041/771 1040/770 1031/761 1032/762 
f 1042/772 1041/771 1032/762 1033/763 
f 1043/773 1042/772 1033/763 1034/764 
f 1044/774 1043/773 1034/764 1035/765 
f 1045/775 1044/774 1035/765 1036/766 
f 1046/776 1045/775 1036/766 1037/767 
f 1046/776 1037/767 1144/876 
f 1046/776 1214/946 1141/873 
f 1214/946 1046/776 1144/876 
f 1047/777 1143/875 1038/768 
f 1218/950 1047/777 1150/882 
f 1218/950 1143/875 1047/777 
f 1048/778 1047/777 1038/768 1039/769 
f 1049/779 1048/778 1039/769 1040/770 
f 1050/780 1049/779 1040/770 1041/771 
f 1051/781 1050/780 1041/771 1042/772 
f 1052/782 1051/781 1042/772 1043/773 
f 1053/783 1052/782 1043/773 1044/774 
f 1054/784 1053/783 1044/774 1045/775 
f 1055/785 1054/784 1045/775 1046/776 
f 1046/776 1216/948 1146/878 1055/785 
f 1216/948 1046/776 1141/873 
f 1047/777 1056/786 1219/951 1150/882 
f 1219/951 1056/786 1152/884 
f 1057/787 1056/786 1047/777 1048/778 
f 1058/788 1057/787 1048/778 1049/779 
f 1059/789 1058/788 1049/779 1050/780 
f 1060/790 1059/789 1050/780 1051/781 
f 1061/791 1060/790 1051/781 1052/782 
f 1062/792 1061/791 1052/782 1053/783 
f 1063/793 1062/792 1053/783 1054/784 
f 1064/794 1063/793 1054/784 1055/785 
f 1217/949 1064/794 1055/785 1146/878 
f 1064/794 1217/949 1135/867 
f 1154/886 1221/953 1056/786 1065/795 
f 1056/786 1221/953 1152/884 
f 1066/796 1065/795 1056/786 1057/787 
f 1067/797 1066/796 1057/787 1058/788 
f 1068/798 1067/797 1058/788 1059/789 
f 1069/799 1068/798 1059/789 1060/790 
f 1070/800 1069/799 1060/790 1061/791 
f 1071/801 1070/800 1061/791 1062/792 
f 1072/802 1071/801 1062/792 1063/793 
f 1073/803 1072/802 1063/793 1064/794 
f 1220/952 1064/794 1135/867 
f 1064/794 1220/952 1153/885 1073/803 
f 1224/956 1074/804 1149/881 
f 1074/804 1224/956 1154/886 1065/795 
f 1075/805 1074/804 1065/795 1066/796 
f 1076/806 1075/805 1066/796 1067/797 
f 1077/807 1076/806 1067/797 1068/798 
f 1078/808 1077/807 1068/798 1069/799 
f 1079/809 1078/808 1069/799 1070/800 
f 1080/810 1079/809 1070/800 1071/801 
f 1081/811 1080/810 1071/801 1072/802 
f 1082/812 1081/811 1072/802 1073/803 
f 1222/954 1082/812 1073/803 1153/885 
f 1222/954 1148/880 1082/812 
f 1114/845 1226/958 1074/804 759/480 
f 1074/804 1226/958 1149/881 
f 760/482 759/480 1074/804 1075/805 
f 761/484 760/482 1075/805 1076/806 
f 762/486 761/484 1076/806 1077/807 
f 763/488 762/486 1077/807 1078/808 
f 764/490 763/488 1078/808 1079/809 
f 765/492 764/490 1079/809 1080/810 
f 766/494 765/492 1080/810 1081/811 
f 767/496 766/494 1081/811 1082/812 
f 1082/812 1225/957 1112/842 767/496 
f 1225/957 1082/812 1148/880 

