newmtl DGray
Kd 0.294118 0.294118 0.294118
illum 1

newmtl WoodBrown
Kd 0.458824 0.282353 0.192157
illum 1

newmtl Chrome
Kd 0.882353 0.929412 0.811765
illum 1

newmtl DRed
Kd 0.705882 0.000000 0.000000
illum 1

newmtl White
Kd 1.00000 1.000000 1.000000
illum 1

newmtl Black
Kd 0.00000 0.000000 0.000000
illum 1

newmtl GrayBlue
Kd 0.684314 0.649020 0.805882
illum 1

newmtl DYellow
Kd 0.843137 0.843137 0.000000
illum 1

newmtl DGreen
Kd 0.133333 0.694118 0.298039
illum 1